runsolver Copyright (C) 2010-2013 Olivier ROUSSEL

This is runsolver version 3.3.4 (svn: 1649)

This program is distributed in the hope that it will be useful,
but WITHOUT ANY WARRANTY; without even the implied warranty of
MERCHANTABILITY or FITNESS FOR A PARTICULAR PURPOSE.  See the
GNU General Public License for more details.

command line: ./runsolver -C 600 -M 2048 -w 2017-04-11_11.47.57/waspOrig/three_sat/roughBenchmarks/three_sat-14.dat -o 2017-04-11_11.47.57/waspOrig/three_sat/outputs/three_sat-14.dat ../wasp-lazy-work/lazyConstraintsExperiments/3-sat/waspOrig.sh ../wasp-lazy-work/lazyConstraintsExperiments/3-sat/instancesFixedClauses/240_1100_4.asp 

running on 8 cores: 0-7

Enforcing CPUTime limit (soft limit, will send SIGTERM then SIGKILL): 600 seconds
Enforcing CPUTime limit (hard limit, will send SIGXCPU): 630 seconds
Enforcing VSIZE limit (soft limit, will send SIGTERM then SIGKILL): 2097152 KiB
Enforcing VSIZE limit (hard limit, stack expansion will fail with SIGSEGV, brk() and mmap() will return ENOMEM): 2148352 KiB
Current StackSize limit: 8192 KiB


[startup+0 s]
/proc/loadavg: 3.19 1.66 1.09 6/979 25213
/proc/meminfo: memFree=791796/8064712 swapFree=16/836544
[pid=25199] ppid=25197 vsize=4508 CPUtime=0 cores=0-7
/proc/25199/stat : 25199 (sh) S 25197 25199 18417 34816 25145 4194304 110 173 0 0 0 0 0 0 20 0 1 0 670630 4616192 200 18446744073709551615 94727380721664 94727380865564 140725995095600 140725995094408 139973938828666 0 0 0 65538 1 0 0 17 3 0 0 0 0 0 94727382966120 94727382970912 94727401209856 140725995102789 140725995102948 140725995102948 140725995106288 0
/proc/25199/statm: 1127 200 180 36 0 83 0
[pid=25207] ppid=25199 vsize=31324 CPUtime=0 cores=0-7
/proc/25207/stat : 25207 (gringo) R 25199 25199 18417 34816 25145 4194304 287 0 1 0 0 0 0 0 20 0 1 0 670630 32075776 1310 18446744073709551615 94403136143360 94403137796672 140733517951760 140733517947512 140029483280000 0 0 0 0 0 0 0 17 5 0 0 0 0 0 94403139897520 94403139956304 94403167133696 140733517959675 140733517959900 140733517959900 140733517963240 0
/proc/25207/statm: 7831 1310 1156 404 0 147 0
[pid=25209] ppid=25199 vsize=28344 CPUtime=0 cores=0-7
/proc/25209/stat : 25209 (wasp) S 25199 25199 18417 34816 25145 4194304 234 0 0 0 0 0 0 0 20 0 1 0 670630 29024256 699 18446744073709551615 4194304 5154736 140730596122240 140730596121032 139892914755200 0 0 0 8404994 1 0 0 17 1 0 0 0 0 0 7252936 7256980 9519104 140730596127439 140730596127444 140730596127444 140730596130784 0
/proc/25209/statm: 7086 699 586 235 0 146 0

[startup+0.048071 s]
/proc/loadavg: 3.19 1.66 1.09 6/979 25213
/proc/meminfo: memFree=791796/8064712 swapFree=16/836544
[pid=25199] ppid=25197 vsize=4508 CPUtime=0.02 cores=0-7
/proc/25199/stat : 25199 (sh) S 25197 25199 18417 34816 25145 4194304 111 636 0 1 0 0 2 0 20 0 1 0 670630 4616192 200 18446744073709551615 94727380721664 94727380865564 140725995095600 140725995094408 139973938828666 0 0 0 65538 1 0 0 17 6 0 0 0 0 0 94727382966120 94727382970912 94727401209856 140725995102789 140725995102948 140725995102948 140725995106288 0
/proc/25199/statm: 1127 200 180 36 0 83 0
[pid=25209] ppid=25199 vsize=29588 CPUtime=0.01 cores=0-7
/proc/25209/stat : 25209 (wasp) R 25199 25199 18417 34816 25145 4194304 677 0 0 0 1 0 0 0 20 0 1 0 670630 30298112 1497 18446744073709551615 4194304 5154736 140730596122240 140730596120944 4368910 0 0 0 8404994 0 0 0 17 1 0 0 0 0 0 7252936 7256980 9519104 140730596127439 140730596127444 140730596127444 140730596130784 0
/proc/25209/statm: 7397 1497 1060 235 0 457 0
Current children cumulated CPU time (s) 0.03
Current children cumulated vsize (KiB) 34096

[startup+0.100297 s]
/proc/loadavg: 3.19 1.66 1.09 6/979 25213
/proc/meminfo: memFree=791796/8064712 swapFree=16/836544
[pid=25199] ppid=25197 vsize=4508 CPUtime=0.02 cores=0-7
/proc/25199/stat : 25199 (sh) S 25197 25199 18417 34816 25145 4194304 111 636 0 1 0 0 2 0 20 0 1 0 670630 4616192 200 18446744073709551615 94727380721664 94727380865564 140725995095600 140725995094408 139973938828666 0 0 0 65538 1 0 0 17 6 0 0 0 0 0 94727382966120 94727382970912 94727401209856 140725995102789 140725995102948 140725995102948 140725995106288 0
/proc/25199/statm: 1127 200 180 36 0 83 0
[pid=25209] ppid=25199 vsize=29720 CPUtime=0.06 cores=0-7
/proc/25209/stat : 25209 (wasp) R 25199 25199 18417 34816 25145 4194304 710 0 0 0 6 0 0 0 20 0 1 0 670630 30433280 1497 18446744073709551615 4194304 5154736 140730596122240 140730596121232 4779010 0 0 0 8404994 0 0 0 17 1 0 0 0 0 0 7252936 7256980 9519104 140730596127439 140730596127444 140730596127444 140730596130784 0
/proc/25209/statm: 7430 1497 1060 235 0 490 0
Current children cumulated CPU time (s) 0.08
Current children cumulated vsize (KiB) 34228

[startup+0.300271 s]
/proc/loadavg: 3.19 1.66 1.09 6/979 25213
/proc/meminfo: memFree=791796/8064712 swapFree=16/836544
[pid=25199] ppid=25197 vsize=4508 CPUtime=0.02 cores=0-7
/proc/25199/stat : 25199 (sh) S 25197 25199 18417 34816 25145 4194304 111 636 0 1 0 0 2 0 20 0 1 0 670630 4616192 200 18446744073709551615 94727380721664 94727380865564 140725995095600 140725995094408 139973938828666 0 0 0 65538 1 0 0 17 6 0 0 0 0 0 94727382966120 94727382970912 94727401209856 140725995102789 140725995102948 140725995102948 140725995106288 0
/proc/25199/statm: 1127 200 180 36 0 83 0
[pid=25209] ppid=25199 vsize=30596 CPUtime=0.26 cores=0-7
/proc/25209/stat : 25209 (wasp) R 25199 25199 18417 34816 25145 4194304 932 0 0 0 26 0 0 0 20 0 1 0 670630 31330304 1694 18446744073709551615 4194304 5154736 140730596122240 140730596121232 4778931 0 0 0 8404994 0 0 0 17 1 0 0 0 0 0 7252936 7256980 9519104 140730596127439 140730596127444 140730596127444 140730596130784 0
/proc/25209/statm: 7649 1694 1060 235 0 709 0
Current children cumulated CPU time (s) 0.28
Current children cumulated vsize (KiB) 35104

[startup+0.700301 s]
/proc/loadavg: 3.19 1.66 1.09 6/979 25213
/proc/meminfo: memFree=791796/8064712 swapFree=16/836544
[pid=25199] ppid=25197 vsize=4508 CPUtime=0.02 cores=0-7
/proc/25199/stat : 25199 (sh) S 25197 25199 18417 34816 25145 4194304 111 636 0 1 0 0 2 0 20 0 1 0 670630 4616192 200 18446744073709551615 94727380721664 94727380865564 140725995095600 140725995094408 139973938828666 0 0 0 65538 1 0 0 17 6 0 0 0 0 0 94727382966120 94727382970912 94727401209856 140725995102789 140725995102948 140725995102948 140725995106288 0
/proc/25199/statm: 1127 200 180 36 0 83 0
[pid=25209] ppid=25199 vsize=31580 CPUtime=0.66 cores=0-7
/proc/25209/stat : 25209 (wasp) R 25199 25199 18417 34816 25145 4194304 1175 0 0 0 66 0 0 0 20 0 1 0 670630 32337920 1958 18446744073709551615 4194304 5154736 140730596122240 140730596121296 4778071 0 0 0 8404994 0 0 0 17 1 0 0 0 0 0 7252936 7256980 9519104 140730596127439 140730596127444 140730596127444 140730596130784 0
/proc/25209/statm: 7895 1958 1060 235 0 955 0
Current children cumulated CPU time (s) 0.68
Current children cumulated vsize (KiB) 36088

Solver just ended. Dumping a history of the last processes samples

[startup+1.10642 s]
/proc/loadavg: 3.19 1.66 1.09 5/975 25225
/proc/meminfo: memFree=767764/8064712 swapFree=16/833796
[pid=25199] ppid=25197 vsize=4508 CPUtime=0.02 cores=0-7
/proc/25199/stat : 25199 (sh) S 25197 25199 18417 34816 25145 4194304 111 636 0 1 0 0 2 0 20 0 1 0 670630 4616192 200 18446744073709551615 94727380721664 94727380865564 140725995095600 140725995094408 139973938828666 0 0 0 65538 1 0 0 17 6 0 0 0 0 0 94727382966120 94727382970912 94727401209856 140725995102789 140725995102948 140725995102948 140725995106288 0
/proc/25199/statm: 1127 200 180 36 0 83 0
[pid=25209] ppid=25199 vsize=31848 CPUtime=1.07 cores=0-7
/proc/25209/stat : 25209 (wasp) R 25199 25199 18417 34816 25145 4194304 1227 0 0 0 107 0 0 0 20 0 1 0 670630 32612352 2024 18446744073709551615 4194304 5154736 140730596122240 140730596121232 4778790 0 0 0 8404994 0 0 0 17 1 0 0 0 0 0 7252936 7256980 9519104 140730596127439 140730596127444 140730596127444 140730596130784 0
/proc/25209/statm: 7962 2024 1060 235 0 1022 0
Current children cumulated CPU time (s) 1.09
Current children cumulated vsize (KiB) 36356

[startup+1.30017 s]
/proc/loadavg: 3.19 1.66 1.09 5/975 25225
/proc/meminfo: memFree=767764/8064712 swapFree=16/833796
[pid=25199] ppid=25197 vsize=4508 CPUtime=0.02 cores=0-7
/proc/25199/stat : 25199 (sh) S 25197 25199 18417 34816 25145 4194304 111 636 0 1 0 0 2 0 20 0 1 0 670630 4616192 200 18446744073709551615 94727380721664 94727380865564 140725995095600 140725995094408 139973938828666 0 0 0 65538 1 0 0 17 6 0 0 0 0 0 94727382966120 94727382970912 94727401209856 140725995102789 140725995102948 140725995102948 140725995106288 0
/proc/25199/statm: 1127 200 180 36 0 83 0
[pid=25209] ppid=25199 vsize=31848 CPUtime=1.26 cores=0-7
/proc/25209/stat : 25209 (wasp) R 25199 25199 18417 34816 25145 4194304 1236 0 0 0 126 0 0 0 20 0 1 0 670630 32612352 2024 18446744073709551615 4194304 5154736 140730596122240 140730596121224 139892914396502 0 0 0 8404994 0 0 0 17 1 0 0 0 0 0 7252936 7256980 9519104 140730596127439 140730596127444 140730596127444 140730596130784 0
/proc/25209/statm: 7962 2024 1060 235 0 1022 0
Current children cumulated CPU time (s) 1.28
Current children cumulated vsize (KiB) 36356

Child status: 0
Real time (s): 1.3787
CPU time (s): 1.376
CPU user time (s): 1.372
CPU system time (s): 0.004
CPU usage (%): 99.804
Max. virtual memory (cumulated for all children) (KiB): 36356

getrusage(RUSAGE_CHILDREN,...) data:
user time used= 1.372
system time used= 0.004
maximum resident set size= 8096
integral shared memory size= 0
integral unshared data size= 0
integral unshared stack size= 0
page reclaims= 1989
page faults= 1
swaps= 0
block input operations= 208
block output operations= 8
messages sent= 0
messages received= 0
signals received= 0
voluntary context switches= 45
involuntary context switches= 9

runsolver used 0.012 second user time and 0 second system time

The end
