runsolver Copyright (C) 2010-2013 Olivier ROUSSEL

This is runsolver version 3.3.4 (svn: 1649)

This program is distributed in the hope that it will be useful,
but WITHOUT ANY WARRANTY; without even the implied warranty of
MERCHANTABILITY or FITNESS FOR A PARTICULAR PURPOSE.  See the
GNU General Public License for more details.

command line: ./runsolver -C 600 -M 2048 -w 2017-04-11_11.47.57/waspOrig/three_sat/roughBenchmarks/three_sat-150.dat -o 2017-04-11_11.47.57/waspOrig/three_sat/outputs/three_sat-150.dat ../wasp-lazy-work/lazyConstraintsExperiments/3-sat/waspOrig.sh ../wasp-lazy-work/lazyConstraintsExperiments/3-sat/instancesFixedClauses/260_950_5.asp 

running on 8 cores: 0-7

Enforcing CPUTime limit (soft limit, will send SIGTERM then SIGKILL): 600 seconds
Enforcing CPUTime limit (hard limit, will send SIGXCPU): 630 seconds
Enforcing VSIZE limit (soft limit, will send SIGTERM then SIGKILL): 2097152 KiB
Enforcing VSIZE limit (hard limit, stack expansion will fail with SIGSEGV, brk() and mmap() will return ENOMEM): 2148352 KiB
Current StackSize limit: 8192 KiB


[startup+0 s]
/proc/loadavg: 3.65 4.16 4.27 4/928 6192
/proc/meminfo: memFree=1221308/8064712 swapFree=64/786984
[pid=6192] ppid=6191 vsize=4508 CPUtime=0 cores=0-7
/proc/6192/stat : 6192 (sh) S 6191 6192 18417 34816 25145 4194304 113 177 0 0 0 0 0 0 20 0 1 0 1891630 4616192 176 18446744073709551615 94521304043520 94521304187420 140723493025440 140723493024248 140325464597882 0 0 0 65538 1 0 0 17 3 0 0 0 0 0 94521306287976 94521306292768 94521306501120 140723493028422 140723493028580 140723493028580 140723493031920 0
/proc/6192/statm: 1127 176 156 36 0 83 0

[startup+0.043642 s]
/proc/loadavg: 3.65 4.16 4.27 4/928 6192
/proc/meminfo: memFree=1221308/8064712 swapFree=64/786984
[pid=6192] ppid=6191 vsize=4508 CPUtime=0.03 cores=0-7
/proc/6192/stat : 6192 (sh) S 6191 6192 18417 34816 25145 4194304 114 646 0 0 0 0 3 0 20 0 1 0 1891630 4616192 176 18446744073709551615 94521304043520 94521304187420 140723493025440 140723493024248 140325464597882 0 0 0 65538 1 0 0 17 3 0 0 0 0 0 94521306287976 94521306292768 94521306501120 140723493028422 140723493028580 140723493028580 140723493031920 0
/proc/6192/statm: 1127 176 156 36 0 83 0
Current children cumulated CPU time (s) 0.03
Current children cumulated vsize (KiB) 4508

Solver just ended. Dumping a history of the last processes samples

[startup+0.043642 s]
/proc/loadavg: 3.65 4.16 4.27 4/928 6192
/proc/meminfo: memFree=1221308/8064712 swapFree=64/786984
[pid=6192] ppid=6191 vsize=4508 CPUtime=0.03 cores=0-7
/proc/6192/stat : 6192 (sh) S 6191 6192 18417 34816 25145 4194304 114 646 0 0 0 0 3 0 20 0 1 0 1891630 4616192 176 18446744073709551615 94521304043520 94521304187420 140723493025440 140723493024248 140325464597882 0 0 0 65538 1 0 0 17 3 0 0 0 0 0 94521306287976 94521306292768 94521306501120 140723493028422 140723493028580 140723493028580 140723493031920 0
/proc/6192/statm: 1127 176 156 36 0 83 0
Current children cumulated CPU time (s) 0.03
Current children cumulated vsize (KiB) 4508

Child status: 0
Real time (s): 0.063535
CPU time (s): 0.06
CPU user time (s): 0.056
CPU system time (s): 0.004
CPU usage (%): 94.4361
Max. virtual memory (cumulated for all children) (KiB): 4508

getrusage(RUSAGE_CHILDREN,...) data:
user time used= 0.056
system time used= 0.004
maximum resident set size= 6380
integral shared memory size= 0
integral unshared data size= 0
integral unshared stack size= 0
page reclaims= 1426
page faults= 0
swaps= 0
block input operations= 0
block output operations= 80
messages sent= 0
messages received= 0
signals received= 0
voluntary context switches= 33
involuntary context switches= 8

runsolver used 0.008 second user time and 0.008 second system time

The end
