runsolver Copyright (C) 2010-2013 Olivier ROUSSEL

This is runsolver version 3.3.4 (svn: 1649)

This program is distributed in the hope that it will be useful,
but WITHOUT ANY WARRANTY; without even the implied warranty of
MERCHANTABILITY or FITNESS FOR A PARTICULAR PURPOSE.  See the
GNU General Public License for more details.

command line: ./runsolver -C 600 -M 2048 -w 2017-04-11_11.47.57/waspOrig/three_sat/roughBenchmarks/three_sat-298.dat -o 2017-04-11_11.47.57/waspOrig/three_sat/outputs/three_sat-298.dat ../wasp-lazy-work/lazyConstraintsExperiments/3-sat/waspOrig.sh ../wasp-lazy-work/lazyConstraintsExperiments/3-sat/instancesFixedClauses/300_950_3.asp 

running on 8 cores: 0-7

Enforcing CPUTime limit (soft limit, will send SIGTERM then SIGKILL): 600 seconds
Enforcing CPUTime limit (hard limit, will send SIGXCPU): 630 seconds
Enforcing VSIZE limit (soft limit, will send SIGTERM then SIGKILL): 2097152 KiB
Enforcing VSIZE limit (hard limit, stack expansion will fail with SIGSEGV, brk() and mmap() will return ENOMEM): 2148352 KiB
Current StackSize limit: 8192 KiB


[startup+0 s]
/proc/loadavg: 5.73 4.55 4.61 11/1043 9982
/proc/meminfo: memFree=176944/8064712 swapFree=64/577356
[pid=9982] ppid=9981 vsize=4508 CPUtime=0 cores=0-7
/proc/9982/stat : 9982 (sh) S 9981 9982 18417 34816 25145 4194304 109 171 0 0 0 0 0 0 20 0 1 0 2189846 4616192 178 18446744073709551615 94067368992768 94067369136668 140728598950512 140728598949320 139642760152442 0 0 0 65538 1 0 0 17 1 0 0 0 0 0 94067371237224 94067371242016 94067394863104 140728598954566 140728598954724 140728598954724 140728598958064 0
/proc/9982/statm: 1127 178 158 36 0 83 0

Solver just ended. Dumping a history of the last processes samples

Child status: 0
Real time (s): 0.100135
CPU time (s): 0.092
CPU user time (s): 0.084
CPU system time (s): 0.008
CPU usage (%): 91.876
Max. virtual memory (cumulated for all children) (KiB): 0

getrusage(RUSAGE_CHILDREN,...) data:
user time used= 0.084
system time used= 0.008
maximum resident set size= 6644
integral shared memory size= 0
integral unshared data size= 0
integral unshared stack size= 0
page reclaims= 1461
page faults= 0
swaps= 0
block input operations= 80
block output operations= 88
messages sent= 0
messages received= 0
signals received= 0
voluntary context switches= 35
involuntary context switches= 7

runsolver used 0.008 second user time and 0.012 second system time

The end
