runsolver Copyright (C) 2010-2013 Olivier ROUSSEL

This is runsolver version 3.3.4 (svn: 1649)

This program is distributed in the hope that it will be useful,
but WITHOUT ANY WARRANTY; without even the implied warranty of
MERCHANTABILITY or FITNESS FOR A PARTICULAR PURPOSE.  See the
GNU General Public License for more details.

command line: ./runsolver -C 600 -M 2048 -w 2017-04-11_11.47.57/waspOrig/three_sat/roughBenchmarks/three_sat-41.dat -o 2017-04-11_11.47.57/waspOrig/three_sat/outputs/three_sat-41.dat ../wasp-lazy-work/lazyConstraintsExperiments/3-sat/waspOrig.sh ../wasp-lazy-work/lazyConstraintsExperiments/3-sat/instancesFixedClauses/240_1400_1.asp 

running on 8 cores: 0-7

Enforcing CPUTime limit (soft limit, will send SIGTERM then SIGKILL): 600 seconds
Enforcing CPUTime limit (hard limit, will send SIGXCPU): 630 seconds
Enforcing VSIZE limit (soft limit, will send SIGTERM then SIGKILL): 2097152 KiB
Enforcing VSIZE limit (hard limit, stack expansion will fail with SIGSEGV, brk() and mmap() will return ENOMEM): 2148352 KiB
Current StackSize limit: 8192 KiB


[startup+0 s]
/proc/loadavg: 3.09 3.05 3.00 4/442 31737
/proc/meminfo: memFree=4441728/8064712 swapFree=0/777048
[pid=31737] ppid=31736 vsize=4508 CPUtime=0 cores=0-7
/proc/31737/stat : 31737 (sh) S 31736 31737 18417 34816 25145 4194304 111 172 0 0 0 0 0 0 20 0 1 0 1421363 4616192 178 18446744073709551615 94223832092672 94223832236572 140733358625344 140733358624152 139935545771386 0 0 0 65538 1 0 0 17 4 0 0 0 0 0 94223834337128 94223834341920 94223853375488 140733358633541 140733358633700 140733358633700 140733358637040 0
/proc/31737/statm: 1127 178 158 36 0 83 0

[startup+0.0700569 s]
/proc/loadavg: 3.09 3.05 3.00 4/442 31737
/proc/meminfo: memFree=4441728/8064712 swapFree=0/777048
[pid=31737] ppid=31736 vsize=4508 CPUtime=0.02 cores=0-7
/proc/31737/stat : 31737 (sh) S 31736 31737 18417 34816 25145 4194304 111 653 0 0 0 0 2 0 20 0 1 0 1421363 4616192 178 18446744073709551615 94223832092672 94223832236572 140733358625344 140733358624152 139935545771386 0 0 0 65538 1 0 0 17 6 0 0 0 0 0 94223834337128 94223834341920 94223853375488 140733358633541 140733358633700 140733358633700 140733358637040 0
/proc/31737/statm: 1127 178 158 36 0 83 0
Current children cumulated CPU time (s) 0.02
Current children cumulated vsize (KiB) 4508

[startup+0.100218 s]
/proc/loadavg: 3.09 3.05 3.00 4/442 31737
/proc/meminfo: memFree=4441728/8064712 swapFree=0/777048
[pid=31737] ppid=31736 vsize=4508 CPUtime=0.02 cores=0-7
/proc/31737/stat : 31737 (sh) S 31736 31737 18417 34816 25145 4194304 111 653 0 0 0 0 2 0 20 0 1 0 1421363 4616192 178 18446744073709551615 94223832092672 94223832236572 140733358625344 140733358624152 139935545771386 0 0 0 65538 1 0 0 17 6 0 0 0 0 0 94223834337128 94223834341920 94223853375488 140733358633541 140733358633700 140733358633700 140733358637040 0
/proc/31737/statm: 1127 178 158 36 0 83 0
Current children cumulated CPU time (s) 0.02
Current children cumulated vsize (KiB) 4508

Solver just ended. Dumping a history of the last processes samples

Child status: 0
Real time (s): 0.110757
CPU time (s): 0.112
CPU user time (s): 0.112
CPU system time (s): 0
CPU usage (%): 101.122
Max. virtual memory (cumulated for all children) (KiB): 4508

getrusage(RUSAGE_CHILDREN,...) data:
user time used= 0.112
system time used= 0
maximum resident set size= 6760
integral shared memory size= 0
integral unshared data size= 0
integral unshared stack size= 0
page reclaims= 1636
page faults= 0
swaps= 0
block input operations= 0
block output operations= 8
messages sent= 0
messages received= 0
signals received= 0
voluntary context switches= 50
involuntary context switches= 5

runsolver used 0 second user time and 0.004 second system time

The end
