runsolver Copyright (C) 2010-2013 Olivier ROUSSEL

This is runsolver version 3.3.4 (svn: 1649)

This program is distributed in the hope that it will be useful,
but WITHOUT ANY WARRANTY; without even the implied warranty of
MERCHANTABILITY or FITNESS FOR A PARTICULAR PURPOSE.  See the
GNU General Public License for more details.

command line: ./runsolver -C 600 -M 2048 -w 2017-04-11_11.47.57/waspOrig/three_sat/roughBenchmarks/three_sat-293.dat -o 2017-04-11_11.47.57/waspOrig/three_sat/outputs/three_sat-293.dat ../wasp-lazy-work/lazyConstraintsExperiments/3-sat/waspOrig.sh ../wasp-lazy-work/lazyConstraintsExperiments/3-sat/instancesFixedClauses/300_900_3.asp 

running on 8 cores: 0-7

Enforcing CPUTime limit (soft limit, will send SIGTERM then SIGKILL): 600 seconds
Enforcing CPUTime limit (hard limit, will send SIGXCPU): 630 seconds
Enforcing VSIZE limit (soft limit, will send SIGTERM then SIGKILL): 2097152 KiB
Enforcing VSIZE limit (hard limit, stack expansion will fail with SIGSEGV, brk() and mmap() will return ENOMEM): 2148352 KiB
Current StackSize limit: 8192 KiB


[startup+0 s]
/proc/loadavg: 3.01 3.07 3.19 4/966 13638
/proc/meminfo: memFree=1505032/8064712 swapFree=64/555796
[pid=13638] ppid=13637 vsize=4508 CPUtime=0 cores=0-7
/proc/13638/stat : 13638 (sh) S 13637 13638 18417 34816 25145 4194304 109 171 0 0 0 0 0 0 20 0 1 0 2536749 4616192 187 18446744073709551615 94106205061120 94106205205020 140724878692720 140724878691528 140659875558778 0 0 0 65538 1 0 0 17 3 0 0 0 0 0 94106207305576 94106207310368 94106235359232 140724878701126 140724878701284 140724878701284 140724878704624 0
/proc/13638/statm: 1127 187 167 36 0 83 0

[startup+0.031332 s]
/proc/loadavg: 3.01 3.07 3.19 4/966 13638
/proc/meminfo: memFree=1505032/8064712 swapFree=64/555796
[pid=13638] ppid=13637 vsize=4508 CPUtime=0.02 cores=0-7
/proc/13638/stat : 13638 (sh) S 13637 13638 18417 34816 25145 4194304 109 662 0 0 0 0 2 0 20 0 1 0 2536749 4616192 187 18446744073709551615 94106205061120 94106205205020 140724878692720 140724878691528 140659875558778 0 0 0 65538 1 0 0 17 2 0 0 0 0 0 94106207305576 94106207310368 94106235359232 140724878701126 140724878701284 140724878701284 140724878704624 0
/proc/13638/statm: 1127 187 167 36 0 83 0
Current children cumulated CPU time (s) 0.02
Current children cumulated vsize (KiB) 4508

Solver just ended. Dumping a history of the last processes samples

[startup+0.031332 s]
/proc/loadavg: 3.01 3.07 3.19 4/966 13638
/proc/meminfo: memFree=1505032/8064712 swapFree=64/555796
[pid=13638] ppid=13637 vsize=4508 CPUtime=0.02 cores=0-7
/proc/13638/stat : 13638 (sh) S 13637 13638 18417 34816 25145 4194304 109 662 0 0 0 0 2 0 20 0 1 0 2536749 4616192 187 18446744073709551615 94106205061120 94106205205020 140724878692720 140724878691528 140659875558778 0 0 0 65538 1 0 0 17 2 0 0 0 0 0 94106207305576 94106207310368 94106235359232 140724878701126 140724878701284 140724878701284 140724878704624 0
/proc/13638/statm: 1127 187 167 36 0 83 0
Current children cumulated CPU time (s) 0.02
Current children cumulated vsize (KiB) 4508

Child status: 0
Real time (s): 0.033063
CPU time (s): 0.032
CPU user time (s): 0.028
CPU system time (s): 0.004
CPU usage (%): 96.7849
Max. virtual memory (cumulated for all children) (KiB): 4508

getrusage(RUSAGE_CHILDREN,...) data:
user time used= 0.028
system time used= 0.004
maximum resident set size= 6636
integral shared memory size= 0
integral unshared data size= 0
integral unshared stack size= 0
page reclaims= 1449
page faults= 0
swaps= 0
block input operations= 0
block output operations= 80
messages sent= 0
messages received= 0
signals received= 0
voluntary context switches= 31
involuntary context switches= 5

runsolver used 0.004 second user time and 0.004 second system time

The end
