runsolver Copyright (C) 2010-2013 Olivier ROUSSEL

This is runsolver version 3.3.4 (svn: 1649)

This program is distributed in the hope that it will be useful,
but WITHOUT ANY WARRANTY; without even the implied warranty of
MERCHANTABILITY or FITNESS FOR A PARTICULAR PURPOSE.  See the
GNU General Public License for more details.

command line: ./runsolver -C 600 -M 2048 -w 2017-04-11_11.47.57/waspOrig/three_sat/roughBenchmarks/three_sat-109.dat -o 2017-04-11_11.47.57/waspOrig/three_sat/outputs/three_sat-109.dat ../wasp-lazy-work/lazyConstraintsExperiments/3-sat/waspOrig.sh ../wasp-lazy-work/lazyConstraintsExperiments/3-sat/instancesFixedClauses/260_1300_4.asp 

running on 8 cores: 0-7

Enforcing CPUTime limit (soft limit, will send SIGTERM then SIGKILL): 600 seconds
Enforcing CPUTime limit (hard limit, will send SIGXCPU): 630 seconds
Enforcing VSIZE limit (soft limit, will send SIGTERM then SIGKILL): 2097152 KiB
Enforcing VSIZE limit (hard limit, stack expansion will fail with SIGSEGV, brk() and mmap() will return ENOMEM): 2148352 KiB
Current StackSize limit: 8192 KiB


[startup+0 s]
/proc/loadavg: 4.75 4.51 4.38 5/921 5772
/proc/meminfo: memFree=1285876/8064712 swapFree=64/787028
[pid=5772] ppid=5771 vsize=4508 CPUtime=0 cores=0-7
/proc/5772/stat : 5772 (sh) S 5771 5772 18417 34816 25145 4194304 111 176 0 0 0 0 0 0 20 0 1 0 1861690 4616192 190 18446744073709551615 94701495951360 94701496095260 140729550532448 140729550531256 140309988279674 0 0 0 65538 1 0 0 17 0 0 0 0 0 0 94701498195816 94701498200608 94701521653760 140729550541381 140729550541540 140729550541540 140729550544880 0
/proc/5772/statm: 1127 190 170 36 0 83 0

[startup+0.0475771 s]
/proc/loadavg: 4.75 4.51 4.38 5/921 5772
/proc/meminfo: memFree=1285876/8064712 swapFree=64/787028
[pid=5772] ppid=5771 vsize=4508 CPUtime=0 cores=0-7
/proc/5772/stat : 5772 (sh) S 5771 5772 18417 34816 25145 4194304 111 176 0 0 0 0 0 0 20 0 1 0 1861690 4616192 190 18446744073709551615 94701495951360 94701496095260 140729550532448 140729550531256 140309988279674 0 0 0 65538 1 0 0 17 0 0 0 0 0 0 94701498195816 94701498200608 94701521653760 140729550541381 140729550541540 140729550541540 140729550544880 0
/proc/5772/statm: 1127 190 170 36 0 83 0
Current children cumulated CPU time (s) 0
Current children cumulated vsize (KiB) 4508

[startup+0.101011 s]
/proc/loadavg: 4.75 4.51 4.38 5/921 5772
/proc/meminfo: memFree=1285876/8064712 swapFree=64/787028
[pid=5772] ppid=5771 vsize=4508 CPUtime=0.06 cores=0-7
/proc/5772/stat : 5772 (sh) S 5771 5772 18417 34816 25145 4194304 111 670 0 0 0 0 6 0 20 0 1 0 1861690 4616192 190 18446744073709551615 94701495951360 94701496095260 140729550532448 140729550531256 140309988279674 0 0 0 65538 1 0 0 17 6 0 0 0 0 0 94701498195816 94701498200608 94701521653760 140729550541381 140729550541540 140729550541540 140729550544880 0
/proc/5772/statm: 1127 190 170 36 0 83 0
Current children cumulated CPU time (s) 0.06
Current children cumulated vsize (KiB) 4508

[startup+0.300191 s]
/proc/loadavg: 4.75 4.51 4.38 5/921 5772
/proc/meminfo: memFree=1285876/8064712 swapFree=64/787028
[pid=5772] ppid=5771 vsize=4508 CPUtime=0.06 cores=0-7
/proc/5772/stat : 5772 (sh) S 5771 5772 18417 34816 25145 4194304 111 670 0 0 0 0 6 0 20 0 1 0 1861690 4616192 190 18446744073709551615 94701495951360 94701496095260 140729550532448 140729550531256 140309988279674 0 0 0 65538 1 0 0 17 6 0 0 0 0 0 94701498195816 94701498200608 94701521653760 140729550541381 140729550541540 140729550541540 140729550544880 0
/proc/5772/statm: 1127 190 170 36 0 83 0
Current children cumulated CPU time (s) 0.06
Current children cumulated vsize (KiB) 4508

[startup+0.700229 s]
/proc/loadavg: 4.75 4.51 4.38 5/921 5772
/proc/meminfo: memFree=1285876/8064712 swapFree=64/787028
[pid=5772] ppid=5771 vsize=4508 CPUtime=0.06 cores=0-7
/proc/5772/stat : 5772 (sh) S 5771 5772 18417 34816 25145 4194304 111 670 0 0 0 0 6 0 20 0 1 0 1861690 4616192 190 18446744073709551615 94701495951360 94701496095260 140729550532448 140729550531256 140309988279674 0 0 0 65538 1 0 0 17 6 0 0 0 0 0 94701498195816 94701498200608 94701521653760 140729550541381 140729550541540 140729550541540 140729550544880 0
/proc/5772/statm: 1127 190 170 36 0 83 0
Current children cumulated CPU time (s) 0.06
Current children cumulated vsize (KiB) 4508

[startup+1.50026 s]
/proc/loadavg: 4.75 4.51 4.38 5/922 5777
/proc/meminfo: memFree=1283636/8064712 swapFree=64/787008
[pid=5772] ppid=5771 vsize=4508 CPUtime=0.06 cores=0-7
/proc/5772/stat : 5772 (sh) S 5771 5772 18417 34816 25145 4194304 111 670 0 0 0 0 6 0 20 0 1 0 1861690 4616192 190 18446744073709551615 94701495951360 94701496095260 140729550532448 140729550531256 140309988279674 0 0 0 65538 1 0 0 17 6 0 0 0 0 0 94701498195816 94701498200608 94701521653760 140729550541381 140729550541540 140729550541540 140729550544880 0
/proc/5772/statm: 1127 190 170 36 0 83 0
[pid=5776] ppid=5772 vsize=31368 CPUtime=1.44 cores=0-7
/proc/5776/stat : 5776 (wasp) R 5772 5772 18417 34816 25145 4194304 1228 0 0 0 144 0 0 0 20 0 1 0 1861690 32120832 1978 18446744073709551615 4194304 5154736 140734101669968 140734101668960 4779069 0 0 0 8404994 0 0 0 17 0 0 0 0 0 0 7252936 7256980 25796608 140734101672655 140734101672660 140734101672660 140734101676000 0
/proc/5776/statm: 7842 1978 1103 235 0 902 0
Current children cumulated CPU time (s) 1.5
Current children cumulated vsize (KiB) 35876

Solver just ended. Dumping a history of the last processes samples

[startup+2.30026 s]
/proc/loadavg: 4.75 4.51 4.38 10/923 5778
/proc/meminfo: memFree=1282380/8064712 swapFree=64/787008
[pid=5772] ppid=5771 vsize=4508 CPUtime=0.06 cores=0-7
/proc/5772/stat : 5772 (sh) S 5771 5772 18417 34816 25145 4194304 111 670 0 0 0 0 6 0 20 0 1 0 1861690 4616192 190 18446744073709551615 94701495951360 94701496095260 140729550532448 140729550531256 140309988279674 0 0 0 65538 1 0 0 17 6 0 0 0 0 0 94701498195816 94701498200608 94701521653760 140729550541381 140729550541540 140729550541540 140729550544880 0
/proc/5772/statm: 1127 190 170 36 0 83 0
[pid=5776] ppid=5772 vsize=31636 CPUtime=2.24 cores=0-7
/proc/5776/stat : 5776 (wasp) R 5772 5772 18417 34816 25145 4194304 1267 0 0 0 224 0 0 0 20 0 1 0 1861690 32395264 1978 18446744073709551615 4194304 5154736 140734101669968 140734101668960 4779138 0 0 0 8404994 0 0 0 17 0 0 0 0 0 0 7252936 7256980 25796608 140734101672655 140734101672660 140734101672660 140734101676000 0
/proc/5776/statm: 7909 1978 1103 235 0 969 0
Current children cumulated CPU time (s) 2.3
Current children cumulated vsize (KiB) 36144

[startup+2.70032 s]
/proc/loadavg: 4.75 4.51 4.38 10/923 5778
/proc/meminfo: memFree=1282380/8064712 swapFree=64/787008
[pid=5772] ppid=5771 vsize=4508 CPUtime=0.06 cores=0-7
/proc/5772/stat : 5772 (sh) S 5771 5772 18417 34816 25145 4194304 111 670 0 0 0 0 6 0 20 0 1 0 1861690 4616192 190 18446744073709551615 94701495951360 94701496095260 140729550532448 140729550531256 140309988279674 0 0 0 65538 1 0 0 17 6 0 0 0 0 0 94701498195816 94701498200608 94701521653760 140729550541381 140729550541540 140729550541540 140729550544880 0
/proc/5772/statm: 1127 190 170 36 0 83 0
[pid=5776] ppid=5772 vsize=31636 CPUtime=2.64 cores=0-7
/proc/5776/stat : 5776 (wasp) R 5772 5772 18417 34816 25145 4194304 1276 0 0 0 264 0 0 0 20 0 1 0 1861690 32395264 1978 18446744073709551615 4194304 5154736 140734101669968 140734101668960 4778848 0 0 0 8404994 0 0 0 17 0 0 0 0 0 0 7252936 7256980 25796608 140734101672655 140734101672660 140734101672660 140734101676000 0
/proc/5776/statm: 7909 1978 1103 235 0 969 0
Current children cumulated CPU time (s) 2.7
Current children cumulated vsize (KiB) 36144

[startup+2.80096 s]
/proc/loadavg: 4.75 4.51 4.38 10/923 5778
/proc/meminfo: memFree=1282380/8064712 swapFree=64/787008
[pid=5772] ppid=5771 vsize=4508 CPUtime=0.06 cores=0-7
/proc/5772/stat : 5772 (sh) S 5771 5772 18417 34816 25145 4194304 111 670 0 0 0 0 6 0 20 0 1 0 1861690 4616192 190 18446744073709551615 94701495951360 94701496095260 140729550532448 140729550531256 140309988279674 0 0 0 65538 1 0 0 17 6 0 0 0 0 0 94701498195816 94701498200608 94701521653760 140729550541381 140729550541540 140729550541540 140729550544880 0
/proc/5772/statm: 1127 190 170 36 0 83 0
[pid=5776] ppid=5772 vsize=31636 CPUtime=2.74 cores=0-7
/proc/5776/stat : 5776 (wasp) R 5772 5772 18417 34816 25145 4194304 1276 0 0 0 274 0 0 0 20 0 1 0 1861690 32395264 1978 18446744073709551615 4194304 5154736 140734101669968 140734101668960 4778803 0 0 0 8404994 0 0 0 17 0 0 0 0 0 0 7252936 7256980 25796608 140734101672655 140734101672660 140734101672660 140734101676000 0
/proc/5776/statm: 7909 1978 1103 235 0 969 0
Current children cumulated CPU time (s) 2.8
Current children cumulated vsize (KiB) 36144

Child status: 0
Real time (s): 2.81516
CPU time (s): 2.82
CPU user time (s): 2.812
CPU system time (s): 0.008
CPU usage (%): 100.172
Max. virtual memory (cumulated for all children) (KiB): 36144

getrusage(RUSAGE_CHILDREN,...) data:
user time used= 2.812
system time used= 0.008
maximum resident set size= 7912
integral shared memory size= 0
integral unshared data size= 0
integral unshared stack size= 0
page reclaims= 2062
page faults= 0
swaps= 0
block input operations= 0
block output operations= 8
messages sent= 0
messages received= 0
signals received= 0
voluntary context switches= 39
involuntary context switches= 10

runsolver used 0.024 second user time and 0.032 second system time

The end
