runsolver Copyright (C) 2010-2013 Olivier ROUSSEL

This is runsolver version 3.3.4 (svn: 1649)

This program is distributed in the hope that it will be useful,
but WITHOUT ANY WARRANTY; without even the implied warranty of
MERCHANTABILITY or FITNESS FOR A PARTICULAR PURPOSE.  See the
GNU General Public License for more details.

command line: ./runsolver -C 600 -M 2048 -w 2017-04-11_11.47.57/eager/three_sat/roughBenchmarks/three_sat-54.dat -o 2017-04-11_11.47.57/eager/three_sat/outputs/three_sat-54.dat ../wasp-lazy-work/lazyConstraintsExperiments/3-sat/eager.sh ../wasp-lazy-work/lazyConstraintsExperiments/3-sat/instancesFixedClauses/240_1500_4.asp 

running on 8 cores: 0-7

Enforcing CPUTime limit (soft limit, will send SIGTERM then SIGKILL): 600 seconds
Enforcing CPUTime limit (hard limit, will send SIGXCPU): 630 seconds
Enforcing VSIZE limit (soft limit, will send SIGTERM then SIGKILL): 2097152 KiB
Enforcing VSIZE limit (hard limit, stack expansion will fail with SIGSEGV, brk() and mmap() will return ENOMEM): 2148352 KiB
Current StackSize limit: 8192 KiB


[startup+0 s]
/proc/loadavg: 3.04 3.12 3.33 4/943 13118
/proc/meminfo: memFree=1533044/8064712 swapFree=64/553972
[pid=13118] ppid=13117 vsize=4508 CPUtime=0 cores=0-7
/proc/13118/stat : 13118 (sh) S 13117 13118 18417 34816 25145 4194304 102 0 0 0 0 0 0 0 20 0 1 0 2475659 4616192 175 18446744073709551615 94269816475648 94269816619548 140731155116144 140731155114920 140128690644608 0 0 0 65538 1 0 0 17 4 0 0 0 0 0 94269818720104 94269818724896 94269843550208 140731155124808 140731155124964 140731155124964 140731155128304 0
/proc/13118/statm: 1127 175 155 36 0 83 0

[startup+0.035426 s]
/proc/loadavg: 3.04 3.12 3.33 4/943 13118
/proc/meminfo: memFree=1533044/8064712 swapFree=64/553972
[pid=13118] ppid=13117 vsize=4508 CPUtime=0 cores=0-7
/proc/13118/stat : 13118 (sh) S 13117 13118 18417 34816 25145 4194304 112 178 0 0 0 0 0 0 20 0 1 0 2475659 4616192 175 18446744073709551615 94269816475648 94269816619548 140731155116144 140731155114952 140128690468218 0 0 0 65538 1 0 0 17 4 0 0 0 0 0 94269818720104 94269818724896 94269843550208 140731155124808 140731155124964 140731155124964 140731155128304 0
/proc/13118/statm: 1127 175 155 36 0 83 0
Current children cumulated CPU time (s) 0
Current children cumulated vsize (KiB) 4508

[startup+0.100209 s]
/proc/loadavg: 3.04 3.12 3.33 4/943 13118
/proc/meminfo: memFree=1533044/8064712 swapFree=64/553972
[pid=13118] ppid=13117 vsize=4508 CPUtime=0.02 cores=0-7
/proc/13118/stat : 13118 (sh) S 13117 13118 18417 34816 25145 4194304 112 657 0 0 0 0 2 0 20 0 1 0 2475659 4616192 175 18446744073709551615 94269816475648 94269816619548 140731155116144 140731155114952 140128690468218 0 0 0 65538 1 0 0 17 5 0 0 0 0 0 94269818720104 94269818724896 94269843550208 140731155124808 140731155124964 140731155124964 140731155128304 0
/proc/13118/statm: 1127 175 155 36 0 83 0
Current children cumulated CPU time (s) 0.02
Current children cumulated vsize (KiB) 4508

[startup+0.300153 s]
/proc/loadavg: 3.04 3.12 3.33 4/943 13118
/proc/meminfo: memFree=1533044/8064712 swapFree=64/553972
[pid=13118] ppid=13117 vsize=4508 CPUtime=0.02 cores=0-7
/proc/13118/stat : 13118 (sh) S 13117 13118 18417 34816 25145 4194304 112 657 0 0 0 0 2 0 20 0 1 0 2475659 4616192 175 18446744073709551615 94269816475648 94269816619548 140731155116144 140731155114952 140128690468218 0 0 0 65538 1 0 0 17 5 0 0 0 0 0 94269818720104 94269818724896 94269843550208 140731155124808 140731155124964 140731155124964 140731155128304 0
/proc/13118/statm: 1127 175 155 36 0 83 0
Current children cumulated CPU time (s) 0.02
Current children cumulated vsize (KiB) 4508

[startup+0.700156 s]
/proc/loadavg: 3.04 3.12 3.33 4/943 13118
/proc/meminfo: memFree=1533044/8064712 swapFree=64/553972
[pid=13118] ppid=13117 vsize=4508 CPUtime=0.02 cores=0-7
/proc/13118/stat : 13118 (sh) S 13117 13118 18417 34816 25145 4194304 112 657 0 0 0 0 2 0 20 0 1 0 2475659 4616192 175 18446744073709551615 94269816475648 94269816619548 140731155116144 140731155114952 140128690468218 0 0 0 65538 1 0 0 17 5 0 0 0 0 0 94269818720104 94269818724896 94269843550208 140731155124808 140731155124964 140731155124964 140731155128304 0
/proc/13118/statm: 1127 175 155 36 0 83 0
Current children cumulated CPU time (s) 0.02
Current children cumulated vsize (KiB) 4508

Solver just ended. Dumping a history of the last processes samples

[startup+1.10575 s]
/proc/loadavg: 3.04 3.12 3.33 4/945 13123
/proc/meminfo: memFree=1521148/8064712 swapFree=64/553976
[pid=13118] ppid=13117 vsize=4508 CPUtime=0.02 cores=0-7
/proc/13118/stat : 13118 (sh) S 13117 13118 18417 34816 25145 4194304 112 657 0 0 0 0 2 0 20 0 1 0 2475659 4616192 175 18446744073709551615 94269816475648 94269816619548 140731155116144 140731155114952 140128690468218 0 0 0 65538 1 0 0 17 5 0 0 0 0 0 94269818720104 94269818724896 94269843550208 140731155124808 140731155124964 140731155124964 140731155128304 0
/proc/13118/statm: 1127 175 155 36 0 83 0
[pid=13123] ppid=13118 vsize=43460 CPUtime=1.06 cores=0-7
/proc/13123/stat : 13123 (wasp) R 13118 13118 18417 34816 25145 4194304 3633 0 0 0 106 0 0 0 20 0 1 0 2475660 44503040 4840 18446744073709551615 4194304 5154736 140732116357952 140732116355984 140422809860186 0 0 16781312 8404994 0 0 0 17 5 0 0 0 0 0 7252936 7256980 33562624 140732116361805 140732116361940 140732116361940 140732116365280 0
/proc/13123/statm: 10865 4840 1694 235 0 3196 0
Current children cumulated CPU time (s) 1.08
Current children cumulated vsize (KiB) 47968

[startup+1.30024 s]
/proc/loadavg: 3.04 3.12 3.33 4/945 13123
/proc/meminfo: memFree=1521148/8064712 swapFree=64/553976
[pid=13118] ppid=13117 vsize=4508 CPUtime=0.02 cores=0-7
/proc/13118/stat : 13118 (sh) S 13117 13118 18417 34816 25145 4194304 112 657 0 0 0 0 2 0 20 0 1 0 2475659 4616192 175 18446744073709551615 94269816475648 94269816619548 140731155116144 140731155114952 140128690468218 0 0 0 65538 1 0 0 17 5 0 0 0 0 0 94269818720104 94269818724896 94269843550208 140731155124808 140731155124964 140731155124964 140731155128304 0
/proc/13118/statm: 1127 175 155 36 0 83 0
[pid=13123] ppid=13118 vsize=43460 CPUtime=1.26 cores=0-7
/proc/13123/stat : 13123 (wasp) R 13118 13118 18417 34816 25145 4194304 3633 0 0 0 126 0 0 0 20 0 1 0 2475660 44503040 4840 18446744073709551615 4194304 5154736 140732116357952 140732116355984 140422809860181 0 0 16781312 8404994 0 0 0 17 5 0 0 0 0 0 7252936 7256980 33562624 140732116361805 140732116361940 140732116361940 140732116365280 0
/proc/13123/statm: 10865 4840 1694 235 0 3196 0
Current children cumulated CPU time (s) 1.28
Current children cumulated vsize (KiB) 47968

[startup+1.40018 s]
/proc/loadavg: 3.04 3.12 3.33 4/945 13123
/proc/meminfo: memFree=1521148/8064712 swapFree=64/553976
[pid=13118] ppid=13117 vsize=4508 CPUtime=0.02 cores=0-7
/proc/13118/stat : 13118 (sh) S 13117 13118 18417 34816 25145 4194304 112 657 0 0 0 0 2 0 20 0 1 0 2475659 4616192 175 18446744073709551615 94269816475648 94269816619548 140731155116144 140731155114952 140128690468218 0 0 0 65538 1 0 0 17 5 0 0 0 0 0 94269818720104 94269818724896 94269843550208 140731155124808 140731155124964 140731155124964 140731155128304 0
/proc/13118/statm: 1127 175 155 36 0 83 0
[pid=13123] ppid=13118 vsize=43460 CPUtime=1.36 cores=0-7
/proc/13123/stat : 13123 (wasp) R 13118 13118 18417 34816 25145 4194304 3633 0 0 0 136 0 0 0 20 0 1 0 2475660 44503040 4840 18446744073709551615 4194304 5154736 140732116357952 140732116356992 4779437 0 0 16781312 8404994 0 0 0 17 5 0 0 0 0 0 7252936 7256980 33562624 140732116361805 140732116361940 140732116361940 140732116365280 0
/proc/13123/statm: 10865 4840 1694 235 0 3196 0
Current children cumulated CPU time (s) 1.38
Current children cumulated vsize (KiB) 47968

Child status: 0
Real time (s): 1.45141
CPU time (s): 1.448
CPU user time (s): 1.44
CPU system time (s): 0.008
CPU usage (%): 99.7654
Max. virtual memory (cumulated for all children) (KiB): 47968

getrusage(RUSAGE_CHILDREN,...) data:
user time used= 1.44
system time used= 0.008
maximum resident set size= 19360
integral shared memory size= 0
integral unshared data size= 0
integral unshared stack size= 0
page reclaims= 4405
page faults= 0
swaps= 0
block input operations= 0
block output operations= 8
messages sent= 0
messages received= 0
signals received= 0
voluntary context switches= 31
involuntary context switches= 10

runsolver used 0.004 second user time and 0.008 second system time

The end
