runsolver Copyright (C) 2010-2013 Olivier ROUSSEL

This is runsolver version 3.3.4 (svn: 1649)

This program is distributed in the hope that it will be useful,
but WITHOUT ANY WARRANTY; without even the implied warranty of
MERCHANTABILITY or FITNESS FOR A PARTICULAR PURPOSE.  See the
GNU General Public License for more details.

command line: ./runsolver -C 600 -M 2048 -w 2017-04-11_11.47.57/eager/three_sat/roughBenchmarks/three_sat-181.dat -o 2017-04-11_11.47.57/eager/three_sat/outputs/three_sat-181.dat ../wasp-lazy-work/lazyConstraintsExperiments/3-sat/eager.sh ../wasp-lazy-work/lazyConstraintsExperiments/3-sat/instancesFixedClauses/280_1300_1.asp 

running on 8 cores: 0-7

Enforcing CPUTime limit (soft limit, will send SIGTERM then SIGKILL): 600 seconds
Enforcing CPUTime limit (hard limit, will send SIGXCPU): 630 seconds
Enforcing VSIZE limit (soft limit, will send SIGTERM then SIGKILL): 2097152 KiB
Enforcing VSIZE limit (hard limit, stack expansion will fail with SIGSEGV, brk() and mmap() will return ENOMEM): 2148352 KiB
Current StackSize limit: 8192 KiB


[startup+0 s]
/proc/loadavg: 3.27 3.64 3.18 4/901 27003
/proc/meminfo: memFree=1587264/8064712 swapFree=32/801940
[pid=27003] ppid=27002 vsize=4508 CPUtime=0 cores=0-7
/proc/27003/stat : 27003 (sh) S 27002 27003 18417 34816 25145 4194304 106 172 0 0 0 0 0 0 20 0 1 0 799725 4616192 214 18446744073709551615 94871256911872 94871257055772 140721472742064 140721472740872 139878764701050 0 0 0 65538 1 0 0 17 0 0 0 0 0 0 94871259156328 94871259161120 94871271088128 140721472746056 140721472746212 140721472746212 140721472749552 0
/proc/27003/statm: 1127 214 194 36 0 83 0

[startup+0.08956 s]
/proc/loadavg: 3.27 3.64 3.18 4/901 27003
/proc/meminfo: memFree=1587264/8064712 swapFree=32/801940
[pid=27003] ppid=27002 vsize=4508 CPUtime=0.02 cores=0-7
/proc/27003/stat : 27003 (sh) S 27002 27003 18417 34816 25145 4194304 106 670 0 0 0 0 2 0 20 0 1 0 799725 4616192 214 18446744073709551615 94871256911872 94871257055772 140721472742064 140721472740872 139878764701050 0 0 0 65538 1 0 0 17 1 0 0 0 0 0 94871259156328 94871259161120 94871271088128 140721472746056 140721472746212 140721472746212 140721472749552 0
/proc/27003/statm: 1127 214 194 36 0 83 0
Current children cumulated CPU time (s) 0.02
Current children cumulated vsize (KiB) 4508

[startup+0.100232 s]
/proc/loadavg: 3.27 3.64 3.18 4/901 27003
/proc/meminfo: memFree=1587264/8064712 swapFree=32/801940
[pid=27003] ppid=27002 vsize=4508 CPUtime=0.02 cores=0-7
/proc/27003/stat : 27003 (sh) S 27002 27003 18417 34816 25145 4194304 106 670 0 0 0 0 2 0 20 0 1 0 799725 4616192 214 18446744073709551615 94871256911872 94871257055772 140721472742064 140721472740872 139878764701050 0 0 0 65538 1 0 0 17 1 0 0 0 0 0 94871259156328 94871259161120 94871271088128 140721472746056 140721472746212 140721472746212 140721472749552 0
/proc/27003/statm: 1127 214 194 36 0 83 0
Current children cumulated CPU time (s) 0.02
Current children cumulated vsize (KiB) 4508

[startup+0.300158 s]
/proc/loadavg: 3.27 3.64 3.18 4/901 27003
/proc/meminfo: memFree=1587264/8064712 swapFree=32/801940
[pid=27003] ppid=27002 vsize=4508 CPUtime=0.02 cores=0-7
/proc/27003/stat : 27003 (sh) S 27002 27003 18417 34816 25145 4194304 106 670 0 0 0 0 2 0 20 0 1 0 799725 4616192 214 18446744073709551615 94871256911872 94871257055772 140721472742064 140721472740872 139878764701050 0 0 0 65538 1 0 0 17 1 0 0 0 0 0 94871259156328 94871259161120 94871271088128 140721472746056 140721472746212 140721472746212 140721472749552 0
/proc/27003/statm: 1127 214 194 36 0 83 0
Current children cumulated CPU time (s) 0.02
Current children cumulated vsize (KiB) 4508

[startup+0.700154 s]
/proc/loadavg: 3.27 3.64 3.18 4/901 27003
/proc/meminfo: memFree=1587264/8064712 swapFree=32/801940
[pid=27003] ppid=27002 vsize=4508 CPUtime=0.02 cores=0-7
/proc/27003/stat : 27003 (sh) S 27002 27003 18417 34816 25145 4194304 106 670 0 0 0 0 2 0 20 0 1 0 799725 4616192 214 18446744073709551615 94871256911872 94871257055772 140721472742064 140721472740872 139878764701050 0 0 0 65538 1 0 0 17 1 0 0 0 0 0 94871259156328 94871259161120 94871271088128 140721472746056 140721472746212 140721472746212 140721472749552 0
/proc/27003/statm: 1127 214 194 36 0 83 0
Current children cumulated CPU time (s) 0.02
Current children cumulated vsize (KiB) 4508

[startup+1.50017 s]
/proc/loadavg: 3.27 3.64 3.18 4/902 27008
/proc/meminfo: memFree=1576056/8064712 swapFree=32/801896
[pid=27003] ppid=27002 vsize=4508 CPUtime=0.02 cores=0-7
/proc/27003/stat : 27003 (sh) S 27002 27003 18417 34816 25145 4194304 106 670 0 0 0 0 2 0 20 0 1 0 799725 4616192 214 18446744073709551615 94871256911872 94871257055772 140721472742064 140721472740872 139878764701050 0 0 0 65538 1 0 0 17 1 0 0 0 0 0 94871259156328 94871259161120 94871271088128 140721472746056 140721472746212 140721472746212 140721472749552 0
/proc/27003/statm: 1127 214 194 36 0 83 0
[pid=27007] ppid=27003 vsize=45324 CPUtime=1.47 cores=0-7
/proc/27007/stat : 27007 (wasp) R 27003 27003 18417 34816 25145 4194304 4036 0 0 0 145 2 0 0 20 0 1 0 799725 46411776 5236 18446744073709551615 4194304 5154736 140724268290320 140724268288352 140135005432261 0 0 16781312 8404994 0 0 0 17 0 0 0 0 0 0 7252936 7256980 10928128 140724268298829 140724268298964 140724268298964 140724268302304 0
/proc/27007/statm: 11331 5236 1724 235 0 3662 0
Current children cumulated CPU time (s) 1.49
Current children cumulated vsize (KiB) 49832

[startup+3.10023 s]
/proc/loadavg: 3.27 3.64 3.18 4/902 27008
/proc/meminfo: memFree=1571860/8064712 swapFree=32/801896
[pid=27003] ppid=27002 vsize=4508 CPUtime=0.02 cores=0-7
/proc/27003/stat : 27003 (sh) S 27002 27003 18417 34816 25145 4194304 106 670 0 0 0 0 2 0 20 0 1 0 799725 4616192 214 18446744073709551615 94871256911872 94871257055772 140721472742064 140721472740872 139878764701050 0 0 0 65538 1 0 0 17 1 0 0 0 0 0 94871259156328 94871259161120 94871271088128 140721472746056 140721472746212 140721472746212 140721472749552 0
/proc/27003/statm: 1127 214 194 36 0 83 0
[pid=27007] ppid=27003 vsize=48632 CPUtime=3.07 cores=0-7
/proc/27007/stat : 27007 (wasp) R 27003 27003 18417 34816 25145 4194304 4948 0 0 0 304 3 0 0 20 0 1 0 799725 49799168 6160 18446744073709551615 4194304 5154736 140724268290320 140724268288336 140135005778129 0 0 16781312 8404994 0 0 0 17 0 0 0 0 0 0 7252936 7256980 10928128 140724268298829 140724268298964 140724268298964 140724268302304 0
/proc/27007/statm: 12158 6160 1724 235 0 4489 0
Current children cumulated CPU time (s) 3.09
Current children cumulated vsize (KiB) 53140

[startup+6.30024 s]
/proc/loadavg: 3.17 3.61 3.17 4/902 27018
/proc/meminfo: memFree=1570756/8064712 swapFree=32/801868
[pid=27003] ppid=27002 vsize=4508 CPUtime=0.02 cores=0-7
/proc/27003/stat : 27003 (sh) S 27002 27003 18417 34816 25145 4194304 106 670 0 0 0 0 2 0 20 0 1 0 799725 4616192 214 18446744073709551615 94871256911872 94871257055772 140721472742064 140721472740872 139878764701050 0 0 0 65538 1 0 0 17 1 0 0 0 0 0 94871259156328 94871259161120 94871271088128 140721472746056 140721472746212 140721472746212 140721472749552 0
/proc/27003/statm: 1127 214 194 36 0 83 0
[pid=27007] ppid=27003 vsize=52728 CPUtime=6.27 cores=0-7
/proc/27007/stat : 27007 (wasp) R 27003 27003 18417 34816 25145 4194304 6133 0 0 0 624 3 0 0 20 0 1 0 799725 53993472 7102 18446744073709551615 4194304 5154736 140724268290320 140724268288344 140135005928632 0 0 16781312 8404994 0 0 0 17 0 0 0 0 0 0 7252936 7256980 10928128 140724268298829 140724268298964 140724268298964 140724268302304 0
/proc/27007/statm: 13182 7102 1724 235 0 5513 0
Current children cumulated CPU time (s) 6.29
Current children cumulated vsize (KiB) 57236

[startup+12.7002 s]
/proc/loadavg: 3.16 3.60 3.17 4/902 27018
/proc/meminfo: memFree=1554676/8064712 swapFree=32/801868
[pid=27003] ppid=27002 vsize=4508 CPUtime=0.02 cores=0-7
/proc/27003/stat : 27003 (sh) S 27002 27003 18417 34816 25145 4194304 106 670 0 0 0 0 2 0 20 0 1 0 799725 4616192 214 18446744073709551615 94871256911872 94871257055772 140721472742064 140721472740872 139878764701050 0 0 0 65538 1 0 0 17 1 0 0 0 0 0 94871259156328 94871259161120 94871271088128 140721472746056 140721472746212 140721472746212 140721472749552 0
/proc/27003/statm: 1127 214 194 36 0 83 0
[pid=27007] ppid=27003 vsize=56564 CPUtime=12.67 cores=0-7
/proc/27007/stat : 27007 (wasp) R 27003 27003 18417 34816 25145 4194304 7144 0 0 0 1263 4 0 0 20 0 1 0 799725 57921536 8092 18446744073709551615 4194304 5154736 140724268290320 140724268287952 140134987853454 0 0 16781312 8404994 0 0 0 17 0 0 0 0 0 0 7252936 7256980 10928128 140724268298829 140724268298964 140724268298964 140724268302304 0
/proc/27007/statm: 14141 8092 1724 235 0 6472 0
Current children cumulated CPU time (s) 12.69
Current children cumulated vsize (KiB) 61072

[startup+25.5002 s]
/proc/loadavg: 3.20 3.59 3.17 4/907 27023
/proc/meminfo: memFree=1521260/8064712 swapFree=32/801868
[pid=27003] ppid=27002 vsize=4508 CPUtime=0.02 cores=0-7
/proc/27003/stat : 27003 (sh) S 27002 27003 18417 34816 25145 4194304 106 670 0 0 0 0 2 0 20 0 1 0 799725 4616192 214 18446744073709551615 94871256911872 94871257055772 140721472742064 140721472740872 139878764701050 0 0 0 65538 1 0 0 17 1 0 0 0 0 0 94871259156328 94871259161120 94871271088128 140721472746056 140721472746212 140721472746212 140721472749552 0
/proc/27003/statm: 1127 214 194 36 0 83 0
[pid=27007] ppid=27003 vsize=60856 CPUtime=25.46 cores=0-7
/proc/27007/stat : 27007 (wasp) R 27003 27003 18417 34816 25145 4194304 8413 0 0 0 2542 4 0 0 20 0 1 0 799725 62316544 9013 18446744073709551615 4194304 5154736 140724268290320 140724268288352 140135005452378 0 0 16781312 8404994 0 0 0 17 6 0 0 0 0 0 7252936 7256980 10928128 140724268298829 140724268298964 140724268298964 140724268302304 0
/proc/27007/statm: 15214 9013 1724 235 0 7545 0
Current children cumulated CPU time (s) 25.48
Current children cumulated vsize (KiB) 65364

[startup+51.1002 s]
/proc/loadavg: 3.19 3.56 3.18 4/930 27081
/proc/meminfo: memFree=1525676/8064712 swapFree=32/801848
[pid=27003] ppid=27002 vsize=4508 CPUtime=0.02 cores=0-7
/proc/27003/stat : 27003 (sh) S 27002 27003 18417 34816 25145 4194304 106 670 0 0 0 0 2 0 20 0 1 0 799725 4616192 214 18446744073709551615 94871256911872 94871257055772 140721472742064 140721472740872 139878764701050 0 0 0 65538 1 0 0 17 1 0 0 0 0 0 94871259156328 94871259161120 94871271088128 140721472746056 140721472746212 140721472746212 140721472749552 0
/proc/27003/statm: 1127 214 194 36 0 83 0
[pid=27007] ppid=27003 vsize=62704 CPUtime=51.07 cores=0-7
/proc/27007/stat : 27007 (wasp) R 27003 27003 18417 34816 25145 4194304 8912 0 0 0 5102 5 0 0 20 0 1 0 799725 64208896 9541 18446744073709551615 4194304 5154736 140724268290320 140724268288352 140135005452378 0 0 16781312 8404994 0 0 0 17 6 0 0 0 0 0 7252936 7256980 10928128 140724268298829 140724268298964 140724268298964 140724268302304 0
/proc/27007/statm: 15676 9541 1724 235 0 8007 0
Current children cumulated CPU time (s) 51.09
Current children cumulated vsize (KiB) 67212

Solver just ended. Dumping a history of the last processes samples

[startup+57.5002 s]
/proc/loadavg: 3.17 3.55 3.17 4/904 27081
/proc/meminfo: memFree=1552236/8064712 swapFree=32/801848
[pid=27003] ppid=27002 vsize=4508 CPUtime=0.02 cores=0-7
/proc/27003/stat : 27003 (sh) S 27002 27003 18417 34816 25145 4194304 106 670 0 0 0 0 2 0 20 0 1 0 799725 4616192 214 18446744073709551615 94871256911872 94871257055772 140721472742064 140721472740872 139878764701050 0 0 0 65538 1 0 0 17 1 0 0 0 0 0 94871259156328 94871259161120 94871271088128 140721472746056 140721472746212 140721472746212 140721472749552 0
/proc/27003/statm: 1127 214 194 36 0 83 0
[pid=27007] ppid=27003 vsize=62704 CPUtime=57.47 cores=0-7
/proc/27007/stat : 27007 (wasp) R 27003 27003 18417 34816 25145 4194304 8913 0 0 0 5742 5 0 0 20 0 1 0 799725 64208896 9541 18446744073709551615 4194304 5154736 140724268290320 140724268289360 4778761 0 0 16781312 8404994 0 0 0 17 6 0 0 0 0 0 7252936 7256980 10928128 140724268298829 140724268298964 140724268298964 140724268302304 0
/proc/27007/statm: 15676 9541 1724 235 0 8007 0
Current children cumulated CPU time (s) 57.49
Current children cumulated vsize (KiB) 67212

[startup+60.7003 s]
/proc/loadavg: 3.16 3.54 3.17 4/903 27081
/proc/meminfo: memFree=1552128/8064712 swapFree=32/801848
[pid=27003] ppid=27002 vsize=4508 CPUtime=0.02 cores=0-7
/proc/27003/stat : 27003 (sh) S 27002 27003 18417 34816 25145 4194304 106 670 0 0 0 0 2 0 20 0 1 0 799725 4616192 214 18446744073709551615 94871256911872 94871257055772 140721472742064 140721472740872 139878764701050 0 0 0 65538 1 0 0 17 1 0 0 0 0 0 94871259156328 94871259161120 94871271088128 140721472746056 140721472746212 140721472746212 140721472749552 0
/proc/27003/statm: 1127 214 194 36 0 83 0
[pid=27007] ppid=27003 vsize=62704 CPUtime=60.67 cores=0-7
/proc/27007/stat : 27007 (wasp) R 27003 27003 18417 34816 25145 4194304 8913 0 0 0 6062 5 0 0 20 0 1 0 799725 64208896 9541 18446744073709551615 4194304 5154736 140724268290320 140724268288352 140135005442806 0 0 16781312 8404994 0 0 0 17 6 0 0 0 0 0 7252936 7256980 10928128 140724268298829 140724268298964 140724268298964 140724268302304 0
/proc/27007/statm: 15676 9541 1724 235 0 8007 0
Current children cumulated CPU time (s) 60.69
Current children cumulated vsize (KiB) 67212

[startup+61.5002 s]
/proc/loadavg: 3.16 3.54 3.17 4/903 27081
/proc/meminfo: memFree=1551776/8064712 swapFree=32/801848
[pid=27003] ppid=27002 vsize=4508 CPUtime=0.02 cores=0-7
/proc/27003/stat : 27003 (sh) S 27002 27003 18417 34816 25145 4194304 106 670 0 0 0 0 2 0 20 0 1 0 799725 4616192 214 18446744073709551615 94871256911872 94871257055772 140721472742064 140721472740872 139878764701050 0 0 0 65538 1 0 0 17 1 0 0 0 0 0 94871259156328 94871259161120 94871271088128 140721472746056 140721472746212 140721472746212 140721472749552 0
/proc/27003/statm: 1127 214 194 36 0 83 0
[pid=27007] ppid=27003 vsize=62704 CPUtime=61.48 cores=0-7
/proc/27007/stat : 27007 (wasp) R 27003 27003 18417 34816 25145 4194304 8913 0 0 0 6143 5 0 0 20 0 1 0 799725 64208896 9541 18446744073709551615 4194304 5154736 140724268290320 140724268288352 140135005452378 0 0 16781312 8404994 0 0 0 17 6 0 0 0 0 0 7252936 7256980 10928128 140724268298829 140724268298964 140724268298964 140724268302304 0
/proc/27007/statm: 15676 9541 1724 235 0 8007 0
Current children cumulated CPU time (s) 61.5
Current children cumulated vsize (KiB) 67212

[startup+62.3003 s]
/proc/loadavg: 3.16 3.54 3.17 4/903 27081
/proc/meminfo: memFree=1551776/8064712 swapFree=32/801848
[pid=27003] ppid=27002 vsize=4508 CPUtime=0.02 cores=0-7
/proc/27003/stat : 27003 (sh) S 27002 27003 18417 34816 25145 4194304 106 670 0 0 0 0 2 0 20 0 1 0 799725 4616192 214 18446744073709551615 94871256911872 94871257055772 140721472742064 140721472740872 139878764701050 0 0 0 65538 1 0 0 17 1 0 0 0 0 0 94871259156328 94871259161120 94871271088128 140721472746056 140721472746212 140721472746212 140721472749552 0
/proc/27003/statm: 1127 214 194 36 0 83 0
[pid=27007] ppid=27003 vsize=62704 CPUtime=62.27 cores=0-7
/proc/27007/stat : 27007 (wasp) R 27003 27003 18417 34816 25145 4194304 8913 0 0 0 6222 5 0 0 20 0 1 0 799725 64208896 9541 18446744073709551615 4194304 5154736 140724268290320 140724268288264 140135005941694 0 0 16781312 8404994 0 0 0 17 6 0 0 0 0 0 7252936 7256980 10928128 140724268298829 140724268298964 140724268298964 140724268302304 0
/proc/27007/statm: 15676 9541 1724 235 0 8007 0
Current children cumulated CPU time (s) 62.29
Current children cumulated vsize (KiB) 67212

[startup+62.5002 s]
/proc/loadavg: 3.16 3.54 3.17 4/903 27081
/proc/meminfo: memFree=1551776/8064712 swapFree=32/801848
[pid=27003] ppid=27002 vsize=4508 CPUtime=0.02 cores=0-7
/proc/27003/stat : 27003 (sh) S 27002 27003 18417 34816 25145 4194304 106 670 0 0 0 0 2 0 20 0 1 0 799725 4616192 214 18446744073709551615 94871256911872 94871257055772 140721472742064 140721472740872 139878764701050 0 0 0 65538 1 0 0 17 1 0 0 0 0 0 94871259156328 94871259161120 94871271088128 140721472746056 140721472746212 140721472746212 140721472749552 0
/proc/27003/statm: 1127 214 194 36 0 83 0
[pid=27007] ppid=27003 vsize=62704 CPUtime=62.47 cores=0-7
/proc/27007/stat : 27007 (wasp) R 27003 27003 18417 34816 25145 4194304 8913 0 0 0 6242 5 0 0 20 0 1 0 799725 64208896 9541 18446744073709551615 4194304 5154736 140724268290320 140724268289360 4778792 0 0 16781312 8404994 0 0 0 17 6 0 0 0 0 0 7252936 7256980 10928128 140724268298829 140724268298964 140724268298964 140724268302304 0
/proc/27007/statm: 15676 9541 1724 235 0 8007 0
Current children cumulated CPU time (s) 62.49
Current children cumulated vsize (KiB) 67212

Child status: 0
Real time (s): 62.5364
CPU time (s): 62.532
CPU user time (s): 62.476
CPU system time (s): 0.056
CPU usage (%): 99.9929
Max. virtual memory (cumulated for all children) (KiB): 67212

getrusage(RUSAGE_CHILDREN,...) data:
user time used= 62.476
system time used= 0.056
maximum resident set size= 38164
integral shared memory size= 0
integral unshared data size= 0
integral unshared stack size= 0
page reclaims= 9693
page faults= 0
swaps= 0
block input operations= 0
block output operations= 16
messages sent= 0
messages received= 0
signals received= 0
voluntary context switches= 17
involuntary context switches= 83

runsolver used 0.296 second user time and 0.404 second system time

The end
