runsolver Copyright (C) 2010-2013 Olivier ROUSSEL

This is runsolver version 3.3.4 (svn: 1649)

This program is distributed in the hope that it will be useful,
but WITHOUT ANY WARRANTY; without even the implied warranty of
MERCHANTABILITY or FITNESS FOR A PARTICULAR PURPOSE.  See the
GNU General Public License for more details.

command line: ./runsolver -C 600 -M 2048 -w 2017-04-11_11.47.57/eager/three_sat/roughBenchmarks/three_sat-64.dat -o 2017-04-11_11.47.57/eager/three_sat/outputs/three_sat-64.dat ../wasp-lazy-work/lazyConstraintsExperiments/3-sat/eager.sh ../wasp-lazy-work/lazyConstraintsExperiments/3-sat/instancesFixedClauses/240_850_4.asp 

running on 8 cores: 0-7

Enforcing CPUTime limit (soft limit, will send SIGTERM then SIGKILL): 600 seconds
Enforcing CPUTime limit (hard limit, will send SIGXCPU): 630 seconds
Enforcing VSIZE limit (soft limit, will send SIGTERM then SIGKILL): 2097152 KiB
Enforcing VSIZE limit (hard limit, stack expansion will fail with SIGSEGV, brk() and mmap() will return ENOMEM): 2148352 KiB
Current StackSize limit: 8192 KiB


[startup+0 s]
/proc/loadavg: 2.99 3.04 3.12 4/444 29435
/proc/meminfo: memFree=4441988/8064712 swapFree=0/778684
[pid=29435] ppid=29434 vsize=4508 CPUtime=0 cores=0-7
/proc/29435/stat : 29435 (sh) S 29434 29435 18417 34816 25145 4194304 106 176 0 0 0 0 0 0 20 0 1 0 1023924 4616192 197 18446744073709551615 94047305871360 94047306015260 140735425257280 140735425256088 140622634227066 0 0 0 65538 1 0 0 17 3 0 0 0 0 0 94047308115816 94047308120608 94047324196864 140735425262153 140735425262308 140735425262308 140735425265648 0
/proc/29435/statm: 1127 197 177 36 0 83 0

[startup+0.0854159 s]
/proc/loadavg: 2.99 3.04 3.12 4/444 29435
/proc/meminfo: memFree=4441988/8064712 swapFree=0/778684
[pid=29435] ppid=29434 vsize=4508 CPUtime=0.01 cores=0-7
/proc/29435/stat : 29435 (sh) S 29434 29435 18417 34816 25145 4194304 106 622 0 0 0 0 1 0 20 0 1 0 1023924 4616192 197 18446744073709551615 94047305871360 94047306015260 140735425257280 140735425256088 140622634227066 0 0 0 65538 1 0 0 17 2 0 0 0 0 0 94047308115816 94047308120608 94047324196864 140735425262153 140735425262308 140735425262308 140735425265648 0
/proc/29435/statm: 1127 197 177 36 0 83 0
Current children cumulated CPU time (s) 0.01
Current children cumulated vsize (KiB) 4508

[startup+0.100234 s]
/proc/loadavg: 2.99 3.04 3.12 4/444 29435
/proc/meminfo: memFree=4441988/8064712 swapFree=0/778684
[pid=29435] ppid=29434 vsize=4508 CPUtime=0.01 cores=0-7
/proc/29435/stat : 29435 (sh) S 29434 29435 18417 34816 25145 4194304 106 622 0 0 0 0 1 0 20 0 1 0 1023924 4616192 197 18446744073709551615 94047305871360 94047306015260 140735425257280 140735425256088 140622634227066 0 0 0 65538 1 0 0 17 2 0 0 0 0 0 94047308115816 94047308120608 94047324196864 140735425262153 140735425262308 140735425262308 140735425265648 0
/proc/29435/statm: 1127 197 177 36 0 83 0
Current children cumulated CPU time (s) 0.01
Current children cumulated vsize (KiB) 4508

Solver just ended. Dumping a history of the last processes samples

Child status: 0
Real time (s): 0.160873
CPU time (s): 0.16
CPU user time (s): 0.156
CPU system time (s): 0.004
CPU usage (%): 99.4574
Max. virtual memory (cumulated for all children) (KiB): 4508

getrusage(RUSAGE_CHILDREN,...) data:
user time used= 0.156
system time used= 0.004
maximum resident set size= 12288
integral shared memory size= 0
integral unshared data size= 0
integral unshared stack size= 0
page reclaims= 2470
page faults= 0
swaps= 0
block input operations= 0
block output operations= 72
messages sent= 0
messages received= 0
signals received= 0
voluntary context switches= 17
involuntary context switches= 6

runsolver used 0.004 second user time and 0.004 second system time

The end
