runsolver Copyright (C) 2010-2013 Olivier ROUSSEL

This is runsolver version 3.3.4 (svn: 1649)

This program is distributed in the hope that it will be useful,
but WITHOUT ANY WARRANTY; without even the implied warranty of
MERCHANTABILITY or FITNESS FOR A PARTICULAR PURPOSE.  See the
GNU General Public License for more details.

command line: ./runsolver -C 600 -M 2048 -w 2017-04-11_11.47.57/eager/three_sat/roughBenchmarks/three_sat-17.dat -o 2017-04-11_11.47.57/eager/three_sat/outputs/three_sat-17.dat ../wasp-lazy-work/lazyConstraintsExperiments/3-sat/eager.sh ../wasp-lazy-work/lazyConstraintsExperiments/3-sat/instancesFixedClauses/240_1150_2.asp 

running on 8 cores: 0-7

Enforcing CPUTime limit (soft limit, will send SIGTERM then SIGKILL): 600 seconds
Enforcing CPUTime limit (hard limit, will send SIGXCPU): 630 seconds
Enforcing VSIZE limit (soft limit, will send SIGTERM then SIGKILL): 2097152 KiB
Enforcing VSIZE limit (hard limit, stack expansion will fail with SIGSEGV, brk() and mmap() will return ENOMEM): 2148352 KiB
Current StackSize limit: 8192 KiB


[startup+0 s]
/proc/loadavg: 4.66 4.48 4.37 7/923 5676
/proc/meminfo: memFree=1248880/8064712 swapFree=64/787180
[pid=5676] ppid=5675 vsize=4508 CPUtime=0 cores=0-7
/proc/5676/stat : 5676 (sh) S 5675 5676 18417 34816 25145 4194304 110 178 0 0 0 0 0 0 20 0 1 0 1860239 4616192 175 18446744073709551615 94685583802368 94685583946268 140729949972576 140729949971384 140185496483194 0 0 0 65538 1 0 0 17 0 0 0 0 0 0 94685586046824 94685586051616 94685593079808 140729949975112 140729949975268 140729949975268 140729949978608 0
/proc/5676/statm: 1127 175 155 36 0 83 0

[startup+0.037989 s]
/proc/loadavg: 4.66 4.48 4.37 7/923 5676
/proc/meminfo: memFree=1248880/8064712 swapFree=64/787180
[pid=5676] ppid=5675 vsize=4508 CPUtime=0 cores=0-7
/proc/5676/stat : 5676 (sh) S 5675 5676 18417 34816 25145 4194304 110 178 0 0 0 0 0 0 20 0 1 0 1860239 4616192 175 18446744073709551615 94685583802368 94685583946268 140729949972576 140729949971384 140185496483194 0 0 0 65538 1 0 0 17 0 0 0 0 0 0 94685586046824 94685586051616 94685593079808 140729949975112 140729949975268 140729949975268 140729949978608 0
/proc/5676/statm: 1127 175 155 36 0 83 0
Current children cumulated CPU time (s) 0
Current children cumulated vsize (KiB) 4508

[startup+0.100438 s]
/proc/loadavg: 4.66 4.48 4.37 7/923 5676
/proc/meminfo: memFree=1248880/8064712 swapFree=64/787180
[pid=5676] ppid=5675 vsize=4508 CPUtime=0.04 cores=0-7
/proc/5676/stat : 5676 (sh) S 5675 5676 18417 34816 25145 4194304 111 639 0 0 0 0 4 0 20 0 1 0 1860239 4616192 175 18446744073709551615 94685583802368 94685583946268 140729949972576 140729949971384 140185496483194 0 0 0 65538 1 0 0 17 1 0 0 0 0 0 94685586046824 94685586051616 94685593079808 140729949975112 140729949975268 140729949975268 140729949978608 0
/proc/5676/statm: 1127 175 155 36 0 83 0
Current children cumulated CPU time (s) 0.04
Current children cumulated vsize (KiB) 4508

[startup+0.300358 s]
/proc/loadavg: 4.66 4.48 4.37 7/923 5676
/proc/meminfo: memFree=1248880/8064712 swapFree=64/787180
[pid=5676] ppid=5675 vsize=4508 CPUtime=0.04 cores=0-7
/proc/5676/stat : 5676 (sh) S 5675 5676 18417 34816 25145 4194304 111 639 0 0 0 0 4 0 20 0 1 0 1860239 4616192 175 18446744073709551615 94685583802368 94685583946268 140729949972576 140729949971384 140185496483194 0 0 0 65538 1 0 0 17 1 0 0 0 0 0 94685586046824 94685586051616 94685593079808 140729949975112 140729949975268 140729949975268 140729949978608 0
/proc/5676/statm: 1127 175 155 36 0 83 0
Current children cumulated CPU time (s) 0.04
Current children cumulated vsize (KiB) 4508

[startup+0.70065 s]
/proc/loadavg: 4.66 4.48 4.37 7/923 5676
/proc/meminfo: memFree=1248880/8064712 swapFree=64/787180
[pid=5676] ppid=5675 vsize=4508 CPUtime=0.04 cores=0-7
/proc/5676/stat : 5676 (sh) S 5675 5676 18417 34816 25145 4194304 111 639 0 0 0 0 4 0 20 0 1 0 1860239 4616192 175 18446744073709551615 94685583802368 94685583946268 140729949972576 140729949971384 140185496483194 0 0 0 65538 1 0 0 17 1 0 0 0 0 0 94685586046824 94685586051616 94685593079808 140729949975112 140729949975268 140729949975268 140729949978608 0
/proc/5676/statm: 1127 175 155 36 0 83 0
Current children cumulated CPU time (s) 0.04
Current children cumulated vsize (KiB) 4508

[startup+1.50029 s]
/proc/loadavg: 4.66 4.48 4.37 4/925 5681
/proc/meminfo: memFree=1243240/8064712 swapFree=64/787184
[pid=5676] ppid=5675 vsize=4508 CPUtime=0.04 cores=0-7
/proc/5676/stat : 5676 (sh) S 5675 5676 18417 34816 25145 4194304 111 639 0 0 0 0 4 0 20 0 1 0 1860239 4616192 175 18446744073709551615 94685583802368 94685583946268 140729949972576 140729949971384 140185496483194 0 0 0 65538 1 0 0 17 1 0 0 0 0 0 94685586046824 94685586051616 94685593079808 140729949975112 140729949975268 140729949975268 140729949978608 0
/proc/5676/statm: 1127 175 155 36 0 83 0
[pid=5680] ppid=5676 vsize=40532 CPUtime=1.45 cores=0-7
/proc/5680/stat : 5680 (wasp) R 5676 5676 18417 34816 25145 4194304 2803 0 0 0 144 1 0 0 20 0 1 0 1860240 41504768 4095 18446744073709551615 4194304 5154736 140733382666640 140733382664256 140274862046862 0 0 16781312 8404994 0 0 0 17 0 0 0 0 0 0 7252936 7256980 25026560 140733382668877 140733382669012 140733382669012 140733382672352 0
/proc/5680/statm: 10133 4095 1715 235 0 2464 0
Current children cumulated CPU time (s) 1.49
Current children cumulated vsize (KiB) 45040

[startup+3.10117 s]
/proc/loadavg: 4.66 4.48 4.37 6/925 5681
/proc/meminfo: memFree=1246748/8064712 swapFree=64/786924
[pid=5676] ppid=5675 vsize=4508 CPUtime=0.04 cores=0-7
/proc/5676/stat : 5676 (sh) S 5675 5676 18417 34816 25145 4194304 111 639 0 0 0 0 4 0 20 0 1 0 1860239 4616192 175 18446744073709551615 94685583802368 94685583946268 140729949972576 140729949971384 140185496483194 0 0 0 65538 1 0 0 17 1 0 0 0 0 0 94685586046824 94685586051616 94685593079808 140729949975112 140729949975268 140729949975268 140729949978608 0
/proc/5676/statm: 1127 175 155 36 0 83 0
[pid=5680] ppid=5676 vsize=43520 CPUtime=3.04 cores=0-7
/proc/5680/stat : 5680 (wasp) R 5676 5676 18417 34816 25145 4194304 3650 0 0 0 302 2 0 0 20 0 1 0 1860240 44564480 4838 18446744073709551615 4194304 5154736 140733382666640 140733382665104 140274862046862 0 0 16781312 8404994 0 0 0 17 6 0 0 0 0 0 7252936 7256980 25026560 140733382668877 140733382669012 140733382669012 140733382672352 0
/proc/5680/statm: 10880 4838 1715 235 0 3211 0
Current children cumulated CPU time (s) 3.08
Current children cumulated vsize (KiB) 48028

[startup+6.30033 s]
/proc/loadavg: 4.60 4.47 4.37 7/925 5701
/proc/meminfo: memFree=1249732/8064712 swapFree=64/787048
[pid=5676] ppid=5675 vsize=4508 CPUtime=0.04 cores=0-7
/proc/5676/stat : 5676 (sh) S 5675 5676 18417 34816 25145 4194304 111 639 0 0 0 0 4 0 20 0 1 0 1860239 4616192 175 18446744073709551615 94685583802368 94685583946268 140729949972576 140729949971384 140185496483194 0 0 0 65538 1 0 0 17 1 0 0 0 0 0 94685586046824 94685586051616 94685593079808 140729949975112 140729949975268 140729949975268 140729949978608 0
/proc/5676/statm: 1127 175 155 36 0 83 0
[pid=5680] ppid=5676 vsize=47536 CPUtime=6.23 cores=0-7
/proc/5680/stat : 5680 (wasp) R 5676 5676 18417 34816 25145 4194304 4798 0 0 0 620 3 0 0 20 0 1 0 1860240 48676864 5859 18446744073709551615 4194304 5154736 140733382666640 140733382665152 140274862046862 0 0 16781312 8404994 0 0 0 17 6 0 0 0 0 0 7252936 7256980 25026560 140733382668877 140733382669012 140733382669012 140733382672352 0
/proc/5680/statm: 11884 5859 1715 235 0 4215 0
Current children cumulated CPU time (s) 6.27
Current children cumulated vsize (KiB) 52044

[startup+12.7003 s]
/proc/loadavg: 4.64 4.48 4.38 5/924 5736
/proc/meminfo: memFree=1282832/8064712 swapFree=64/787040
[pid=5676] ppid=5675 vsize=4508 CPUtime=0.04 cores=0-7
/proc/5676/stat : 5676 (sh) S 5675 5676 18417 34816 25145 4194304 111 639 0 0 0 0 4 0 20 0 1 0 1860239 4616192 175 18446744073709551615 94685583802368 94685583946268 140729949972576 140729949971384 140185496483194 0 0 0 65538 1 0 0 17 1 0 0 0 0 0 94685586046824 94685586051616 94685593079808 140729949975112 140729949975268 140729949975268 140729949978608 0
/proc/5676/statm: 1127 175 155 36 0 83 0
[pid=5680] ppid=5676 vsize=51920 CPUtime=12.62 cores=0-7
/proc/5680/stat : 5680 (wasp) R 5676 5676 18417 34816 25145 4194304 6098 0 0 0 1259 3 0 0 20 0 1 0 1860240 53166080 6893 18446744073709551615 4194304 5154736 140733382666640 140733382665856 4802479 0 0 16781312 8404994 0 0 0 17 6 0 0 0 0 0 7252936 7256980 25026560 140733382668877 140733382669012 140733382669012 140733382672352 0
/proc/5680/statm: 12980 6893 1715 235 0 5311 0
Current children cumulated CPU time (s) 12.66
Current children cumulated vsize (KiB) 56428

Solver just ended. Dumping a history of the last processes samples

[startup+15.9003 s]
/proc/loadavg: 4.75 4.51 4.38 4/922 5777
/proc/meminfo: memFree=1283892/8064712 swapFree=64/787028
[pid=5676] ppid=5675 vsize=4508 CPUtime=0.04 cores=0-7
/proc/5676/stat : 5676 (sh) S 5675 5676 18417 34816 25145 4194304 111 639 0 0 0 0 4 0 20 0 1 0 1860239 4616192 175 18446744073709551615 94685583802368 94685583946268 140729949972576 140729949971384 140185496483194 0 0 0 65538 1 0 0 17 1 0 0 0 0 0 94685586046824 94685586051616 94685593079808 140729949975112 140729949975268 140729949975268 140729949978608 0
/proc/5676/statm: 1127 175 155 36 0 83 0
[pid=5680] ppid=5676 vsize=51920 CPUtime=15.81 cores=0-7
/proc/5680/stat : 5680 (wasp) R 5676 5676 18417 34816 25145 4194304 6098 0 0 0 1578 3 0 0 20 0 1 0 1860240 53166080 6893 18446744073709551615 4194304 5154736 140733382666640 140733382664672 140274879634368 0 0 16781312 8404994 0 0 0 17 4 0 0 0 0 0 7252936 7256980 25026560 140733382668877 140733382669012 140733382669012 140733382672352 0
/proc/5680/statm: 12980 6893 1715 235 0 5311 0
Current children cumulated CPU time (s) 15.85
Current children cumulated vsize (KiB) 56428

[startup+19.1003 s]
/proc/loadavg: 4.68 4.50 4.38 4/923 5798
/proc/meminfo: memFree=1276768/8064712 swapFree=64/787000
[pid=5676] ppid=5675 vsize=4508 CPUtime=0.04 cores=0-7
/proc/5676/stat : 5676 (sh) S 5675 5676 18417 34816 25145 4194304 111 639 0 0 0 0 4 0 20 0 1 0 1860239 4616192 175 18446744073709551615 94685583802368 94685583946268 140729949972576 140729949971384 140185496483194 0 0 0 65538 1 0 0 17 1 0 0 0 0 0 94685586046824 94685586051616 94685593079808 140729949975112 140729949975268 140729949975268 140729949978608 0
/proc/5676/statm: 1127 175 155 36 0 83 0
[pid=5680] ppid=5676 vsize=51920 CPUtime=19.01 cores=0-7
/proc/5680/stat : 5680 (wasp) R 5676 5676 18417 34816 25145 4194304 6099 0 0 0 1898 3 0 0 20 0 1 0 1860240 53166080 6893 18446744073709551615 4194304 5154736 140733382666640 140733382665680 4778790 0 0 16781312 8404994 0 0 0 17 4 0 0 0 0 0 7252936 7256980 25026560 140733382668877 140733382669012 140733382669012 140733382672352 0
/proc/5680/statm: 12980 6893 1715 235 0 5311 0
Current children cumulated CPU time (s) 19.05
Current children cumulated vsize (KiB) 56428

[startup+20.7027 s]
/proc/loadavg: 4.68 4.50 4.38 5/924 5799
/proc/meminfo: memFree=1274728/8064712 swapFree=64/787004
[pid=5676] ppid=5675 vsize=4508 CPUtime=0.04 cores=0-7
/proc/5676/stat : 5676 (sh) S 5675 5676 18417 34816 25145 4194304 111 639 0 0 0 0 4 0 20 0 1 0 1860239 4616192 175 18446744073709551615 94685583802368 94685583946268 140729949972576 140729949971384 140185496483194 0 0 0 65538 1 0 0 17 1 0 0 0 0 0 94685586046824 94685586051616 94685593079808 140729949975112 140729949975268 140729949975268 140729949978608 0
/proc/5676/statm: 1127 175 155 36 0 83 0
[pid=5680] ppid=5676 vsize=51920 CPUtime=20.61 cores=0-7
/proc/5680/stat : 5680 (wasp) R 5676 5676 18417 34816 25145 4194304 6099 0 0 0 2058 3 0 0 20 0 1 0 1860240 53166080 6893 18446744073709551615 4194304 5154736 140733382666640 140733382664584 140274880133627 0 0 16781312 8404994 0 0 0 17 4 0 0 0 0 0 7252936 7256980 25026560 140733382668877 140733382669012 140733382669012 140733382672352 0
/proc/5680/statm: 12980 6893 1715 235 0 5311 0
Current children cumulated CPU time (s) 20.65
Current children cumulated vsize (KiB) 56428

[startup+21.5003 s]
/proc/loadavg: 4.68 4.50 4.38 5/924 5799
/proc/meminfo: memFree=1274400/8064712 swapFree=64/787004
[pid=5676] ppid=5675 vsize=4508 CPUtime=0.04 cores=0-7
/proc/5676/stat : 5676 (sh) S 5675 5676 18417 34816 25145 4194304 111 639 0 0 0 0 4 0 20 0 1 0 1860239 4616192 175 18446744073709551615 94685583802368 94685583946268 140729949972576 140729949971384 140185496483194 0 0 0 65538 1 0 0 17 1 0 0 0 0 0 94685586046824 94685586051616 94685593079808 140729949975112 140729949975268 140729949975268 140729949978608 0
/proc/5676/statm: 1127 175 155 36 0 83 0
[pid=5680] ppid=5676 vsize=51920 CPUtime=21.41 cores=0-7
/proc/5680/stat : 5680 (wasp) R 5676 5676 18417 34816 25145 4194304 6099 0 0 0 2138 3 0 0 20 0 1 0 1860240 53166080 6893 18446744073709551615 4194304 5154736 140733382666640 140733382665200 140274880528017 0 0 16781312 8404994 0 0 0 17 4 0 0 0 0 0 7252936 7256980 25026560 140733382668877 140733382669012 140733382669012 140733382672352 0
/proc/5680/statm: 12980 6893 1715 235 0 5311 0
Current children cumulated CPU time (s) 21.45
Current children cumulated vsize (KiB) 56428

[startup+21.9003 s]
/proc/loadavg: 4.68 4.50 4.38 5/924 5799
/proc/meminfo: memFree=1272624/8064712 swapFree=64/787004
[pid=5676] ppid=5675 vsize=4508 CPUtime=0.04 cores=0-7
/proc/5676/stat : 5676 (sh) S 5675 5676 18417 34816 25145 4194304 111 639 0 0 0 0 4 0 20 0 1 0 1860239 4616192 175 18446744073709551615 94685583802368 94685583946268 140729949972576 140729949971384 140185496483194 0 0 0 65538 1 0 0 17 1 0 0 0 0 0 94685586046824 94685586051616 94685593079808 140729949975112 140729949975268 140729949975268 140729949978608 0
/proc/5676/statm: 1127 175 155 36 0 83 0
[pid=5680] ppid=5676 vsize=51920 CPUtime=21.82 cores=0-7
/proc/5680/stat : 5680 (wasp) R 5676 5676 18417 34816 25145 4194304 6099 0 0 0 2179 3 0 0 20 0 1 0 1860240 53166080 6893 18446744073709551615 4194304 5154736 140733382666640 140733382664584 140274880135102 0 0 16781312 8404994 0 0 0 17 4 0 0 0 0 0 7252936 7256980 25026560 140733382668877 140733382669012 140733382669012 140733382672352 0
/proc/5680/statm: 12980 6893 1715 235 0 5311 0
Current children cumulated CPU time (s) 21.86
Current children cumulated vsize (KiB) 56428

[startup+22.0114 s]
/proc/loadavg: 4.68 4.50 4.38 5/924 5799
/proc/meminfo: memFree=1272624/8064712 swapFree=64/787004
[pid=5676] ppid=5675 vsize=4508 CPUtime=0.04 cores=0-7
/proc/5676/stat : 5676 (sh) S 5675 5676 18417 34816 25145 4194304 111 639 0 0 0 0 4 0 20 0 1 0 1860239 4616192 175 18446744073709551615 94685583802368 94685583946268 140729949972576 140729949971384 140185496483194 0 0 0 65538 1 0 0 17 1 0 0 0 0 0 94685586046824 94685586051616 94685593079808 140729949975112 140729949975268 140729949975268 140729949978608 0
/proc/5676/statm: 1127 175 155 36 0 83 0
[pid=5680] ppid=5676 vsize=51920 CPUtime=21.92 cores=0-7
/proc/5680/stat : 5680 (wasp) R 5676 5676 18417 34816 25145 4194304 6099 0 0 0 2189 3 0 0 20 0 1 0 1860240 53166080 6893 18446744073709551615 4194304 5154736 140733382666640 140733382664672 140274879646316 0 0 16781312 8404994 0 0 0 17 4 0 0 0 0 0 7252936 7256980 25026560 140733382668877 140733382669012 140733382669012 140733382672352 0
/proc/5680/statm: 12980 6893 1715 235 0 5311 0
Current children cumulated CPU time (s) 21.96
Current children cumulated vsize (KiB) 56428

Child status: 0
Real time (s): 22.0581
CPU time (s): 22.016
CPU user time (s): 21.98
CPU system time (s): 0.036
CPU usage (%): 99.8092
Max. virtual memory (cumulated for all children) (KiB): 56428

getrusage(RUSAGE_CHILDREN,...) data:
user time used= 21.98
system time used= 0.036
maximum resident set size= 27572
integral shared memory size= 0
integral unshared data size= 0
integral unshared stack size= 0
page reclaims= 6852
page faults= 0
swaps= 0
block input operations= 0
block output operations= 8
messages sent= 0
messages received= 0
signals received= 0
voluntary context switches= 22
involuntary context switches= 75

runsolver used 0.188 second user time and 0.188 second system time

The end
