runsolver Copyright (C) 2010-2013 Olivier ROUSSEL

This is runsolver version 3.3.4 (svn: 1649)

This program is distributed in the hope that it will be useful,
but WITHOUT ANY WARRANTY; without even the implied warranty of
MERCHANTABILITY or FITNESS FOR A PARTICULAR PURPOSE.  See the
GNU General Public License for more details.

command line: ./runsolver -C 600 -M 2048 -w 2017-04-11_11.47.57/eager/three_sat/roughBenchmarks/three_sat-273.dat -o 2017-04-11_11.47.57/eager/three_sat/outputs/three_sat-273.dat ../wasp-lazy-work/lazyConstraintsExperiments/3-sat/eager.sh ../wasp-lazy-work/lazyConstraintsExperiments/3-sat/instancesFixedClauses/300_1450_3.asp 

running on 8 cores: 0-7

Enforcing CPUTime limit (soft limit, will send SIGTERM then SIGKILL): 600 seconds
Enforcing CPUTime limit (hard limit, will send SIGXCPU): 630 seconds
Enforcing VSIZE limit (soft limit, will send SIGTERM then SIGKILL): 2097152 KiB
Enforcing VSIZE limit (hard limit, stack expansion will fail with SIGSEGV, brk() and mmap() will return ENOMEM): 2148352 KiB
Current StackSize limit: 8192 KiB


[startup+0 s]
/proc/loadavg: 3.17 3.28 3.45 4/951 12829
/proc/meminfo: memFree=1517636/8064712 swapFree=64/553672
[pid=12829] ppid=12828 vsize=4508 CPUtime=0 cores=0-7
/proc/12829/stat : 12829 (sh) S 12828 12829 18417 34816 25145 4194304 107 172 0 0 0 0 0 0 20 0 1 0 2447637 4616192 178 18446744073709551615 94811955818496 94811955962396 140721650512848 140721650511656 140531368740218 0 0 0 65538 1 0 0 17 6 0 0 0 0 0 94811958062952 94811958067744 94811988406272 140721650520648 140721650520804 140721650520804 140721650524144 0
/proc/12829/statm: 1127 178 158 36 0 83 0

[startup+0.0217799 s]
/proc/loadavg: 3.17 3.28 3.45 4/951 12829
/proc/meminfo: memFree=1517636/8064712 swapFree=64/553672
[pid=12829] ppid=12828 vsize=4508 CPUtime=0 cores=0-7
/proc/12829/stat : 12829 (sh) S 12828 12829 18417 34816 25145 4194304 107 172 0 0 0 0 0 0 20 0 1 0 2447637 4616192 178 18446744073709551615 94811955818496 94811955962396 140721650512848 140721650511656 140531368740218 0 0 0 65538 1 0 0 17 6 0 0 0 0 0 94811958062952 94811958067744 94811988406272 140721650520648 140721650520804 140721650520804 140721650524144 0
/proc/12829/statm: 1127 178 158 36 0 83 0
Current children cumulated CPU time (s) 0
Current children cumulated vsize (KiB) 4508

[startup+0.100307 s]
/proc/loadavg: 3.17 3.28 3.45 4/951 12829
/proc/meminfo: memFree=1517636/8064712 swapFree=64/553672
[pid=12829] ppid=12828 vsize=4508 CPUtime=0.06 cores=0-7
/proc/12829/stat : 12829 (sh) S 12828 12829 18417 34816 25145 4194304 107 679 0 0 0 0 6 0 20 0 1 0 2447637 4616192 178 18446744073709551615 94811955818496 94811955962396 140721650512848 140721650511656 140531368740218 0 0 0 65538 1 0 0 17 6 0 0 0 0 0 94811958062952 94811958067744 94811988406272 140721650520648 140721650520804 140721650520804 140721650524144 0
/proc/12829/statm: 1127 178 158 36 0 83 0
Current children cumulated CPU time (s) 0.06
Current children cumulated vsize (KiB) 4508

[startup+0.300226 s]
/proc/loadavg: 3.17 3.28 3.45 4/951 12829
/proc/meminfo: memFree=1517636/8064712 swapFree=64/553672
[pid=12829] ppid=12828 vsize=4508 CPUtime=0.06 cores=0-7
/proc/12829/stat : 12829 (sh) S 12828 12829 18417 34816 25145 4194304 107 679 0 0 0 0 6 0 20 0 1 0 2447637 4616192 178 18446744073709551615 94811955818496 94811955962396 140721650512848 140721650511656 140531368740218 0 0 0 65538 1 0 0 17 6 0 0 0 0 0 94811958062952 94811958067744 94811988406272 140721650520648 140721650520804 140721650520804 140721650524144 0
/proc/12829/statm: 1127 178 158 36 0 83 0
Current children cumulated CPU time (s) 0.06
Current children cumulated vsize (KiB) 4508

[startup+0.700211 s]
/proc/loadavg: 3.17 3.28 3.45 4/951 12829
/proc/meminfo: memFree=1517636/8064712 swapFree=64/553672
[pid=12829] ppid=12828 vsize=4508 CPUtime=0.06 cores=0-7
/proc/12829/stat : 12829 (sh) S 12828 12829 18417 34816 25145 4194304 107 679 0 0 0 0 6 0 20 0 1 0 2447637 4616192 178 18446744073709551615 94811955818496 94811955962396 140721650512848 140721650511656 140531368740218 0 0 0 65538 1 0 0 17 6 0 0 0 0 0 94811958062952 94811958067744 94811988406272 140721650520648 140721650520804 140721650520804 140721650524144 0
/proc/12829/statm: 1127 178 158 36 0 83 0
Current children cumulated CPU time (s) 0.06
Current children cumulated vsize (KiB) 4508

[startup+1.50026 s]
/proc/loadavg: 3.17 3.28 3.45 4/955 12838
/proc/meminfo: memFree=1509276/8064712 swapFree=64/553740
[pid=12829] ppid=12828 vsize=4508 CPUtime=0.06 cores=0-7
/proc/12829/stat : 12829 (sh) S 12828 12829 18417 34816 25145 4194304 107 679 0 0 0 0 6 0 20 0 1 0 2447637 4616192 178 18446744073709551615 94811955818496 94811955962396 140721650512848 140721650511656 140531368740218 0 0 0 65538 1 0 0 17 6 0 0 0 0 0 94811958062952 94811958067744 94811988406272 140721650520648 140721650520804 140721650520804 140721650524144 0
/proc/12829/statm: 1127 178 158 36 0 83 0
[pid=12833] ppid=12829 vsize=41456 CPUtime=1.44 cores=0-7
/proc/12833/stat : 12833 (wasp) R 12829 12829 18417 34816 25145 4194304 3164 0 0 0 142 2 0 0 20 0 1 0 2447638 42450944 4355 18446744073709551615 4194304 5154736 140730435280848 140730435278872 139766053776568 0 0 16781312 8404994 0 0 0 17 0 0 0 0 0 0 7252936 7256980 40624128 140730435289677 140730435289812 140730435289812 140730435293152 0
/proc/12833/statm: 10364 4355 1715 235 0 2695 0
Current children cumulated CPU time (s) 1.5
Current children cumulated vsize (KiB) 45964

[startup+3.10027 s]
/proc/loadavg: 3.17 3.28 3.45 4/955 12838
/proc/meminfo: memFree=1505076/8064712 swapFree=64/553788
[pid=12829] ppid=12828 vsize=4508 CPUtime=0.06 cores=0-7
/proc/12829/stat : 12829 (sh) S 12828 12829 18417 34816 25145 4194304 107 679 0 0 0 0 6 0 20 0 1 0 2447637 4616192 178 18446744073709551615 94811955818496 94811955962396 140721650512848 140721650511656 140531368740218 0 0 0 65538 1 0 0 17 6 0 0 0 0 0 94811958062952 94811958067744 94811988406272 140721650520648 140721650520804 140721650520804 140721650524144 0
/proc/12829/statm: 1127 178 158 36 0 83 0
[pid=12833] ppid=12829 vsize=46072 CPUtime=3.03 cores=0-7
/proc/12833/stat : 12833 (wasp) R 12829 12829 18417 34816 25145 4194304 4244 0 0 0 301 2 0 0 20 0 1 0 2447638 47177728 5477 18446744073709551615 4194304 5154736 140730435280848 140730435278880 139766053278944 0 0 16781312 8404994 0 0 0 17 0 0 0 0 0 0 7252936 7256980 40624128 140730435289677 140730435289812 140730435289812 140730435293152 0
/proc/12833/statm: 11518 5477 1715 235 0 3849 0
Current children cumulated CPU time (s) 3.09
Current children cumulated vsize (KiB) 50580

[startup+6.30028 s]
/proc/loadavg: 3.15 3.27 3.45 4/955 12841
/proc/meminfo: memFree=1499372/8064712 swapFree=64/553768
[pid=12829] ppid=12828 vsize=4508 CPUtime=0.06 cores=0-7
/proc/12829/stat : 12829 (sh) S 12828 12829 18417 34816 25145 4194304 107 679 0 0 0 0 6 0 20 0 1 0 2447637 4616192 178 18446744073709551615 94811955818496 94811955962396 140721650512848 140721650511656 140531368740218 0 0 0 65538 1 0 0 17 6 0 0 0 0 0 94811958062952 94811958067744 94811988406272 140721650520648 140721650520804 140721650520804 140721650524144 0
/proc/12829/statm: 1127 178 158 36 0 83 0
[pid=12833] ppid=12829 vsize=51040 CPUtime=6.22 cores=0-7
/proc/12833/stat : 12833 (wasp) R 12829 12829 18417 34816 25145 4194304 5719 0 0 0 620 2 0 0 20 0 1 0 2447638 52264960 6687 18446744073709551615 4194304 5154736 140730435280848 140730435279504 139766053526513 0 0 16781312 8404994 0 0 0 17 0 0 0 0 0 0 7252936 7256980 40624128 140730435289677 140730435289812 140730435289812 140730435293152 0
/proc/12833/statm: 12760 6687 1715 235 0 5091 0
Current children cumulated CPU time (s) 6.28
Current children cumulated vsize (KiB) 55548

[startup+12.7002 s]
/proc/loadavg: 3.14 3.27 3.44 4/955 12842
/proc/meminfo: memFree=1495704/8064712 swapFree=64/553768
[pid=12829] ppid=12828 vsize=4508 CPUtime=0.06 cores=0-7
/proc/12829/stat : 12829 (sh) S 12828 12829 18417 34816 25145 4194304 107 679 0 0 0 0 6 0 20 0 1 0 2447637 4616192 178 18446744073709551615 94811955818496 94811955962396 140721650512848 140721650511656 140531368740218 0 0 0 65538 1 0 0 17 6 0 0 0 0 0 94811958062952 94811958067744 94811988406272 140721650520648 140721650520804 140721650520804 140721650524144 0
/proc/12829/statm: 1127 178 158 36 0 83 0
[pid=12833] ppid=12829 vsize=51644 CPUtime=12.62 cores=0-7
/proc/12833/stat : 12833 (wasp) R 12829 12829 18417 34816 25145 4194304 5831 0 0 0 1260 2 0 0 20 0 1 0 2447638 52883456 6819 18446744073709551615 4194304 5154736 140730435280848 140730435279888 4778884 0 0 16781312 8404994 0 0 0 17 4 0 0 0 0 0 7252936 7256980 40624128 140730435289677 140730435289812 140730435289812 140730435293152 0
/proc/12833/statm: 12911 6819 1715 235 0 5242 0
Current children cumulated CPU time (s) 12.68
Current children cumulated vsize (KiB) 56152

[startup+25.5003 s]
/proc/loadavg: 3.11 3.25 3.44 4/953 12882
/proc/meminfo: memFree=1514440/8064712 swapFree=64/553788
[pid=12829] ppid=12828 vsize=4508 CPUtime=0.06 cores=0-7
/proc/12829/stat : 12829 (sh) S 12828 12829 18417 34816 25145 4194304 107 679 0 0 0 0 6 0 20 0 1 0 2447637 4616192 178 18446744073709551615 94811955818496 94811955962396 140721650512848 140721650511656 140531368740218 0 0 0 65538 1 0 0 17 6 0 0 0 0 0 94811958062952 94811958067744 94811988406272 140721650520648 140721650520804 140721650520804 140721650524144 0
/proc/12829/statm: 1127 178 158 36 0 83 0
[pid=12833] ppid=12829 vsize=51828 CPUtime=25.42 cores=0-7
/proc/12833/stat : 12833 (wasp) R 12829 12829 18417 34816 25145 4194304 5870 0 0 0 2540 2 0 0 20 0 1 0 2447638 53071872 6819 18446744073709551615 4194304 5154736 140730435280848 140730435278880 139766053300314 0 0 16781312 8404994 0 0 0 17 5 0 0 0 0 0 7252936 7256980 40624128 140730435289677 140730435289812 140730435289812 140730435293152 0
/proc/12833/statm: 12957 6819 1715 235 0 5288 0
Current children cumulated CPU time (s) 25.48
Current children cumulated vsize (KiB) 56336

[startup+51.1002 s]
/proc/loadavg: 3.14 3.25 3.43 4/950 12896
/proc/meminfo: memFree=1503412/8064712 swapFree=64/553780
[pid=12829] ppid=12828 vsize=4508 CPUtime=0.06 cores=0-7
/proc/12829/stat : 12829 (sh) S 12828 12829 18417 34816 25145 4194304 107 679 0 0 0 0 6 0 20 0 1 0 2447637 4616192 178 18446744073709551615 94811955818496 94811955962396 140721650512848 140721650511656 140531368740218 0 0 0 65538 1 0 0 17 6 0 0 0 0 0 94811958062952 94811958067744 94811988406272 140721650520648 140721650520804 140721650520804 140721650524144 0
/proc/12829/statm: 1127 178 158 36 0 83 0
[pid=12833] ppid=12829 vsize=53984 CPUtime=51.01 cores=0-7
/proc/12833/stat : 12833 (wasp) R 12829 12829 18417 34816 25145 4194304 6342 0 0 0 5099 2 0 0 20 0 1 0 2447638 55279616 7281 18446744073709551615 4194304 5154736 140730435280848 140730435279888 4779072 0 0 16781312 8404994 0 0 0 17 1 0 0 0 0 0 7252936 7256980 40624128 140730435289677 140730435289812 140730435289812 140730435293152 0
/proc/12833/statm: 13496 7281 1715 235 0 5827 0
Current children cumulated CPU time (s) 51.07
Current children cumulated vsize (KiB) 58492

[startup+102.309 s]
/proc/loadavg: 3.00 3.19 3.40 4/951 12949
/proc/meminfo: memFree=1482380/8064712 swapFree=64/553816
[pid=12829] ppid=12828 vsize=4508 CPUtime=0.06 cores=0-7
/proc/12829/stat : 12829 (sh) S 12828 12829 18417 34816 25145 4194304 107 679 0 0 0 0 6 0 20 0 1 0 2447637 4616192 178 18446744073709551615 94811955818496 94811955962396 140721650512848 140721650511656 140531368740218 0 0 0 65538 1 0 0 17 6 0 0 0 0 0 94811958062952 94811958067744 94811988406272 140721650520648 140721650520804 140721650520804 140721650524144 0
/proc/12829/statm: 1127 178 158 36 0 83 0
[pid=12833] ppid=12829 vsize=54508 CPUtime=102.21 cores=0-7
/proc/12833/stat : 12833 (wasp) R 12829 12829 18417 34816 25145 4194304 6537 0 0 0 10218 3 0 0 20 0 1 0 2447638 55816192 7479 18446744073709551615 4194304 5154736 140730435280848 140730435278880 139766053280210 0 0 16781312 8404994 0 0 0 17 1 0 0 0 0 0 7252936 7256980 40624128 140730435289677 140730435289812 140730435289812 140730435293152 0
/proc/12833/statm: 13627 7479 1715 235 0 5958 0
Current children cumulated CPU time (s) 102.27
Current children cumulated vsize (KiB) 59016

Solver just ended. Dumping a history of the last processes samples

[startup+115.1 s]
/proc/loadavg: 3.00 3.18 3.39 4/951 12949
/proc/meminfo: memFree=1477588/8064712 swapFree=64/553816
[pid=12829] ppid=12828 vsize=4508 CPUtime=0.06 cores=0-7
/proc/12829/stat : 12829 (sh) S 12828 12829 18417 34816 25145 4194304 107 679 0 0 0 0 6 0 20 0 1 0 2447637 4616192 178 18446744073709551615 94811955818496 94811955962396 140721650512848 140721650511656 140531368740218 0 0 0 65538 1 0 0 17 6 0 0 0 0 0 94811958062952 94811958067744 94811988406272 140721650520648 140721650520804 140721650520804 140721650524144 0
/proc/12829/statm: 1127 178 158 36 0 83 0
[pid=12833] ppid=12829 vsize=56152 CPUtime=115 cores=0-7
/proc/12833/stat : 12833 (wasp) R 12829 12829 18417 34816 25145 4194304 6772 0 0 0 11496 4 0 0 20 0 1 0 2447638 57499648 7743 18446744073709551615 4194304 5154736 140730435280848 140730435279888 4779114 0 0 16781312 8404994 0 0 0 17 1 0 0 0 0 0 7252936 7256980 40624128 140730435289677 140730435289812 140730435289812 140730435293152 0
/proc/12833/statm: 14038 7743 1715 235 0 6369 0
Current children cumulated CPU time (s) 115.06
Current children cumulated vsize (KiB) 60660

[startup+127.9 s]
/proc/loadavg: 3.00 3.17 3.39 4/950 12949
/proc/meminfo: memFree=1473168/8064712 swapFree=64/553816
[pid=12829] ppid=12828 vsize=4508 CPUtime=0.06 cores=0-7
/proc/12829/stat : 12829 (sh) S 12828 12829 18417 34816 25145 4194304 107 679 0 0 0 0 6 0 20 0 1 0 2447637 4616192 178 18446744073709551615 94811955818496 94811955962396 140721650512848 140721650511656 140531368740218 0 0 0 65538 1 0 0 17 6 0 0 0 0 0 94811958062952 94811958067744 94811988406272 140721650520648 140721650520804 140721650520804 140721650524144 0
/proc/12829/statm: 1127 178 158 36 0 83 0
[pid=12833] ppid=12829 vsize=56152 CPUtime=127.81 cores=0-7
/proc/12833/stat : 12833 (wasp) R 12829 12829 18417 34816 25145 4194304 6772 0 0 0 12776 5 0 0 20 0 1 0 2447638 57499648 7743 18446744073709551615 4194304 5154736 140730435280848 140730435278880 139766053281776 0 0 16781312 8404994 0 0 0 17 1 0 0 0 0 0 7252936 7256980 40624128 140730435289677 140730435289812 140730435289812 140730435293152 0
/proc/12833/statm: 14038 7743 1715 235 0 6369 0
Current children cumulated CPU time (s) 127.87
Current children cumulated vsize (KiB) 60660

[startup+131.1 s]
/proc/loadavg: 3.00 3.17 3.39 4/950 12949
/proc/meminfo: memFree=1471804/8064712 swapFree=64/553816
[pid=12829] ppid=12828 vsize=4508 CPUtime=0.06 cores=0-7
/proc/12829/stat : 12829 (sh) S 12828 12829 18417 34816 25145 4194304 107 679 0 0 0 0 6 0 20 0 1 0 2447637 4616192 178 18446744073709551615 94811955818496 94811955962396 140721650512848 140721650511656 140531368740218 0 0 0 65538 1 0 0 17 6 0 0 0 0 0 94811958062952 94811958067744 94811988406272 140721650520648 140721650520804 140721650520804 140721650524144 0
/proc/12829/statm: 1127 178 158 36 0 83 0
[pid=12833] ppid=12829 vsize=56152 CPUtime=131.01 cores=0-7
/proc/12833/stat : 12833 (wasp) R 12829 12829 18417 34816 25145 4194304 6772 0 0 0 13096 5 0 0 20 0 1 0 2447638 57499648 7743 18446744073709551615 4194304 5154736 140730435280848 140730435279888 4778792 0 0 16781312 8404994 0 0 0 17 1 0 0 0 0 0 7252936 7256980 40624128 140730435289677 140730435289812 140730435289812 140730435293152 0
/proc/12833/statm: 14038 7743 1715 235 0 6369 0
Current children cumulated CPU time (s) 131.07
Current children cumulated vsize (KiB) 60660

[startup+134.3 s]
/proc/loadavg: 3.00 3.17 3.38 4/950 12949
/proc/meminfo: memFree=1470812/8064712 swapFree=64/553816
[pid=12829] ppid=12828 vsize=4508 CPUtime=0.06 cores=0-7
/proc/12829/stat : 12829 (sh) S 12828 12829 18417 34816 25145 4194304 107 679 0 0 0 0 6 0 20 0 1 0 2447637 4616192 178 18446744073709551615 94811955818496 94811955962396 140721650512848 140721650511656 140531368740218 0 0 0 65538 1 0 0 17 6 0 0 0 0 0 94811958062952 94811958067744 94811988406272 140721650520648 140721650520804 140721650520804 140721650524144 0
/proc/12829/statm: 1127 178 158 36 0 83 0
[pid=12833] ppid=12829 vsize=56152 CPUtime=134.21 cores=0-7
/proc/12833/stat : 12833 (wasp) R 12829 12829 18417 34816 25145 4194304 6772 0 0 0 13416 5 0 0 20 0 1 0 2447638 57499648 7743 18446744073709551615 4194304 5154736 140730435280848 140730435278640 139766054206278 0 0 16781312 8404994 0 0 0 17 1 0 0 0 0 0 7252936 7256980 40624128 140730435289677 140730435289812 140730435289812 140730435293152 0
/proc/12833/statm: 14038 7743 1715 235 0 6369 0
Current children cumulated CPU time (s) 134.27
Current children cumulated vsize (KiB) 60660

[startup+135.9 s]
/proc/loadavg: 3.00 3.17 3.38 4/950 12949
/proc/meminfo: memFree=1470316/8064712 swapFree=64/553816
[pid=12829] ppid=12828 vsize=4508 CPUtime=0.06 cores=0-7
/proc/12829/stat : 12829 (sh) S 12828 12829 18417 34816 25145 4194304 107 679 0 0 0 0 6 0 20 0 1 0 2447637 4616192 178 18446744073709551615 94811955818496 94811955962396 140721650512848 140721650511656 140531368740218 0 0 0 65538 1 0 0 17 6 0 0 0 0 0 94811958062952 94811958067744 94811988406272 140721650520648 140721650520804 140721650520804 140721650524144 0
/proc/12829/statm: 1127 178 158 36 0 83 0
[pid=12833] ppid=12829 vsize=56152 CPUtime=135.81 cores=0-7
/proc/12833/stat : 12833 (wasp) R 12829 12829 18417 34816 25145 4194304 6772 0 0 0 13576 5 0 0 20 0 1 0 2447638 57499648 7743 18446744073709551615 4194304 5154736 140730435280848 140730435278880 139766053300314 0 0 16781312 8404994 0 0 0 17 1 0 0 0 0 0 7252936 7256980 40624128 140730435289677 140730435289812 140730435289812 140730435293152 0
/proc/12833/statm: 14038 7743 1715 235 0 6369 0
Current children cumulated CPU time (s) 135.87
Current children cumulated vsize (KiB) 60660

[startup+136.3 s]
/proc/loadavg: 3.00 3.17 3.38 5/950 12949
/proc/meminfo: memFree=1469696/8064712 swapFree=64/553816
[pid=12829] ppid=12828 vsize=4508 CPUtime=0.06 cores=0-7
/proc/12829/stat : 12829 (sh) S 12828 12829 18417 34816 25145 4194304 107 679 0 0 0 0 6 0 20 0 1 0 2447637 4616192 178 18446744073709551615 94811955818496 94811955962396 140721650512848 140721650511656 140531368740218 0 0 0 65538 1 0 0 17 6 0 0 0 0 0 94811958062952 94811958067744 94811988406272 140721650520648 140721650520804 140721650520804 140721650524144 0
/proc/12829/statm: 1127 178 158 36 0 83 0
[pid=12833] ppid=12829 vsize=56152 CPUtime=136.22 cores=0-7
/proc/12833/stat : 12833 (wasp) R 12829 12829 18417 34816 25145 4194304 6772 0 0 0 13617 5 0 0 20 0 1 0 2447638 57499648 7743 18446744073709551615 4194304 5154736 140730435280848 140730435279888 4778792 0 0 16781312 8404994 0 0 0 17 1 0 0 0 0 0 7252936 7256980 40624128 140730435289677 140730435289812 140730435289812 140730435293152 0
/proc/12833/statm: 14038 7743 1715 235 0 6369 0
Current children cumulated CPU time (s) 136.28
Current children cumulated vsize (KiB) 60660

[startup+136.7 s]
/proc/loadavg: 3.00 3.17 3.38 5/950 12949
/proc/meminfo: memFree=1469696/8064712 swapFree=64/553816
[pid=12829] ppid=12828 vsize=4508 CPUtime=0.06 cores=0-7
/proc/12829/stat : 12829 (sh) S 12828 12829 18417 34816 25145 4194304 107 679 0 0 0 0 6 0 20 0 1 0 2447637 4616192 178 18446744073709551615 94811955818496 94811955962396 140721650512848 140721650511656 140531368740218 0 0 0 65538 1 0 0 17 6 0 0 0 0 0 94811958062952 94811958067744 94811988406272 140721650520648 140721650520804 140721650520804 140721650524144 0
/proc/12829/statm: 1127 178 158 36 0 83 0
[pid=12833] ppid=12829 vsize=56152 CPUtime=136.61 cores=0-7
/proc/12833/stat : 12833 (wasp) R 12829 12829 18417 34816 25145 4194304 6772 0 0 0 13656 5 0 0 20 0 1 0 2447638 57499648 7743 18446744073709551615 4194304 5154736 140730435280848 140730435278792 139766053789653 0 0 16781312 8404994 0 0 0 17 1 0 0 0 0 0 7252936 7256980 40624128 140730435289677 140730435289812 140730435289812 140730435293152 0
/proc/12833/statm: 14038 7743 1715 235 0 6369 0
Current children cumulated CPU time (s) 136.67
Current children cumulated vsize (KiB) 60660

Child status: 0
Real time (s): 136.755
CPU time (s): 136.736
CPU user time (s): 136.684
CPU system time (s): 0.052
CPU usage (%): 99.9859
Max. virtual memory (cumulated for all children) (KiB): 60660

getrusage(RUSAGE_CHILDREN,...) data:
user time used= 136.684
system time used= 0.052
maximum resident set size= 30972
integral shared memory size= 0
integral unshared data size= 0
integral unshared stack size= 0
page reclaims= 7561
page faults= 0
swaps= 0
block input operations= 128
block output operations= 16
messages sent= 0
messages received= 0
signals received= 0
voluntary context switches= 20
involuntary context switches= 510

runsolver used 0.58 second user time and 0.728 second system time

The end
