runsolver Copyright (C) 2010-2013 Olivier ROUSSEL

This is runsolver version 3.3.4 (svn: 1649)

This program is distributed in the hope that it will be useful,
but WITHOUT ANY WARRANTY; without even the implied warranty of
MERCHANTABILITY or FITNESS FOR A PARTICULAR PURPOSE.  See the
GNU General Public License for more details.

command line: ./runsolver -C 600 -M 2048 -w 2017-04-11_11.47.57/lazy/three_sat/roughBenchmarks/three_sat-242.dat -o 2017-04-11_11.47.57/lazy/three_sat/outputs/three_sat-242.dat ../wasp-lazy-work/lazyConstraintsExperiments/3-sat/lazy.sh ../wasp-lazy-work/lazyConstraintsExperiments/3-sat/instancesFixedClauses/300_1150_2.asp 

running on 8 cores: 0-7

Enforcing CPUTime limit (soft limit, will send SIGTERM then SIGKILL): 600 seconds
Enforcing CPUTime limit (hard limit, will send SIGXCPU): 630 seconds
Enforcing VSIZE limit (soft limit, will send SIGTERM then SIGKILL): 2097152 KiB
Enforcing VSIZE limit (hard limit, stack expansion will fail with SIGSEGV, brk() and mmap() will return ENOMEM): 2148352 KiB
Current StackSize limit: 8192 KiB


[startup+0 s]
/proc/loadavg: 3.81 3.71 4.36 13/1047 9821
/proc/meminfo: memFree=186392/8064712 swapFree=64/564836
[pid=9821] ppid=9820 vsize=4508 CPUtime=0 cores=0-7
/proc/9821/stat : 9821 (sh) S 9820 9821 18417 34816 25145 4194304 106 174 0 0 0 0 0 0 20 0 1 0 2182215 4616192 214 18446744073709551615 94729915514880 94729915658780 140731543185424 140731543184232 140276289561978 0 0 0 65538 1 0 0 17 0 0 0 0 0 0 94729917759336 94729917764128 94729922637824 140731543188041 140731543188196 140731543188196 140731543191536 0
/proc/9821/statm: 1127 214 194 36 0 83 0

[startup+0.105208 s]
/proc/loadavg: 3.81 3.71 4.36 13/1047 9821
/proc/meminfo: memFree=186392/8064712 swapFree=64/564836
[pid=9821] ppid=9820 vsize=4508 CPUtime=0.05 cores=0-7
/proc/9821/stat : 9821 (sh) S 9820 9821 18417 34816 25145 4194304 107 671 0 0 0 0 5 0 20 0 1 0 2182215 4616192 214 18446744073709551615 94729915514880 94729915658780 140731543185424 140731543184232 140276289561978 0 0 0 65538 1 0 0 17 0 0 0 0 0 0 94729917759336 94729917764128 94729922637824 140731543188041 140731543188196 140731543188196 140731543191536 0
/proc/9821/statm: 1127 214 194 36 0 83 0
Current children cumulated CPU time (s) 0.05
Current children cumulated vsize (KiB) 4508

[startup+0.200475 s]
/proc/loadavg: 3.81 3.71 4.36 13/1047 9821
/proc/meminfo: memFree=186392/8064712 swapFree=64/564836
[pid=9821] ppid=9820 vsize=4508 CPUtime=0.05 cores=0-7
/proc/9821/stat : 9821 (sh) S 9820 9821 18417 34816 25145 4194304 107 671 0 0 0 0 5 0 20 0 1 0 2182215 4616192 214 18446744073709551615 94729915514880 94729915658780 140731543185424 140731543184232 140276289561978 0 0 0 65538 1 0 0 17 0 0 0 0 0 0 94729917759336 94729917764128 94729922637824 140731543188041 140731543188196 140731543188196 140731543191536 0
/proc/9821/statm: 1127 214 194 36 0 83 0
Current children cumulated CPU time (s) 0.05
Current children cumulated vsize (KiB) 4508

[startup+0.301663 s]
/proc/loadavg: 3.81 3.71 4.36 13/1047 9821
/proc/meminfo: memFree=186392/8064712 swapFree=64/564836
[pid=9821] ppid=9820 vsize=4508 CPUtime=0.05 cores=0-7
/proc/9821/stat : 9821 (sh) S 9820 9821 18417 34816 25145 4194304 107 671 0 0 0 0 5 0 20 0 1 0 2182215 4616192 214 18446744073709551615 94729915514880 94729915658780 140731543185424 140731543184232 140276289561978 0 0 0 65538 1 0 0 17 0 0 0 0 0 0 94729917759336 94729917764128 94729922637824 140731543188041 140731543188196 140731543188196 140731543191536 0
/proc/9821/statm: 1127 214 194 36 0 83 0
Current children cumulated CPU time (s) 0.05
Current children cumulated vsize (KiB) 4508

[startup+0.704075 s]
/proc/loadavg: 3.81 3.71 4.36 13/1047 9821
/proc/meminfo: memFree=186392/8064712 swapFree=64/564836
[pid=9821] ppid=9820 vsize=4508 CPUtime=0.05 cores=0-7
/proc/9821/stat : 9821 (sh) S 9820 9821 18417 34816 25145 4194304 107 671 0 0 0 0 5 0 20 0 1 0 2182215 4616192 214 18446744073709551615 94729915514880 94729915658780 140731543185424 140731543184232 140276289561978 0 0 0 65538 1 0 0 17 0 0 0 0 0 0 94729917759336 94729917764128 94729922637824 140731543188041 140731543188196 140731543188196 140731543191536 0
/proc/9821/statm: 1127 214 194 36 0 83 0
Current children cumulated CPU time (s) 0.05
Current children cumulated vsize (KiB) 4508

[startup+1.50028 s]
/proc/loadavg: 4.22 3.80 4.38 10/1049 9826
/proc/meminfo: memFree=177900/8064712 swapFree=64/565980
[pid=9821] ppid=9820 vsize=4508 CPUtime=0.05 cores=0-7
/proc/9821/stat : 9821 (sh) S 9820 9821 18417 34816 25145 4194304 107 671 0 0 0 0 5 0 20 0 1 0 2182215 4616192 214 18446744073709551615 94729915514880 94729915658780 140731543185424 140731543184232 140276289561978 0 0 0 65538 1 0 0 17 0 0 0 0 0 0 94729917759336 94729917764128 94729922637824 140731543188041 140731543188196 140731543188196 140731543191536 0
/proc/9821/statm: 1127 214 194 36 0 83 0
[pid=9825] ppid=9821 vsize=36144 CPUtime=1.44 cores=0-7
/proc/9825/stat : 9825 (wasp) R 9821 9821 18417 34816 25145 4194304 1852 0 0 0 144 0 0 0 20 0 1 0 2182216 37011456 3100 18446744073709551615 4194304 5154736 140721209713840 140721209712592 4367504 0 0 16781312 8404994 0 0 0 17 5 0 0 0 0 0 7252936 7256980 16896000 140721209717326 140721209717460 140721209717460 140721209720800 0
/proc/9825/statm: 9036 3100 1721 235 0 1367 0
Current children cumulated CPU time (s) 1.49
Current children cumulated vsize (KiB) 40652

Solver just ended. Dumping a history of the last processes samples

[startup+1.60039 s]
/proc/loadavg: 4.22 3.80 4.38 10/1049 9826
/proc/meminfo: memFree=177900/8064712 swapFree=64/565980
[pid=9821] ppid=9820 vsize=4508 CPUtime=0.05 cores=0-7
/proc/9821/stat : 9821 (sh) S 9820 9821 18417 34816 25145 4194304 107 671 0 0 0 0 5 0 20 0 1 0 2182215 4616192 214 18446744073709551615 94729915514880 94729915658780 140731543185424 140731543184232 140276289561978 0 0 0 65538 1 0 0 17 0 0 0 0 0 0 94729917759336 94729917764128 94729922637824 140731543188041 140731543188196 140731543188196 140731543191536 0
/proc/9821/statm: 1127 214 194 36 0 83 0
[pid=9825] ppid=9821 vsize=0 CPUtime=1.54 cores=0-7
/proc/9825/stat : 9825 (wasp) R 9821 9821 18417 34816 25145 4194308 1875 0 0 0 154 0 0 0 20 0 1 0 2182216 0 0 18446744073709551615 0 0 0 0 0 0 0 16781312 8404992 0 0 0 17 5 0 0 0 0 0 0 0 0 0 0 0 0 0
/proc/9825/statm: 0 0 0 0 0 0 0
Current children cumulated CPU time (s) 1.59
Current children cumulated vsize (KiB) 4508

Child status: 0
Real time (s): 1.60081
CPU time (s): 1.604
CPU user time (s): 1.592
CPU system time (s): 0.012
CPU usage (%): 100.199
Max. virtual memory (cumulated for all children) (KiB): 40652

getrusage(RUSAGE_CHILDREN,...) data:
user time used= 1.592
system time used= 0.012
maximum resident set size= 12400
integral shared memory size= 0
integral unshared data size= 0
integral unshared stack size= 0
page reclaims= 2654
page faults= 0
swaps= 0
block input operations= 96
block output operations= 104
messages sent= 0
messages received= 0
signals received= 0
voluntary context switches= 17
involuntary context switches= 18

runsolver used 0.028 second user time and 0.012 second system time

The end
