runsolver Copyright (C) 2010-2013 Olivier ROUSSEL

This is runsolver version 3.3.4 (svn: 1649)

This program is distributed in the hope that it will be useful,
but WITHOUT ANY WARRANTY; without even the implied warranty of
MERCHANTABILITY or FITNESS FOR A PARTICULAR PURPOSE.  See the
GNU General Public License for more details.

command line: ./runsolver -C 600 -M 2048 -w 2017-04-11_11.47.57/lazy/three_sat/roughBenchmarks/three_sat-208.dat -o 2017-04-11_11.47.57/lazy/three_sat/outputs/three_sat-208.dat ../wasp-lazy-work/lazyConstraintsExperiments/3-sat/lazy.sh ../wasp-lazy-work/lazyConstraintsExperiments/3-sat/instancesFixedClauses/280_800_3.asp 

running on 8 cores: 0-7

Enforcing CPUTime limit (soft limit, will send SIGTERM then SIGKILL): 600 seconds
Enforcing CPUTime limit (hard limit, will send SIGXCPU): 630 seconds
Enforcing VSIZE limit (soft limit, will send SIGTERM then SIGKILL): 2097152 KiB
Enforcing VSIZE limit (hard limit, stack expansion will fail with SIGSEGV, brk() and mmap() will return ENOMEM): 2148352 KiB
Current StackSize limit: 8192 KiB


[startup+0 s]
/proc/loadavg: 3.21 3.07 3.02 4/443 30899
/proc/meminfo: memFree=4445908/8064712 swapFree=0/777448
[pid=30899] ppid=30898 vsize=4508 CPUtime=0 cores=0-7
/proc/30899/stat : 30899 (sh) S 30898 30899 18417 34816 25145 4194304 111 176 0 0 0 0 0 0 20 0 1 0 1267490 4616192 177 18446744073709551615 94222829166592 94222829310492 140736786149136 140736786147944 140202591737210 0 0 0 65538 1 0 0 17 1 0 0 0 0 0 94222831411048 94222831415840 94222845358080 140736786154058 140736786154212 140736786154212 140736786157552 0
/proc/30899/statm: 1127 177 157 36 0 83 0

[startup+0.0416941 s]
/proc/loadavg: 3.21 3.07 3.02 4/443 30899
/proc/meminfo: memFree=4445908/8064712 swapFree=0/777448
[pid=30899] ppid=30898 vsize=4508 CPUtime=0.03 cores=0-7
/proc/30899/stat : 30899 (sh) S 30898 30899 18417 34816 25145 4194304 111 639 0 0 0 0 3 0 20 0 1 0 1267490 4616192 177 18446744073709551615 94222829166592 94222829310492 140736786149136 140736786147944 140202591737210 0 0 0 65538 1 0 0 17 6 0 0 0 0 0 94222831411048 94222831415840 94222845358080 140736786154058 140736786154212 140736786154212 140736786157552 0
/proc/30899/statm: 1127 177 157 36 0 83 0
Current children cumulated CPU time (s) 0.03
Current children cumulated vsize (KiB) 4508

[startup+0.100284 s]
/proc/loadavg: 3.21 3.07 3.02 4/443 30899
/proc/meminfo: memFree=4445908/8064712 swapFree=0/777448
[pid=30899] ppid=30898 vsize=4508 CPUtime=0.03 cores=0-7
/proc/30899/stat : 30899 (sh) S 30898 30899 18417 34816 25145 4194304 111 639 0 0 0 0 3 0 20 0 1 0 1267490 4616192 177 18446744073709551615 94222829166592 94222829310492 140736786149136 140736786147944 140202591737210 0 0 0 65538 1 0 0 17 6 0 0 0 0 0 94222831411048 94222831415840 94222845358080 140736786154058 140736786154212 140736786154212 140736786157552 0
/proc/30899/statm: 1127 177 157 36 0 83 0
Current children cumulated CPU time (s) 0.03
Current children cumulated vsize (KiB) 4508

Solver just ended. Dumping a history of the last processes samples

Child status: 0
Real time (s): 0.127855
CPU time (s): 0.136
CPU user time (s): 0.128
CPU system time (s): 0.008
CPU usage (%): 106.371
Max. virtual memory (cumulated for all children) (KiB): 4508

getrusage(RUSAGE_CHILDREN,...) data:
user time used= 0.128
system time used= 0.008
maximum resident set size= 11052
integral shared memory size= 0
integral unshared data size= 0
integral unshared stack size= 0
page reclaims= 2143
page faults= 0
swaps= 0
block input operations= 0
block output operations= 72
messages sent= 0
messages received= 0
signals received= 0
voluntary context switches= 12
involuntary context switches= 7

runsolver used 0.004 second user time and 0.004 second system time

The end
