runsolver Copyright (C) 2010-2013 Olivier ROUSSEL

This is runsolver version 3.3.4 (svn: 1649)

This program is distributed in the hope that it will be useful,
but WITHOUT ANY WARRANTY; without even the implied warranty of
MERCHANTABILITY or FITNESS FOR A PARTICULAR PURPOSE.  See the
GNU General Public License for more details.

command line: ./runsolver -C 600 -M 2048 -w 2017-04-11_11.47.57/lazy/three_sat/roughBenchmarks/three_sat-264.dat -o 2017-04-11_11.47.57/lazy/three_sat/outputs/three_sat-264.dat ../wasp-lazy-work/lazyConstraintsExperiments/3-sat/lazy.sh ../wasp-lazy-work/lazyConstraintsExperiments/3-sat/instancesFixedClauses/300_1350_4.asp 

running on 8 cores: 0-7

Enforcing CPUTime limit (soft limit, will send SIGTERM then SIGKILL): 600 seconds
Enforcing CPUTime limit (hard limit, will send SIGXCPU): 630 seconds
Enforcing VSIZE limit (soft limit, will send SIGTERM then SIGKILL): 2097152 KiB
Enforcing VSIZE limit (hard limit, stack expansion will fail with SIGSEGV, brk() and mmap() will return ENOMEM): 2148352 KiB
Current StackSize limit: 8192 KiB


[startup+0 s]
/proc/loadavg: 3.92 4.03 4.14 4/932 7065
/proc/meminfo: memFree=284728/8064712 swapFree=64/791052
[pid=7065] ppid=7064 vsize=4508 CPUtime=0 cores=0-7
/proc/7065/stat : 7065 (sh) S 7064 7065 18417 34816 25145 4194304 108 175 0 0 0 0 0 0 20 0 1 0 1958714 4616192 196 18446744073709551615 94344342319104 94344342463004 140726509845696 140726509844504 140381565494650 0 0 0 65538 1 0 0 17 2 0 0 0 0 0 94344344563560 94344344568352 94344360730624 140726509851209 140726509851364 140726509851364 140726509854704 0
/proc/7065/statm: 1127 196 176 36 0 83 0

[startup+0.087546 s]
/proc/loadavg: 3.92 4.03 4.14 4/932 7065
/proc/meminfo: memFree=284728/8064712 swapFree=64/791052
[pid=7065] ppid=7064 vsize=4508 CPUtime=0.03 cores=0-7
/proc/7065/stat : 7065 (sh) S 7064 7065 18417 34816 25145 4194304 108 681 0 0 0 0 3 0 20 0 1 0 1958714 4616192 196 18446744073709551615 94344342319104 94344342463004 140726509845696 140726509844504 140381565494650 0 0 0 65538 1 0 0 17 3 0 0 0 0 0 94344344563560 94344344568352 94344360730624 140726509851209 140726509851364 140726509851364 140726509854704 0
/proc/7065/statm: 1127 196 176 36 0 83 0
Current children cumulated CPU time (s) 0.03
Current children cumulated vsize (KiB) 4508

[startup+0.100338 s]
/proc/loadavg: 3.92 4.03 4.14 4/932 7065
/proc/meminfo: memFree=284728/8064712 swapFree=64/791052
[pid=7065] ppid=7064 vsize=4508 CPUtime=0.03 cores=0-7
/proc/7065/stat : 7065 (sh) S 7064 7065 18417 34816 25145 4194304 108 681 0 0 0 0 3 0 20 0 1 0 1958714 4616192 196 18446744073709551615 94344342319104 94344342463004 140726509845696 140726509844504 140381565494650 0 0 0 65538 1 0 0 17 3 0 0 0 0 0 94344344563560 94344344568352 94344360730624 140726509851209 140726509851364 140726509851364 140726509854704 0
/proc/7065/statm: 1127 196 176 36 0 83 0
Current children cumulated CPU time (s) 0.03
Current children cumulated vsize (KiB) 4508

[startup+0.300189 s]
/proc/loadavg: 3.92 4.03 4.14 4/932 7065
/proc/meminfo: memFree=284728/8064712 swapFree=64/791052
[pid=7065] ppid=7064 vsize=4508 CPUtime=0.03 cores=0-7
/proc/7065/stat : 7065 (sh) S 7064 7065 18417 34816 25145 4194304 108 681 0 0 0 0 3 0 20 0 1 0 1958714 4616192 196 18446744073709551615 94344342319104 94344342463004 140726509845696 140726509844504 140381565494650 0 0 0 65538 1 0 0 17 3 0 0 0 0 0 94344344563560 94344344568352 94344360730624 140726509851209 140726509851364 140726509851364 140726509854704 0
/proc/7065/statm: 1127 196 176 36 0 83 0
Current children cumulated CPU time (s) 0.03
Current children cumulated vsize (KiB) 4508

[startup+0.700192 s]
/proc/loadavg: 3.92 4.03 4.14 4/932 7065
/proc/meminfo: memFree=284728/8064712 swapFree=64/791052
[pid=7065] ppid=7064 vsize=4508 CPUtime=0.03 cores=0-7
/proc/7065/stat : 7065 (sh) S 7064 7065 18417 34816 25145 4194304 108 681 0 0 0 0 3 0 20 0 1 0 1958714 4616192 196 18446744073709551615 94344342319104 94344342463004 140726509845696 140726509844504 140381565494650 0 0 0 65538 1 0 0 17 3 0 0 0 0 0 94344344563560 94344344568352 94344360730624 140726509851209 140726509851364 140726509851364 140726509854704 0
/proc/7065/statm: 1127 196 176 36 0 83 0
Current children cumulated CPU time (s) 0.03
Current children cumulated vsize (KiB) 4508

[startup+1.50028 s]
/proc/loadavg: 3.92 4.03 4.14 4/935 7076
/proc/meminfo: memFree=278616/8064712 swapFree=64/790996
[pid=7065] ppid=7064 vsize=4508 CPUtime=0.03 cores=0-7
/proc/7065/stat : 7065 (sh) S 7064 7065 18417 34816 25145 4194304 108 681 0 0 0 0 3 0 20 0 1 0 1958714 4616192 196 18446744073709551615 94344342319104 94344342463004 140726509845696 140726509844504 140381565494650 0 0 0 65538 1 0 0 17 3 0 0 0 0 0 94344344563560 94344344568352 94344360730624 140726509851209 140726509851364 140726509851364 140726509854704 0
/proc/7065/statm: 1127 196 176 36 0 83 0
[pid=7069] ppid=7065 vsize=37792 CPUtime=1.45 cores=0-7
/proc/7069/stat : 7069 (wasp) R 7065 7065 18417 34816 25145 4194304 2214 0 0 0 145 0 0 0 20 0 1 0 1958714 38699008 3415 18446744073709551615 4194304 5154736 140737398630512 140737398629552 4778790 0 0 16781312 8404994 0 0 0 17 0 0 0 0 0 0 7252936 7256980 27594752 140737398637134 140737398637268 140737398637268 140737398640608 0
/proc/7069/statm: 9448 3415 1723 235 0 1779 0
Current children cumulated CPU time (s) 1.48
Current children cumulated vsize (KiB) 42300

[startup+3.10024 s]
/proc/loadavg: 3.92 4.03 4.14 4/934 7076
/proc/meminfo: memFree=276824/8064712 swapFree=64/790996
[pid=7065] ppid=7064 vsize=4508 CPUtime=0.03 cores=0-7
/proc/7065/stat : 7065 (sh) S 7064 7065 18417 34816 25145 4194304 108 681 0 0 0 0 3 0 20 0 1 0 1958714 4616192 196 18446744073709551615 94344342319104 94344342463004 140726509845696 140726509844504 140381565494650 0 0 0 65538 1 0 0 17 3 0 0 0 0 0 94344344563560 94344344568352 94344360730624 140726509851209 140726509851364 140726509851364 140726509854704 0
/proc/7065/statm: 1127 196 176 36 0 83 0
[pid=7069] ppid=7065 vsize=38480 CPUtime=3.05 cores=0-7
/proc/7069/stat : 7069 (wasp) R 7065 7065 18417 34816 25145 4194304 2363 0 0 0 304 1 0 0 20 0 1 0 1958714 39403520 3547 18446744073709551615 4194304 5154736 140737398630512 140737398629552 4778792 0 0 16781312 8404994 0 0 0 17 0 0 0 0 0 0 7252936 7256980 27594752 140737398637134 140737398637268 140737398637268 140737398640608 0
/proc/7069/statm: 9620 3547 1723 235 0 1951 0
Current children cumulated CPU time (s) 3.08
Current children cumulated vsize (KiB) 42988

[startup+6.30024 s]
/proc/loadavg: 3.85 4.01 4.13 4/939 7085
/proc/meminfo: memFree=264736/8064712 swapFree=64/791720
[pid=7065] ppid=7064 vsize=4508 CPUtime=0.03 cores=0-7
/proc/7065/stat : 7065 (sh) S 7064 7065 18417 34816 25145 4194304 108 681 0 0 0 0 3 0 20 0 1 0 1958714 4616192 196 18446744073709551615 94344342319104 94344342463004 140726509845696 140726509844504 140381565494650 0 0 0 65538 1 0 0 17 3 0 0 0 0 0 94344344563560 94344344568352 94344360730624 140726509851209 140726509851364 140726509851364 140726509854704 0
/proc/7065/statm: 1127 196 176 36 0 83 0
[pid=7069] ppid=7065 vsize=41224 CPUtime=6.26 cores=0-7
/proc/7069/stat : 7069 (wasp) R 7065 7065 18417 34816 25145 4194304 3003 0 0 0 624 2 0 0 20 0 1 0 1958714 42213376 4207 18446744073709551615 4194304 5154736 140737398630512 140737398629552 4779026 0 0 16781312 8404994 0 0 0 17 2 0 0 0 0 0 7252936 7256980 27594752 140737398637134 140737398637268 140737398637268 140737398640608 0
/proc/7069/statm: 10306 4207 1723 235 0 2637 0
Current children cumulated CPU time (s) 6.29
Current children cumulated vsize (KiB) 45732

[startup+12.7003 s]
/proc/loadavg: 3.78 4.00 4.13 7/937 7090
/proc/meminfo: memFree=263008/8064712 swapFree=64/793156
[pid=7065] ppid=7064 vsize=4508 CPUtime=0.03 cores=0-7
/proc/7065/stat : 7065 (sh) S 7064 7065 18417 34816 25145 4194304 108 681 0 0 0 0 3 0 20 0 1 0 1958714 4616192 196 18446744073709551615 94344342319104 94344342463004 140726509845696 140726509844504 140381565494650 0 0 0 65538 1 0 0 17 3 0 0 0 0 0 94344344563560 94344344568352 94344360730624 140726509851209 140726509851364 140726509851364 140726509854704 0
/proc/7065/statm: 1127 196 176 36 0 83 0
[pid=7069] ppid=7065 vsize=42288 CPUtime=12.65 cores=0-7
/proc/7069/stat : 7069 (wasp) R 7065 7065 18417 34816 25145 4194304 3305 0 0 0 1263 2 0 0 20 0 1 0 1958714 43302912 4537 18446744073709551615 4194304 5154736 140737398630512 140737398629552 4778790 0 0 16781312 8404994 0 0 0 17 3 0 0 0 0 0 7252936 7256980 27594752 140737398637134 140737398637268 140737398637268 140737398640608 0
/proc/7069/statm: 10572 4537 1723 235 0 2903 0
Current children cumulated CPU time (s) 12.68
Current children cumulated vsize (KiB) 46796

[startup+25.5003 s]
/proc/loadavg: 3.61 3.95 4.11 4/934 7098
/proc/meminfo: memFree=257072/8064712 swapFree=64/792944
[pid=7065] ppid=7064 vsize=4508 CPUtime=0.03 cores=0-7
/proc/7065/stat : 7065 (sh) S 7064 7065 18417 34816 25145 4194304 108 681 0 0 0 0 3 0 20 0 1 0 1958714 4616192 196 18446744073709551615 94344342319104 94344342463004 140726509845696 140726509844504 140381565494650 0 0 0 65538 1 0 0 17 3 0 0 0 0 0 94344344563560 94344344568352 94344360730624 140726509851209 140726509851364 140726509851364 140726509854704 0
/proc/7065/statm: 1127 196 176 36 0 83 0
[pid=7069] ppid=7065 vsize=45668 CPUtime=25.43 cores=0-7
/proc/7069/stat : 7069 (wasp) R 7065 7065 18417 34816 25145 4194304 4134 0 0 0 2540 3 0 0 20 0 1 0 1958714 46764032 5329 18446744073709551615 4194304 5154736 140737398630512 140737398629552 4778792 0 0 16781312 8404994 0 0 0 17 2 0 0 0 0 0 7252936 7256980 27594752 140737398637134 140737398637268 140737398637268 140737398640608 0
/proc/7069/statm: 11417 5329 1723 235 0 3748 0
Current children cumulated CPU time (s) 25.46
Current children cumulated vsize (KiB) 50176

[startup+51.1003 s]
/proc/loadavg: 3.76 3.95 4.10 4/932 7106
/proc/meminfo: memFree=256936/8064712 swapFree=64/794812
[pid=7065] ppid=7064 vsize=4508 CPUtime=0.03 cores=0-7
/proc/7065/stat : 7065 (sh) S 7064 7065 18417 34816 25145 4194304 108 681 0 0 0 0 3 0 20 0 1 0 1958714 4616192 196 18446744073709551615 94344342319104 94344342463004 140726509845696 140726509844504 140381565494650 0 0 0 65538 1 0 0 17 3 0 0 0 0 0 94344344563560 94344344568352 94344360730624 140726509851209 140726509851364 140726509851364 140726509854704 0
/proc/7065/statm: 1127 196 176 36 0 83 0
[pid=7069] ppid=7065 vsize=47096 CPUtime=51.03 cores=0-7
/proc/7069/stat : 7069 (wasp) R 7065 7065 18417 34816 25145 4194304 4453 0 0 0 5100 3 0 0 20 0 1 0 1958714 48226304 5659 18446744073709551615 4194304 5154736 140737398630512 140737398629552 4779138 0 0 16781312 8404994 0 0 0 17 2 0 0 0 0 0 7252936 7256980 27594752 140737398637134 140737398637268 140737398637268 140737398640608 0
/proc/7069/statm: 11774 5659 1723 235 0 4105 0
Current children cumulated CPU time (s) 51.06
Current children cumulated vsize (KiB) 51604

[startup+102.313 s]
/proc/loadavg: 3.52 3.86 4.06 4/933 7160
/proc/meminfo: memFree=197428/8064712 swapFree=64/812832
[pid=7065] ppid=7064 vsize=4508 CPUtime=0.03 cores=0-7
/proc/7065/stat : 7065 (sh) S 7064 7065 18417 34816 25145 4194304 108 681 0 0 0 0 3 0 20 0 1 0 1958714 4616192 196 18446744073709551615 94344342319104 94344342463004 140726509845696 140726509844504 140381565494650 0 0 0 65538 1 0 0 17 3 0 0 0 0 0 94344344563560 94344344568352 94344360730624 140726509851209 140726509851364 140726509851364 140726509854704 0
/proc/7065/statm: 1127 196 176 36 0 83 0
[pid=7069] ppid=7065 vsize=53716 CPUtime=102.24 cores=0-7
/proc/7069/stat : 7069 (wasp) R 7065 7065 18417 34816 25145 4194304 6033 0 0 0 10218 6 0 0 20 0 1 0 1958714 55005184 7243 18446744073709551615 4194304 5154736 140737398630512 140737398629552 4778926 0 0 16781312 8404994 0 0 0 17 6 0 0 0 0 0 7252936 7256980 27594752 140737398637134 140737398637268 140737398637268 140737398640608 0
/proc/7069/statm: 13429 7243 1723 235 0 5760 0
Current children cumulated CPU time (s) 102.27
Current children cumulated vsize (KiB) 58224

[startup+162.3 s]
/proc/loadavg: 5.89 4.32 4.20 9/980 7243
/proc/meminfo: memFree=133112/8064712 swapFree=64/1015936
[pid=7065] ppid=7064 vsize=4508 CPUtime=0.03 cores=0-7
/proc/7065/stat : 7065 (sh) S 7064 7065 18417 34816 25145 4194304 108 681 0 0 0 0 3 0 20 0 1 0 1958714 4616192 196 18446744073709551615 94344342319104 94344342463004 140726509845696 140726509844504 140381565494650 0 0 0 65538 1 0 0 17 3 0 0 0 0 0 94344344563560 94344344568352 94344360730624 140726509851209 140726509851364 140726509851364 140726509854704 0
/proc/7065/statm: 1127 196 176 36 0 83 0
[pid=7069] ppid=7065 vsize=57800 CPUtime=160.37 cores=0-7
/proc/7069/stat : 7069 (wasp) R 7065 7065 18417 34816 25145 4194304 7162 0 0 0 16030 7 0 0 20 0 1 0 1958714 59187200 8306 18446744073709551615 4194304 5154736 140737398630512 140737398629552 4779138 0 0 16781312 8404994 0 0 0 17 1 0 0 0 0 0 7252936 7256980 27594752 140737398637134 140737398637268 140737398637268 140737398640608 0
/proc/7069/statm: 14450 8306 1723 235 0 6781 0
Current children cumulated CPU time (s) 160.4
Current children cumulated vsize (KiB) 62308

[startup+222.3 s]
/proc/loadavg: 8.46 5.43 4.59 9/934 7257
/proc/meminfo: memFree=148680/8064712 swapFree=64/967592
[pid=7065] ppid=7064 vsize=4508 CPUtime=0.03 cores=0-7
/proc/7065/stat : 7065 (sh) S 7064 7065 18417 34816 25145 4194304 108 681 0 0 0 0 3 0 20 0 1 0 1958714 4616192 196 18446744073709551615 94344342319104 94344342463004 140726509845696 140726509844504 140381565494650 0 0 0 65538 1 0 0 17 3 0 0 0 0 0 94344344563560 94344344568352 94344360730624 140726509851209 140726509851364 140726509851364 140726509854704 0
/proc/7065/statm: 1127 196 176 36 0 83 0
[pid=7069] ppid=7065 vsize=58220 CPUtime=207.55 cores=0-7
/proc/7069/stat : 7069 (wasp) R 7065 7065 18417 34816 25145 4194304 7271 0 0 0 20742 13 0 0 20 0 1 0 1958714 59617280 8371 18446744073709551615 4194304 5154736 140737398630512 140737398629552 4778790 0 0 16781312 8404994 0 0 0 17 5 0 0 0 0 0 7252936 7256980 27594752 140737398637134 140737398637268 140737398637268 140737398640608 0
/proc/7069/statm: 14555 8371 1723 235 0 6886 0
Current children cumulated CPU time (s) 207.58
Current children cumulated vsize (KiB) 62728

[startup+282.3 s]
/proc/loadavg: 6.82 5.50 4.67 5/935 7301
/proc/meminfo: memFree=128148/8064712 swapFree=64/898768
[pid=7065] ppid=7064 vsize=4508 CPUtime=0.03 cores=0-7
/proc/7065/stat : 7065 (sh) S 7064 7065 18417 34816 25145 4194304 108 681 0 0 0 0 3 0 20 0 1 0 1958714 4616192 196 18446744073709551615 94344342319104 94344342463004 140726509845696 140726509844504 140381565494650 0 0 0 65538 1 0 0 17 3 0 0 0 0 0 94344344563560 94344344568352 94344360730624 140726509851209 140726509851364 140726509851364 140726509854704 0
/proc/7065/statm: 1127 196 176 36 0 83 0
[pid=7069] ppid=7065 vsize=58948 CPUtime=263.77 cores=0-7
/proc/7069/stat : 7069 (wasp) R 7065 7065 18417 34816 25145 4194304 7432 0 0 0 26359 18 0 0 20 0 1 0 1958714 60362752 8525 18446744073709551615 4194304 5154736 140737398630512 140737398629552 4778846 0 0 16781312 8404994 0 0 0 17 5 0 0 0 0 0 7252936 7256980 27594752 140737398637134 140737398637268 140737398637268 140737398640608 0
/proc/7069/statm: 14737 8525 1679 235 0 7068 0
Current children cumulated CPU time (s) 263.8
Current children cumulated vsize (KiB) 63456

[startup+342.3 s]
/proc/loadavg: 6.62 5.70 4.79 9/935 7339
/proc/meminfo: memFree=138492/8064712 swapFree=64/844948
[pid=7065] ppid=7064 vsize=4508 CPUtime=0.03 cores=0-7
/proc/7065/stat : 7065 (sh) S 7064 7065 18417 34816 25145 4194304 108 681 0 0 0 0 3 0 20 0 1 0 1958714 4616192 196 18446744073709551615 94344342319104 94344342463004 140726509845696 140726509844504 140381565494650 0 0 0 65538 1 0 0 17 3 0 0 0 0 0 94344344563560 94344344568352 94344360730624 140726509851209 140726509851364 140726509851364 140726509854704 0
/proc/7065/statm: 1127 196 176 36 0 83 0
[pid=7069] ppid=7065 vsize=61216 CPUtime=319.46 cores=0-7
/proc/7069/stat : 7069 (wasp) R 7065 7065 18417 34816 25145 4194304 8007 0 0 0 31928 18 0 0 20 0 1 0 1958714 62685184 9053 18446744073709551615 4194304 5154736 140737398630512 140737398629552 4778761 0 0 16781312 8404994 0 0 0 17 1 0 0 0 0 0 7252936 7256980 27594752 140737398637134 140737398637268 140737398637268 140737398640608 0
/proc/7069/statm: 15304 9053 1679 235 0 7635 0
Current children cumulated CPU time (s) 319.49
Current children cumulated vsize (KiB) 65724

[startup+402.3 s]
/proc/loadavg: 6.14 5.77 4.88 6/922 7405
/proc/meminfo: memFree=137268/8064712 swapFree=64/797868
[pid=7065] ppid=7064 vsize=4508 CPUtime=0.03 cores=0-7
/proc/7065/stat : 7065 (sh) S 7064 7065 18417 34816 25145 4194304 108 681 0 0 0 0 3 0 20 0 1 0 1958714 4616192 196 18446744073709551615 94344342319104 94344342463004 140726509845696 140726509844504 140381565494650 0 0 0 65538 1 0 0 17 3 0 0 0 0 0 94344344563560 94344344568352 94344360730624 140726509851209 140726509851364 140726509851364 140726509854704 0
/proc/7065/statm: 1127 196 176 36 0 83 0
[pid=7069] ppid=7065 vsize=64412 CPUtime=375.75 cores=0-7
/proc/7069/stat : 7069 (wasp) R 7065 7065 18417 34816 25145 4194304 8795 0 0 0 37548 27 0 0 20 0 1 0 1958714 65957888 9845 18446744073709551615 4194304 5154736 140737398630512 140737398629552 4778761 0 0 16781312 8404994 0 0 0 17 3 0 0 0 0 0 7252936 7256980 27594752 140737398637134 140737398637268 140737398637268 140737398640608 0
/proc/7069/statm: 16103 9845 1679 235 0 8434 0
Current children cumulated CPU time (s) 375.78
Current children cumulated vsize (KiB) 68920

[startup+462.3 s]
/proc/loadavg: 8.61 6.47 5.18 8/1030 7582
/proc/meminfo: memFree=130772/8064712 swapFree=64/673988
[pid=7065] ppid=7064 vsize=4508 CPUtime=0.03 cores=0-7
/proc/7065/stat : 7065 (sh) S 7064 7065 18417 34816 25145 4194304 108 681 0 0 0 0 3 0 20 0 1 0 1958714 4616192 196 18446744073709551615 94344342319104 94344342463004 140726509845696 140726509844504 140381565494650 0 0 0 65538 1 0 0 17 3 0 0 0 0 0 94344344563560 94344344568352 94344360730624 140726509851209 140726509851364 140726509851364 140726509854704 0
/proc/7065/statm: 1127 196 176 36 0 83 0
[pid=7069] ppid=7065 vsize=68456 CPUtime=423.91 cores=0-7
/proc/7069/stat : 7069 (wasp) R 7065 7065 18417 34816 25145 4194304 9791 0 0 0 42359 32 0 0 20 0 1 0 1958714 70098944 10638 18446744073709551615 4194304 5154736 140737398630512 140737398629552 4778761 0 0 16781312 8404994 0 0 0 17 5 0 0 0 0 0 7252936 7256980 27594752 140737398637134 140737398637268 140737398637268 140737398640608 0
/proc/7069/statm: 17114 10638 1679 235 0 9445 0
Current children cumulated CPU time (s) 423.94
Current children cumulated vsize (KiB) 72964

[startup+522.3 s]
/proc/loadavg: 9.22 7.04 5.45 6/964 7631
/proc/meminfo: memFree=124388/8064712 swapFree=64/664756
[pid=7065] ppid=7064 vsize=4508 CPUtime=0.03 cores=0-7
/proc/7065/stat : 7065 (sh) S 7064 7065 18417 34816 25145 4194304 108 681 0 0 0 0 3 0 20 0 1 0 1958714 4616192 196 18446744073709551615 94344342319104 94344342463004 140726509845696 140726509844504 140381565494650 0 0 0 65538 1 0 0 17 3 0 0 0 0 0 94344344563560 94344344568352 94344360730624 140726509851209 140726509851364 140726509851364 140726509854704 0
/proc/7065/statm: 1127 196 176 36 0 83 0
[pid=7069] ppid=7065 vsize=70640 CPUtime=473.95 cores=0-7
/proc/7069/stat : 7069 (wasp) R 7065 7065 18417 34816 25145 4194304 10348 0 0 0 47358 37 0 0 20 0 1 0 1958714 72335360 11166 18446744073709551615 4194304 5154736 140737398630512 140737398629552 4779069 0 0 16781312 8404994 0 0 0 17 6 0 0 0 0 0 7252936 7256980 27594752 140737398637134 140737398637268 140737398637268 140737398640608 0
/proc/7069/statm: 17660 11166 1679 235 0 9991 0
Current children cumulated CPU time (s) 473.98
Current children cumulated vsize (KiB) 75148

[startup+582.3 s]
/proc/loadavg: 9.93 7.53 5.72 7/962 7676
/proc/meminfo: memFree=131228/8064712 swapFree=64/626396
[pid=7065] ppid=7064 vsize=4508 CPUtime=0.03 cores=0-7
/proc/7065/stat : 7065 (sh) S 7064 7065 18417 34816 25145 4194304 108 681 0 0 0 0 3 0 20 0 1 0 1958714 4616192 196 18446744073709551615 94344342319104 94344342463004 140726509845696 140726509844504 140381565494650 0 0 0 65538 1 0 0 17 3 0 0 0 0 0 94344344563560 94344344568352 94344360730624 140726509851209 140726509851364 140726509851364 140726509854704 0
/proc/7065/statm: 1127 196 176 36 0 83 0
[pid=7069] ppid=7065 vsize=72824 CPUtime=524.81 cores=0-7
/proc/7069/stat : 7069 (wasp) R 7065 7065 18417 34816 25145 4194304 10928 0 0 0 52432 49 0 0 20 0 1 0 1958714 74571776 11759 18446744073709551615 4194304 5154736 140737398630512 140737398629552 4778761 0 0 16781312 8404994 0 0 0 17 2 0 0 0 0 0 7252936 7256980 27594752 140737398637134 140737398637268 140737398637268 140737398640608 0
/proc/7069/statm: 18206 11759 1679 235 0 10537 0
Current children cumulated CPU time (s) 524.84
Current children cumulated vsize (KiB) 77332

[startup+642.3 s]
/proc/loadavg: 8.71 7.63 5.87 10/955 7708
/proc/meminfo: memFree=175768/8064712 swapFree=64/586252
[pid=7065] ppid=7064 vsize=4508 CPUtime=0.03 cores=0-7
/proc/7065/stat : 7065 (sh) S 7064 7065 18417 34816 25145 4194304 108 681 0 0 0 0 3 0 20 0 1 0 1958714 4616192 196 18446744073709551615 94344342319104 94344342463004 140726509845696 140726509844504 140381565494650 0 0 0 65538 1 0 0 17 3 0 0 0 0 0 94344344563560 94344344568352 94344360730624 140726509851209 140726509851364 140726509851364 140726509854704 0
/proc/7065/statm: 1127 196 176 36 0 83 0
[pid=7069] ppid=7065 vsize=74964 CPUtime=574.76 cores=0-7
/proc/7069/stat : 7069 (wasp) R 7065 7065 18417 34816 25145 4194304 11453 0 0 0 57414 62 0 0 20 0 1 0 1958714 76763136 12281 18446744073709551615 4194304 5154736 140737398630512 140737398629552 4778761 0 0 16781312 8404994 0 0 0 17 0 0 0 0 0 0 7252936 7256980 27594752 140737398637134 140737398637268 140737398637268 140737398640608 0
/proc/7069/statm: 18741 12281 1673 235 0 11072 0
Current children cumulated CPU time (s) 574.79
Current children cumulated vsize (KiB) 79472



Maximum CPU time exceeded: sending SIGTERM then SIGKILL

[startup+670.302 s]
/proc/loadavg: 10.02 8.02 6.05 8/952 7744
/proc/meminfo: memFree=145284/8064712 swapFree=64/580496
[pid=7065] ppid=7064 vsize=4508 CPUtime=0.03 cores=0-7
/proc/7065/stat : 7065 (sh) S 7064 7065 18417 34816 25145 4194304 108 681 0 0 0 0 3 0 20 0 1 0 1958714 4616192 196 18446744073709551615 94344342319104 94344342463004 140726509845696 140726509844504 140381565494650 0 0 0 65538 1 0 0 17 3 0 0 0 0 0 94344344563560 94344344568352 94344360730624 140726509851209 140726509851364 140726509851364 140726509854704 0
/proc/7065/statm: 1127 196 176 36 0 83 0
[pid=7069] ppid=7065 vsize=75772 CPUtime=600.05 cores=0-7
/proc/7069/stat : 7069 (wasp) R 7065 7065 18417 34816 25145 4194304 11693 0 0 0 59939 66 0 0 20 0 1 0 1958714 77590528 12479 18446744073709551615 4194304 5154736 140737398630512 140737398629552 4778761 0 0 16781312 8404994 0 0 0 17 5 0 0 0 0 0 7252936 7256980 27594752 140737398637134 140737398637268 140737398637268 140737398640608 0
/proc/7069/statm: 18943 12479 1673 235 0 11274 0
Current children cumulated CPU time (s) 600.08
Current children cumulated vsize (KiB) 80280

Sending SIGTERM to process tree (bottom up)
Sleeping 2 seconds

Solver just ended. Dumping a history of the last processes samples

[startup+670.302 s]
/proc/loadavg: 10.02 8.02 6.05 8/952 7744
/proc/meminfo: memFree=145284/8064712 swapFree=64/580496
[pid=7065] ppid=7064 vsize=4508 CPUtime=0.03 cores=0-7
/proc/7065/stat : 7065 (sh) S 7064 7065 18417 34816 25145 4194304 108 681 0 0 0 0 3 0 20 0 1 0 1958714 4616192 196 18446744073709551615 94344342319104 94344342463004 140726509845696 140726509844504 140381565494650 0 0 0 65538 1 0 0 17 3 0 0 0 0 0 94344344563560 94344344568352 94344360730624 140726509851209 140726509851364 140726509851364 140726509854704 0
/proc/7065/statm: 1127 196 176 36 0 83 0
[pid=7069] ppid=7065 vsize=75772 CPUtime=600.05 cores=0-7
/proc/7069/stat : 7069 (wasp) R 7065 7065 18417 34816 25145 4194304 11693 0 0 0 59939 66 0 0 20 0 1 0 1958714 77590528 12479 18446744073709551615 4194304 5154736 140737398630512 140737398629552 4778761 0 0 16781312 8404994 0 0 0 17 5 0 0 0 0 0 7252936 7256980 27594752 140737398637134 140737398637268 140737398637268 140737398640608 0
/proc/7069/statm: 18943 12479 1673 235 0 11274 0
Current children cumulated CPU time (s) 600.08
Current children cumulated vsize (KiB) 80280

Child ended because it received signal 15 (SIGTERM)

# WARNING:
# CPU time reported by wait4() is probably wrong !
# wait4(...,&childrusage) returns 7065 and gives
#  childrusage.ru_utime.tv_sec=0
#  childrusage.ru_utime.tv_usec=36000
#  childrusage.ru_stime.tv_sec=0
#  childrusage.ru_stime.tv_usec=8000
# CPU time returned by wait4() is 0.044
# while last known CPU time is 600.08
#
# Solver probably didn't/couldn't wait for its children
# Using CPU time of the last sample as value...

Real time (s): 670.329
CPU time (s): 600.08
CPU user time (s): 599.42
CPU system time (s): 0.66
CPU usage (%): 89.5202
Max. virtual memory (cumulated for all children) (KiB): 80280

getrusage(RUSAGE_CHILDREN,...) data:
user time used= 0.036
system time used= 0.008
maximum resident set size= 6856
integral shared memory size= 0
integral unshared data size= 0
integral unshared stack size= 0
page reclaims= 789
page faults= 0
swaps= 0
block input operations= 0
block output operations= 0
messages sent= 0
messages received= 0
signals received= 0
voluntary context switches= 16
involuntary context switches= 5

runsolver used 5.496 second user time and 6.044 second system time

The end
