runsolver Copyright (C) 2010-2013 Olivier ROUSSEL

This is runsolver version 3.3.4 (svn: 1649)

This program is distributed in the hope that it will be useful,
but WITHOUT ANY WARRANTY; without even the implied warranty of
MERCHANTABILITY or FITNESS FOR A PARTICULAR PURPOSE.  See the
GNU General Public License for more details.

command line: ./runsolver -C 600 -M 2048 -w 2017-04-11_11.47.57/lazy/three_sat/roughBenchmarks/three_sat-10.dat -o 2017-04-11_11.47.57/lazy/three_sat/outputs/three_sat-10.dat ../wasp-lazy-work/lazyConstraintsExperiments/3-sat/lazy.sh ../wasp-lazy-work/lazyConstraintsExperiments/3-sat/instancesFixedClauses/240_1050_5.asp 

running on 8 cores: 0-7

Enforcing CPUTime limit (soft limit, will send SIGTERM then SIGKILL): 600 seconds
Enforcing CPUTime limit (hard limit, will send SIGXCPU): 630 seconds
Enforcing VSIZE limit (soft limit, will send SIGTERM then SIGKILL): 2097152 KiB
Enforcing VSIZE limit (hard limit, stack expansion will fail with SIGSEGV, brk() and mmap() will return ENOMEM): 2148352 KiB
Current StackSize limit: 8192 KiB


[startup+0 s]
/proc/loadavg: 3.47 3.77 4.25 4/958 11072
/proc/meminfo: memFree=1642440/8064712 swapFree=64/564540
[pid=11072] ppid=11071 vsize=4508 CPUtime=0 cores=0-7
/proc/11072/stat : 11072 (sh) S 11071 11072 18417 34816 25145 4194304 110 176 0 0 0 0 0 0 20 0 1 0 2262186 4616192 177 18446744073709551615 94478049472512 94478049616412 140725465835840 140725465834648 140396305077626 0 0 0 65538 1 0 0 17 4 0 0 0 0 0 94478051716968 94478051721760 94478053081088 140725465842249 140725465842404 140725465842404 140725465845744 0
/proc/11072/statm: 1127 177 157 36 0 83 0

[startup+0.103749 s]
/proc/loadavg: 3.47 3.77 4.25 4/958 11072
/proc/meminfo: memFree=1642440/8064712 swapFree=64/564540
[pid=11072] ppid=11071 vsize=4508 CPUtime=0.02 cores=0-7
/proc/11072/stat : 11072 (sh) S 11071 11072 18417 34816 25145 4194304 111 631 0 0 0 0 2 0 20 0 1 0 2262186 4616192 177 18446744073709551615 94478049472512 94478049616412 140725465835840 140725465834648 140396305077626 0 0 0 65538 1 0 0 17 5 0 0 0 0 0 94478051716968 94478051721760 94478053081088 140725465842249 140725465842404 140725465842404 140725465845744 0
/proc/11072/statm: 1127 177 157 36 0 83 0
Current children cumulated CPU time (s) 0.02
Current children cumulated vsize (KiB) 4508

[startup+0.200238 s]
/proc/loadavg: 3.47 3.77 4.25 4/958 11072
/proc/meminfo: memFree=1642440/8064712 swapFree=64/564540
[pid=11072] ppid=11071 vsize=4508 CPUtime=0.02 cores=0-7
/proc/11072/stat : 11072 (sh) S 11071 11072 18417 34816 25145 4194304 111 631 0 0 0 0 2 0 20 0 1 0 2262186 4616192 177 18446744073709551615 94478049472512 94478049616412 140725465835840 140725465834648 140396305077626 0 0 0 65538 1 0 0 17 5 0 0 0 0 0 94478051716968 94478051721760 94478053081088 140725465842249 140725465842404 140725465842404 140725465845744 0
/proc/11072/statm: 1127 177 157 36 0 83 0
Current children cumulated CPU time (s) 0.02
Current children cumulated vsize (KiB) 4508

[startup+0.300232 s]
/proc/loadavg: 3.47 3.77 4.25 4/958 11072
/proc/meminfo: memFree=1642440/8064712 swapFree=64/564540
[pid=11072] ppid=11071 vsize=4508 CPUtime=0.02 cores=0-7
/proc/11072/stat : 11072 (sh) S 11071 11072 18417 34816 25145 4194304 111 631 0 0 0 0 2 0 20 0 1 0 2262186 4616192 177 18446744073709551615 94478049472512 94478049616412 140725465835840 140725465834648 140396305077626 0 0 0 65538 1 0 0 17 5 0 0 0 0 0 94478051716968 94478051721760 94478053081088 140725465842249 140725465842404 140725465842404 140725465845744 0
/proc/11072/statm: 1127 177 157 36 0 83 0
Current children cumulated CPU time (s) 0.02
Current children cumulated vsize (KiB) 4508

[startup+0.714495 s]
/proc/loadavg: 3.47 3.77 4.25 4/958 11072
/proc/meminfo: memFree=1642440/8064712 swapFree=64/564540
[pid=11072] ppid=11071 vsize=4508 CPUtime=0.02 cores=0-7
/proc/11072/stat : 11072 (sh) S 11071 11072 18417 34816 25145 4194304 111 631 0 0 0 0 2 0 20 0 1 0 2262186 4616192 177 18446744073709551615 94478049472512 94478049616412 140725465835840 140725465834648 140396305077626 0 0 0 65538 1 0 0 17 5 0 0 0 0 0 94478051716968 94478051721760 94478053081088 140725465842249 140725465842404 140725465842404 140725465845744 0
/proc/11072/statm: 1127 177 157 36 0 83 0
Current children cumulated CPU time (s) 0.02
Current children cumulated vsize (KiB) 4508

[startup+1.50025 s]
/proc/loadavg: 3.47 3.77 4.25 7/960 11077
/proc/meminfo: memFree=1637708/8064712 swapFree=64/564592
[pid=11072] ppid=11071 vsize=4508 CPUtime=0.02 cores=0-7
/proc/11072/stat : 11072 (sh) S 11071 11072 18417 34816 25145 4194304 111 631 0 0 0 0 2 0 20 0 1 0 2262186 4616192 177 18446744073709551615 94478049472512 94478049616412 140725465835840 140725465834648 140396305077626 0 0 0 65538 1 0 0 17 5 0 0 0 0 0 94478051716968 94478051721760 94478053081088 140725465842249 140725465842404 140725465842404 140725465845744 0
/proc/11072/statm: 1127 177 157 36 0 83 0
[pid=11076] ppid=11072 vsize=37076 CPUtime=1.47 cores=0-7
/proc/11076/stat : 11076 (wasp) R 11072 11072 18417 34816 25145 4194304 1961 0 0 0 147 0 0 0 20 0 1 0 2262186 37965824 3281 18446744073709551615 4194304 5154736 140724493006224 140724493004880 139650516037262 0 0 16781312 8404994 0 0 0 17 4 0 0 0 0 0 7252936 7256980 33865728 140724493009486 140724493009620 140724493009620 140724493012960 0
/proc/11076/statm: 9269 3281 1694 235 0 1600 0
Current children cumulated CPU time (s) 1.49
Current children cumulated vsize (KiB) 41584

[startup+3.10025 s]
/proc/loadavg: 3.51 3.78 4.25 5/959 11077
/proc/meminfo: memFree=1636344/8064712 swapFree=64/564592
[pid=11072] ppid=11071 vsize=4508 CPUtime=0.02 cores=0-7
/proc/11072/stat : 11072 (sh) S 11071 11072 18417 34816 25145 4194304 111 631 0 0 0 0 2 0 20 0 1 0 2262186 4616192 177 18446744073709551615 94478049472512 94478049616412 140725465835840 140725465834648 140396305077626 0 0 0 65538 1 0 0 17 5 0 0 0 0 0 94478051716968 94478051721760 94478053081088 140725465842249 140725465842404 140725465842404 140725465845744 0
/proc/11072/statm: 1127 177 157 36 0 83 0
[pid=11076] ppid=11072 vsize=38420 CPUtime=3.07 cores=0-7
/proc/11076/stat : 11076 (wasp) R 11072 11072 18417 34816 25145 4194304 2248 0 0 0 307 0 0 0 20 0 1 0 2262186 39342080 3545 18446744073709551615 4194304 5154736 140724493006224 140724493005264 4778792 0 0 16781312 8404994 0 0 0 17 4 0 0 0 0 0 7252936 7256980 33865728 140724493009486 140724493009620 140724493009620 140724493012960 0
/proc/11076/statm: 9605 3545 1694 235 0 1936 0
Current children cumulated CPU time (s) 3.09
Current children cumulated vsize (KiB) 42928

[startup+6.3002 s]
/proc/loadavg: 3.51 3.78 4.25 3/957 11078
/proc/meminfo: memFree=1680176/8064712 swapFree=64/564588
[pid=11072] ppid=11071 vsize=4508 CPUtime=0.02 cores=0-7
/proc/11072/stat : 11072 (sh) S 11071 11072 18417 34816 25145 4194304 111 631 0 0 0 0 2 0 20 0 1 0 2262186 4616192 177 18446744073709551615 94478049472512 94478049616412 140725465835840 140725465834648 140396305077626 0 0 0 65538 1 0 0 17 5 0 0 0 0 0 94478051716968 94478051721760 94478053081088 140725465842249 140725465842404 140725465842404 140725465845744 0
/proc/11072/statm: 1127 177 157 36 0 83 0
[pid=11076] ppid=11072 vsize=39616 CPUtime=6.26 cores=0-7
/proc/11076/stat : 11076 (wasp) R 11072 11072 18417 34816 25145 4194304 2593 0 0 0 626 0 0 0 20 0 1 0 2262186 40566784 3875 18446744073709551615 4194304 5154736 140724493006224 140724493005264 4778792 0 0 16781312 8404994 0 0 0 17 4 0 0 0 0 0 7252936 7256980 33865728 140724493009486 140724493009620 140724493009620 140724493012960 0
/proc/11076/statm: 9904 3875 1694 235 0 2235 0
Current children cumulated CPU time (s) 6.28
Current children cumulated vsize (KiB) 44124

[startup+12.7003 s]
/proc/loadavg: 3.51 3.77 4.24 4/957 11118
/proc/meminfo: memFree=1670492/8064712 swapFree=64/564600
[pid=11072] ppid=11071 vsize=4508 CPUtime=0.02 cores=0-7
/proc/11072/stat : 11072 (sh) S 11071 11072 18417 34816 25145 4194304 111 631 0 0 0 0 2 0 20 0 1 0 2262186 4616192 177 18446744073709551615 94478049472512 94478049616412 140725465835840 140725465834648 140396305077626 0 0 0 65538 1 0 0 17 5 0 0 0 0 0 94478051716968 94478051721760 94478053081088 140725465842249 140725465842404 140725465842404 140725465845744 0
/proc/11072/statm: 1127 177 157 36 0 83 0
[pid=11076] ppid=11072 vsize=42276 CPUtime=12.65 cores=0-7
/proc/11076/stat : 11076 (wasp) R 11072 11072 18417 34816 25145 4194304 3150 0 0 0 1265 0 0 0 20 0 1 0 2262186 43290624 4469 18446744073709551615 4194304 5154736 140724493006224 140724493005264 4778816 0 0 16781312 8404994 0 0 0 17 4 0 0 0 0 0 7252936 7256980 33865728 140724493009486 140724493009620 140724493009620 140724493012960 0
/proc/11076/statm: 10569 4469 1694 235 0 2900 0
Current children cumulated CPU time (s) 12.67
Current children cumulated vsize (KiB) 46784

Solver just ended. Dumping a history of the last processes samples

[startup+12.8003 s]
/proc/loadavg: 3.51 3.77 4.24 4/957 11118
/proc/meminfo: memFree=1670492/8064712 swapFree=64/564600
[pid=11072] ppid=11071 vsize=4508 CPUtime=0.02 cores=0-7
/proc/11072/stat : 11072 (sh) S 11071 11072 18417 34816 25145 4194304 111 631 0 0 0 0 2 0 20 0 1 0 2262186 4616192 177 18446744073709551615 94478049472512 94478049616412 140725465835840 140725465834648 140396305077626 0 0 0 65538 1 0 0 17 5 0 0 0 0 0 94478051716968 94478051721760 94478053081088 140725465842249 140725465842404 140725465842404 140725465845744 0
/proc/11072/statm: 1127 177 157 36 0 83 0
[pid=11076] ppid=11072 vsize=42276 CPUtime=12.75 cores=0-7
/proc/11076/stat : 11076 (wasp) R 11072 11072 18417 34816 25145 4194304 3150 0 0 0 1275 0 0 0 20 0 1 0 2262186 43290624 4469 18446744073709551615 4194304 5154736 140724493006224 140724493005264 4778792 0 0 16781312 8404994 0 0 0 17 4 0 0 0 0 0 7252936 7256980 33865728 140724493009486 140724493009620 140724493009620 140724493012960 0
/proc/11076/statm: 10569 4469 1694 235 0 2900 0
Current children cumulated CPU time (s) 12.77
Current children cumulated vsize (KiB) 46784

[startup+19.2003 s]
/proc/loadavg: 3.55 3.77 4.24 6/957 11138
/proc/meminfo: memFree=1653824/8064712 swapFree=64/564704
[pid=11072] ppid=11071 vsize=4508 CPUtime=0.02 cores=0-7
/proc/11072/stat : 11072 (sh) S 11071 11072 18417 34816 25145 4194304 111 631 0 0 0 0 2 0 20 0 1 0 2262186 4616192 177 18446744073709551615 94478049472512 94478049616412 140725465835840 140725465834648 140396305077626 0 0 0 65538 1 0 0 17 5 0 0 0 0 0 94478051716968 94478051721760 94478053081088 140725465842249 140725465842404 140725465842404 140725465845744 0
/proc/11072/statm: 1127 177 157 36 0 83 0
[pid=11076] ppid=11072 vsize=42600 CPUtime=19.16 cores=0-7
/proc/11076/stat : 11076 (wasp) R 11072 11072 18417 34816 25145 4194304 3274 0 0 0 1915 1 0 0 20 0 1 0 2262186 43622400 4601 18446744073709551615 4194304 5154736 140724493006224 140724493005264 4779121 0 0 16781312 8404994 0 0 0 17 4 0 0 0 0 0 7252936 7256980 33865728 140724493009486 140724493009620 140724493009620 140724493012960 0
/proc/11076/statm: 10650 4601 1694 235 0 2981 0
Current children cumulated CPU time (s) 19.18
Current children cumulated vsize (KiB) 47108

[startup+22.4002 s]
/proc/loadavg: 3.51 3.76 4.24 4/957 11138
/proc/meminfo: memFree=1648976/8064712 swapFree=64/564704
[pid=11072] ppid=11071 vsize=4508 CPUtime=0.02 cores=0-7
/proc/11072/stat : 11072 (sh) S 11071 11072 18417 34816 25145 4194304 111 631 0 0 0 0 2 0 20 0 1 0 2262186 4616192 177 18446744073709551615 94478049472512 94478049616412 140725465835840 140725465834648 140396305077626 0 0 0 65538 1 0 0 17 5 0 0 0 0 0 94478051716968 94478051721760 94478053081088 140725465842249 140725465842404 140725465842404 140725465845744 0
/proc/11072/statm: 1127 177 157 36 0 83 0
[pid=11076] ppid=11072 vsize=42864 CPUtime=22.35 cores=0-7
/proc/11076/stat : 11076 (wasp) R 11072 11072 18417 34816 25145 4194304 3335 0 0 0 2234 1 0 0 20 0 1 0 2262186 43892736 4667 18446744073709551615 4194304 5154736 140724493006224 140724493005264 4779121 0 0 16781312 8404994 0 0 0 17 4 0 0 0 0 0 7252936 7256980 33865728 140724493009486 140724493009620 140724493009620 140724493012960 0
/proc/11076/statm: 10716 4667 1694 235 0 3047 0
Current children cumulated CPU time (s) 22.37
Current children cumulated vsize (KiB) 47372

[startup+23.2075 s]
/proc/loadavg: 3.51 3.76 4.24 4/957 11138
/proc/meminfo: memFree=1647736/8064712 swapFree=64/564704
[pid=11072] ppid=11071 vsize=4508 CPUtime=0.02 cores=0-7
/proc/11072/stat : 11072 (sh) S 11071 11072 18417 34816 25145 4194304 111 631 0 0 0 0 2 0 20 0 1 0 2262186 4616192 177 18446744073709551615 94478049472512 94478049616412 140725465835840 140725465834648 140396305077626 0 0 0 65538 1 0 0 17 5 0 0 0 0 0 94478051716968 94478051721760 94478053081088 140725465842249 140725465842404 140725465842404 140725465845744 0
/proc/11072/statm: 1127 177 157 36 0 83 0
[pid=11076] ppid=11072 vsize=42864 CPUtime=23.16 cores=0-7
/proc/11076/stat : 11076 (wasp) R 11072 11072 18417 34816 25145 4194304 3362 0 0 0 2315 1 0 0 20 0 1 0 2262186 43892736 4667 18446744073709551615 4194304 5154736 140724493006224 140724493005264 4778761 0 0 16781312 8404994 0 0 0 17 4 0 0 0 0 0 7252936 7256980 33865728 140724493009486 140724493009620 140724493009620 140724493012960 0
/proc/11076/statm: 10716 4667 1694 235 0 3047 0
Current children cumulated CPU time (s) 23.18
Current children cumulated vsize (KiB) 47372

[startup+23.6002 s]
/proc/loadavg: 3.51 3.76 4.24 4/957 11138
/proc/meminfo: memFree=1647736/8064712 swapFree=64/564704
[pid=11072] ppid=11071 vsize=4508 CPUtime=0.02 cores=0-7
/proc/11072/stat : 11072 (sh) S 11071 11072 18417 34816 25145 4194304 111 631 0 0 0 0 2 0 20 0 1 0 2262186 4616192 177 18446744073709551615 94478049472512 94478049616412 140725465835840 140725465834648 140396305077626 0 0 0 65538 1 0 0 17 5 0 0 0 0 0 94478051716968 94478051721760 94478053081088 140725465842249 140725465842404 140725465842404 140725465845744 0
/proc/11072/statm: 1127 177 157 36 0 83 0
[pid=11076] ppid=11072 vsize=42864 CPUtime=23.55 cores=0-7
/proc/11076/stat : 11076 (wasp) R 11072 11072 18417 34816 25145 4194304 3363 0 0 0 2354 1 0 0 20 0 1 0 2262186 43892736 4667 18446744073709551615 4194304 5154736 140724493006224 140724493005264 4778761 0 0 16781312 8404994 0 0 0 17 4 0 0 0 0 0 7252936 7256980 33865728 140724493009486 140724493009620 140724493009620 140724493012960 0
/proc/11076/statm: 10716 4667 1694 235 0 3047 0
Current children cumulated CPU time (s) 23.57
Current children cumulated vsize (KiB) 47372

[startup+24.0002 s]
/proc/loadavg: 3.51 3.76 4.24 4/957 11138
/proc/meminfo: memFree=1647736/8064712 swapFree=64/564704
[pid=11072] ppid=11071 vsize=4508 CPUtime=0.02 cores=0-7
/proc/11072/stat : 11072 (sh) S 11071 11072 18417 34816 25145 4194304 111 631 0 0 0 0 2 0 20 0 1 0 2262186 4616192 177 18446744073709551615 94478049472512 94478049616412 140725465835840 140725465834648 140396305077626 0 0 0 65538 1 0 0 17 5 0 0 0 0 0 94478051716968 94478051721760 94478053081088 140725465842249 140725465842404 140725465842404 140725465845744 0
/proc/11072/statm: 1127 177 157 36 0 83 0
[pid=11076] ppid=11072 vsize=42864 CPUtime=23.95 cores=0-7
/proc/11076/stat : 11076 (wasp) R 11072 11072 18417 34816 25145 4194304 3363 0 0 0 2394 1 0 0 20 0 1 0 2262186 43892736 4667 18446744073709551615 4194304 5154736 140724493006224 140724493005264 4778761 0 0 16781312 8404994 0 0 0 17 4 0 0 0 0 0 7252936 7256980 33865728 140724493009486 140724493009620 140724493009620 140724493012960 0
/proc/11076/statm: 10716 4667 1694 235 0 3047 0
Current children cumulated CPU time (s) 23.97
Current children cumulated vsize (KiB) 47372

[startup+24.1002 s]
/proc/loadavg: 3.51 3.76 4.24 4/957 11138
/proc/meminfo: memFree=1647736/8064712 swapFree=64/564704
[pid=11072] ppid=11071 vsize=4508 CPUtime=0.02 cores=0-7
/proc/11072/stat : 11072 (sh) S 11071 11072 18417 34816 25145 4194304 111 631 0 0 0 0 2 0 20 0 1 0 2262186 4616192 177 18446744073709551615 94478049472512 94478049616412 140725465835840 140725465834648 140396305077626 0 0 0 65538 1 0 0 17 5 0 0 0 0 0 94478051716968 94478051721760 94478053081088 140725465842249 140725465842404 140725465842404 140725465845744 0
/proc/11072/statm: 1127 177 157 36 0 83 0
[pid=11076] ppid=11072 vsize=42864 CPUtime=24.05 cores=0-7
/proc/11076/stat : 11076 (wasp) R 11072 11072 18417 34816 25145 4194304 3363 0 0 0 2404 1 0 0 20 0 1 0 2262186 43892736 4667 18446744073709551615 4194304 5154736 140724493006224 140724493004976 139650516034744 0 0 16781312 8404994 0 0 0 17 4 0 0 0 0 0 7252936 7256980 33865728 140724493009486 140724493009620 140724493009620 140724493012960 0
/proc/11076/statm: 10716 4667 1694 235 0 3047 0
Current children cumulated CPU time (s) 24.07
Current children cumulated vsize (KiB) 47372

Child status: 0
Real time (s): 24.1979
CPU time (s): 24.18
CPU user time (s): 24.168
CPU system time (s): 0.012
CPU usage (%): 99.9261
Max. virtual memory (cumulated for all children) (KiB): 47372

getrusage(RUSAGE_CHILDREN,...) data:
user time used= 24.168
system time used= 0.012
maximum resident set size= 18668
integral shared memory size= 0
integral unshared data size= 0
integral unshared stack size= 0
page reclaims= 4109
page faults= 0
swaps= 0
block input operations= 88
block output operations= 8
messages sent= 0
messages received= 0
signals received= 0
voluntary context switches= 14
involuntary context switches= 85

runsolver used 0.108 second user time and 0.128 second system time

The end
