runsolver Copyright (C) 2010-2013 Olivier ROUSSEL

This is runsolver version 3.3.4 (svn: 1649)

This program is distributed in the hope that it will be useful,
but WITHOUT ANY WARRANTY; without even the implied warranty of
MERCHANTABILITY or FITNESS FOR A PARTICULAR PURPOSE.  See the
GNU General Public License for more details.

command line: ./runsolver -C 600 -M 2048 -w 2017-04-11_11.47.57/lazy/three_sat/roughBenchmarks/three_sat-293.dat -o 2017-04-11_11.47.57/lazy/three_sat/outputs/three_sat-293.dat ../wasp-lazy-work/lazyConstraintsExperiments/3-sat/lazy.sh ../wasp-lazy-work/lazyConstraintsExperiments/3-sat/instancesFixedClauses/300_900_3.asp 

running on 8 cores: 0-7

Enforcing CPUTime limit (soft limit, will send SIGTERM then SIGKILL): 600 seconds
Enforcing CPUTime limit (hard limit, will send SIGXCPU): 630 seconds
Enforcing VSIZE limit (soft limit, will send SIGTERM then SIGKILL): 2097152 KiB
Enforcing VSIZE limit (hard limit, stack expansion will fail with SIGSEGV, brk() and mmap() will return ENOMEM): 2148352 KiB
Current StackSize limit: 8192 KiB


[startup+0 s]
/proc/loadavg: 3.23 3.14 3.26 5/971 13448
/proc/meminfo: memFree=1463616/8064712 swapFree=64/555692
[pid=13448] ppid=13447 vsize=4508 CPUtime=0 cores=0-7
/proc/13448/stat : 13448 (sh) S 13447 13448 18417 34816 25145 4194304 110 181 0 0 0 0 0 0 20 0 1 0 2508924 4616192 189 18446744073709551615 94385819766784 94385819910684 140724680951776 140724680950584 140715373794682 0 0 0 65538 1 0 0 17 4 0 0 0 0 0 94385822011240 94385822016032 94385840091136 140724680954442 140724680954596 140724680954596 140724680957936 0
/proc/13448/statm: 1127 189 169 36 0 83 0

[startup+0.0784461 s]
/proc/loadavg: 3.23 3.14 3.26 5/971 13448
/proc/meminfo: memFree=1463616/8064712 swapFree=64/555692
[pid=13448] ppid=13447 vsize=4508 CPUtime=0.01 cores=0-7
/proc/13448/stat : 13448 (sh) S 13447 13448 18417 34816 25145 4194304 111 666 0 0 0 0 1 0 20 0 1 0 2508924 4616192 189 18446744073709551615 94385819766784 94385819910684 140724680951776 140724680950584 140715373794682 0 0 0 65538 1 0 0 17 5 0 0 0 0 0 94385822011240 94385822016032 94385840091136 140724680954442 140724680954596 140724680954596 140724680957936 0
/proc/13448/statm: 1127 189 169 36 0 83 0
Current children cumulated CPU time (s) 0.01
Current children cumulated vsize (KiB) 4508

Solver just ended. Dumping a history of the last processes samples

[startup+0.0784461 s]
/proc/loadavg: 3.23 3.14 3.26 5/971 13448
/proc/meminfo: memFree=1463616/8064712 swapFree=64/555692
[pid=13448] ppid=13447 vsize=4508 CPUtime=0.01 cores=0-7
/proc/13448/stat : 13448 (sh) S 13447 13448 18417 34816 25145 4194304 111 666 0 0 0 0 1 0 20 0 1 0 2508924 4616192 189 18446744073709551615 94385819766784 94385819910684 140724680951776 140724680950584 140715373794682 0 0 0 65538 1 0 0 17 5 0 0 0 0 0 94385822011240 94385822016032 94385840091136 140724680954442 140724680954596 140724680954596 140724680957936 0
/proc/13448/statm: 1127 189 169 36 0 83 0
Current children cumulated CPU time (s) 0.01
Current children cumulated vsize (KiB) 4508

Child status: 0
Real time (s): 0.0932189
CPU time (s): 0.084
CPU user time (s): 0.08
CPU system time (s): 0.004
CPU usage (%): 90.1105
Max. virtual memory (cumulated for all children) (KiB): 4508

getrusage(RUSAGE_CHILDREN,...) data:
user time used= 0.08
system time used= 0.004
maximum resident set size= 11080
integral shared memory size= 0
integral unshared data size= 0
integral unshared stack size= 0
page reclaims= 2206
page faults= 0
swaps= 0
block input operations= 80
block output operations= 80
messages sent= 0
messages received= 0
signals received= 0
voluntary context switches= 14
involuntary context switches= 7

runsolver used 0.004 second user time and 0.004 second system time

The end
