runsolver Copyright (C) 2010-2013 Olivier ROUSSEL

This is runsolver version 3.3.4 (svn: 1649)

This program is distributed in the hope that it will be useful,
but WITHOUT ANY WARRANTY; without even the implied warranty of
MERCHANTABILITY or FITNESS FOR A PARTICULAR PURPOSE.  See the
GNU General Public License for more details.

command line: ./runsolver -C 600 -M 2048 -w 2017-04-11_11.47.57/lazy/three_sat/roughBenchmarks/three_sat-189.dat -o 2017-04-11_11.47.57/lazy/three_sat/outputs/three_sat-189.dat ../wasp-lazy-work/lazyConstraintsExperiments/3-sat/lazy.sh ../wasp-lazy-work/lazyConstraintsExperiments/3-sat/instancesFixedClauses/280_1350_4.asp 

running on 8 cores: 0-7

Enforcing CPUTime limit (soft limit, will send SIGTERM then SIGKILL): 600 seconds
Enforcing CPUTime limit (hard limit, will send SIGXCPU): 630 seconds
Enforcing VSIZE limit (soft limit, will send SIGTERM then SIGKILL): 2097152 KiB
Enforcing VSIZE limit (hard limit, stack expansion will fail with SIGSEGV, brk() and mmap() will return ENOMEM): 2148352 KiB
Current StackSize limit: 8192 KiB


[startup+0 s]
/proc/loadavg: 3.38 3.41 3.78 5/981 11665
/proc/meminfo: memFree=1629520/8064712 swapFree=64/565232
[pid=11665] ppid=11664 vsize=4508 CPUtime=0 cores=0-7
/proc/11665/stat : 11665 (sh) S 11664 11665 18417 34816 25145 4194304 106 171 0 0 0 0 0 0 20 0 1 0 2334840 4616192 177 18446744073709551615 94916161966080 94916162109980 140732164714736 140732164713544 140093362951546 0 0 0 65538 1 0 0 17 5 0 0 0 0 0 94916164210536 94916164215328 94916193206272 140732164723273 140732164723428 140732164723428 140732164726768 0
/proc/11665/statm: 1127 177 157 36 0 83 0

[startup+0.0496161 s]
/proc/loadavg: 3.38 3.41 3.78 5/981 11665
/proc/meminfo: memFree=1629520/8064712 swapFree=64/565232
[pid=11665] ppid=11664 vsize=4508 CPUtime=0 cores=0-7
/proc/11665/stat : 11665 (sh) S 11664 11665 18417 34816 25145 4194304 106 171 0 0 0 0 0 0 20 0 1 0 2334840 4616192 177 18446744073709551615 94916161966080 94916162109980 140732164714736 140732164713544 140093362951546 0 0 0 65538 1 0 0 17 5 0 0 0 0 0 94916164210536 94916164215328 94916193206272 140732164723273 140732164723428 140732164723428 140732164726768 0
/proc/11665/statm: 1127 177 157 36 0 83 0
Current children cumulated CPU time (s) 0
Current children cumulated vsize (KiB) 4508

[startup+0.100359 s]
/proc/loadavg: 3.38 3.41 3.78 5/981 11665
/proc/meminfo: memFree=1629520/8064712 swapFree=64/565232
[pid=11665] ppid=11664 vsize=4508 CPUtime=0.04 cores=0-7
/proc/11665/stat : 11665 (sh) S 11664 11665 18417 34816 25145 4194304 106 665 0 0 0 0 4 0 20 0 1 0 2334840 4616192 177 18446744073709551615 94916161966080 94916162109980 140732164714736 140732164713544 140093362951546 0 0 0 65538 1 0 0 17 0 0 0 0 0 0 94916164210536 94916164215328 94916193206272 140732164723273 140732164723428 140732164723428 140732164726768 0
/proc/11665/statm: 1127 177 157 36 0 83 0
Current children cumulated CPU time (s) 0.04
Current children cumulated vsize (KiB) 4508

[startup+0.300177 s]
/proc/loadavg: 3.38 3.41 3.78 5/981 11665
/proc/meminfo: memFree=1629520/8064712 swapFree=64/565232
[pid=11665] ppid=11664 vsize=4508 CPUtime=0.04 cores=0-7
/proc/11665/stat : 11665 (sh) S 11664 11665 18417 34816 25145 4194304 106 665 0 0 0 0 4 0 20 0 1 0 2334840 4616192 177 18446744073709551615 94916161966080 94916162109980 140732164714736 140732164713544 140093362951546 0 0 0 65538 1 0 0 17 0 0 0 0 0 0 94916164210536 94916164215328 94916193206272 140732164723273 140732164723428 140732164723428 140732164726768 0
/proc/11665/statm: 1127 177 157 36 0 83 0
Current children cumulated CPU time (s) 0.04
Current children cumulated vsize (KiB) 4508

[startup+0.716462 s]
/proc/loadavg: 3.38 3.41 3.78 5/981 11665
/proc/meminfo: memFree=1629520/8064712 swapFree=64/565232
[pid=11665] ppid=11664 vsize=4508 CPUtime=0.04 cores=0-7
/proc/11665/stat : 11665 (sh) S 11664 11665 18417 34816 25145 4194304 106 665 0 0 0 0 4 0 20 0 1 0 2334840 4616192 177 18446744073709551615 94916161966080 94916162109980 140732164714736 140732164713544 140093362951546 0 0 0 65538 1 0 0 17 0 0 0 0 0 0 94916164210536 94916164215328 94916193206272 140732164723273 140732164723428 140732164723428 140732164726768 0
/proc/11665/statm: 1127 177 157 36 0 83 0
Current children cumulated CPU time (s) 0.04
Current children cumulated vsize (KiB) 4508

[startup+1.50021 s]
/proc/loadavg: 3.43 3.42 3.78 4/983 11670
/proc/meminfo: memFree=1624024/8064712 swapFree=64/565368
[pid=11665] ppid=11664 vsize=4508 CPUtime=0.04 cores=0-7
/proc/11665/stat : 11665 (sh) S 11664 11665 18417 34816 25145 4194304 106 665 0 0 0 0 4 0 20 0 1 0 2334840 4616192 177 18446744073709551615 94916161966080 94916162109980 140732164714736 140732164713544 140093362951546 0 0 0 65538 1 0 0 17 0 0 0 0 0 0 94916164210536 94916164215328 94916193206272 140732164723273 140732164723428 140732164723428 140732164726768 0
/proc/11665/statm: 1127 177 157 36 0 83 0
[pid=11669] ppid=11665 vsize=37444 CPUtime=1.45 cores=0-7
/proc/11669/stat : 11669 (wasp) R 11665 11665 18417 34816 25145 4194304 2088 0 0 0 144 1 0 0 20 0 1 0 2334840 38342656 3326 18446744073709551615 4194304 5154736 140725533199392 140725533198432 4778884 0 0 16781312 8404994 0 0 0 17 5 0 0 0 0 0 7252936 7256980 25178112 140725533200974 140725533201108 140725533201108 140725533204448 0
/proc/11669/statm: 9361 3326 1710 235 0 1692 0
Current children cumulated CPU time (s) 1.49
Current children cumulated vsize (KiB) 41952

[startup+3.1003 s]
/proc/loadavg: 3.43 3.42 3.78 4/971 11671
/proc/meminfo: memFree=1641576/8064712 swapFree=64/565368
[pid=11665] ppid=11664 vsize=4508 CPUtime=0.04 cores=0-7
/proc/11665/stat : 11665 (sh) S 11664 11665 18417 34816 25145 4194304 106 665 0 0 0 0 4 0 20 0 1 0 2334840 4616192 177 18446744073709551615 94916161966080 94916162109980 140732164714736 140732164713544 140093362951546 0 0 0 65538 1 0 0 17 0 0 0 0 0 0 94916164210536 94916164215328 94916193206272 140732164723273 140732164723428 140732164723428 140732164726768 0
/proc/11665/statm: 1127 177 157 36 0 83 0
[pid=11669] ppid=11665 vsize=38428 CPUtime=3.05 cores=0-7
/proc/11669/stat : 11669 (wasp) R 11665 11665 18417 34816 25145 4194304 2329 0 0 0 304 1 0 0 20 0 1 0 2334840 39350272 3524 18446744073709551615 4194304 5154736 140725533199392 140725533198432 4778949 0 0 16781312 8404994 0 0 0 17 5 0 0 0 0 0 7252936 7256980 25178112 140725533200974 140725533201108 140725533201108 140725533204448 0
/proc/11669/statm: 9607 3524 1710 235 0 1938 0
Current children cumulated CPU time (s) 3.09
Current children cumulated vsize (KiB) 42936

[startup+6.30023 s]
/proc/loadavg: 3.40 3.42 3.77 4/944 11673
/proc/meminfo: memFree=1680280/8064712 swapFree=64/565368
[pid=11665] ppid=11664 vsize=4508 CPUtime=0.04 cores=0-7
/proc/11665/stat : 11665 (sh) S 11664 11665 18417 34816 25145 4194304 106 665 0 0 0 0 4 0 20 0 1 0 2334840 4616192 177 18446744073709551615 94916161966080 94916162109980 140732164714736 140732164713544 140093362951546 0 0 0 65538 1 0 0 17 0 0 0 0 0 0 94916164210536 94916164215328 94916193206272 140732164723273 140732164723428 140732164723428 140732164726768 0
/proc/11665/statm: 1127 177 157 36 0 83 0
[pid=11669] ppid=11665 vsize=39828 CPUtime=6.25 cores=0-7
/proc/11669/stat : 11669 (wasp) R 11665 11665 18417 34816 25145 4194304 2701 0 0 0 624 1 0 0 20 0 1 0 2334840 40783872 3920 18446744073709551615 4194304 5154736 140725533199392 140725533198432 4778761 0 0 16781312 8404994 0 0 0 17 5 0 0 0 0 0 7252936 7256980 25178112 140725533200974 140725533201108 140725533201108 140725533204448 0
/proc/11669/statm: 9957 3920 1710 235 0 2288 0
Current children cumulated CPU time (s) 6.29
Current children cumulated vsize (KiB) 44336

[startup+12.7002 s]
/proc/loadavg: 3.36 3.41 3.77 4/944 11673
/proc/meminfo: memFree=1677504/8064712 swapFree=64/565368
[pid=11665] ppid=11664 vsize=4508 CPUtime=0.04 cores=0-7
/proc/11665/stat : 11665 (sh) S 11664 11665 18417 34816 25145 4194304 106 665 0 0 0 0 4 0 20 0 1 0 2334840 4616192 177 18446744073709551615 94916161966080 94916162109980 140732164714736 140732164713544 140093362951546 0 0 0 65538 1 0 0 17 0 0 0 0 0 0 94916164210536 94916164215328 94916193206272 140732164723273 140732164723428 140732164723428 140732164726768 0
/proc/11665/statm: 1127 177 157 36 0 83 0
[pid=11669] ppid=11665 vsize=40852 CPUtime=12.65 cores=0-7
/proc/11669/stat : 11669 (wasp) R 11665 11665 18417 34816 25145 4194304 2954 0 0 0 1264 1 0 0 20 0 1 0 2334840 41832448 4184 18446744073709551615 4194304 5154736 140725533199392 140725533198432 4779138 0 0 16781312 8404994 0 0 0 17 5 0 0 0 0 0 7252936 7256980 25178112 140725533200974 140725533201108 140725533201108 140725533204448 0
/proc/11669/statm: 10213 4184 1710 235 0 2544 0
Current children cumulated CPU time (s) 12.69
Current children cumulated vsize (KiB) 45360

[startup+25.5002 s]
/proc/loadavg: 3.38 3.41 3.77 4/943 11678
/proc/meminfo: memFree=1673416/8064712 swapFree=64/565368
[pid=11665] ppid=11664 vsize=4508 CPUtime=0.04 cores=0-7
/proc/11665/stat : 11665 (sh) S 11664 11665 18417 34816 25145 4194304 106 665 0 0 0 0 4 0 20 0 1 0 2334840 4616192 177 18446744073709551615 94916161966080 94916162109980 140732164714736 140732164713544 140093362951546 0 0 0 65538 1 0 0 17 0 0 0 0 0 0 94916164210536 94916164215328 94916193206272 140732164723273 140732164723428 140732164723428 140732164726768 0
/proc/11665/statm: 1127 177 157 36 0 83 0
[pid=11669] ppid=11665 vsize=45440 CPUtime=25.45 cores=0-7
/proc/11669/stat : 11669 (wasp) R 11665 11665 18417 34816 25145 4194304 4043 0 0 0 2543 2 0 0 20 0 1 0 2334840 46530560 5240 18446744073709551615 4194304 5154736 140725533199392 140725533198432 4778761 0 0 16781312 8404994 0 0 0 17 4 0 0 0 0 0 7252936 7256980 25178112 140725533200974 140725533201108 140725533201108 140725533204448 0
/proc/11669/statm: 11360 5240 1710 235 0 3691 0
Current children cumulated CPU time (s) 25.49
Current children cumulated vsize (KiB) 49948

[startup+51.1002 s]
/proc/loadavg: 3.23 3.37 3.74 5/942 11719
/proc/meminfo: memFree=1668340/8064712 swapFree=64/565544
[pid=11665] ppid=11664 vsize=4508 CPUtime=0.04 cores=0-7
/proc/11665/stat : 11665 (sh) S 11664 11665 18417 34816 25145 4194304 106 665 0 0 0 0 4 0 20 0 1 0 2334840 4616192 177 18446744073709551615 94916161966080 94916162109980 140732164714736 140732164713544 140093362951546 0 0 0 65538 1 0 0 17 0 0 0 0 0 0 94916164210536 94916164215328 94916193206272 140732164723273 140732164723428 140732164723428 140732164726768 0
/proc/11665/statm: 1127 177 157 36 0 83 0
[pid=11669] ppid=11665 vsize=46612 CPUtime=51.02 cores=0-7
/proc/11669/stat : 11669 (wasp) R 11665 11665 18417 34816 25145 4194304 4335 0 0 0 5100 2 0 0 20 0 1 0 2334840 47730688 5570 18446744073709551615 4194304 5154736 140725533199392 140725533198432 4778761 0 0 16781312 8404994 0 0 0 17 4 0 0 0 0 0 7252936 7256980 25178112 140725533200974 140725533201108 140725533201108 140725533204448 0
/proc/11669/statm: 11653 5570 1710 235 0 3984 0
Current children cumulated CPU time (s) 51.06
Current children cumulated vsize (KiB) 51120

[startup+102.312 s]
/proc/loadavg: 3.20 3.34 3.71 5/945 11744
/proc/meminfo: memFree=1689904/8064712 swapFree=64/565544
[pid=11665] ppid=11664 vsize=4508 CPUtime=0.04 cores=0-7
/proc/11665/stat : 11665 (sh) S 11664 11665 18417 34816 25145 4194304 106 665 0 0 0 0 4 0 20 0 1 0 2334840 4616192 177 18446744073709551615 94916161966080 94916162109980 140732164714736 140732164713544 140093362951546 0 0 0 65538 1 0 0 17 0 0 0 0 0 0 94916164210536 94916164215328 94916193206272 140732164723273 140732164723428 140732164723428 140732164726768 0
/proc/11665/statm: 1127 177 157 36 0 83 0
[pid=11669] ppid=11665 vsize=54568 CPUtime=102.22 cores=0-7
/proc/11669/stat : 11669 (wasp) R 11665 11665 18417 34816 25145 4194304 6220 0 0 0 10220 2 0 0 20 0 1 0 2334840 55877632 7418 18446744073709551615 4194304 5154736 140725533199392 140725533198432 4778884 0 0 16781312 8404994 0 0 0 17 0 0 0 0 0 0 7252936 7256980 25178112 140725533200974 140725533201108 140725533201108 140725533204448 0
/proc/11669/statm: 13642 7418 1710 235 0 5973 0
Current children cumulated CPU time (s) 102.26
Current children cumulated vsize (KiB) 59076

[startup+162.3 s]
/proc/loadavg: 3.17 3.29 3.67 13/948 11756
/proc/meminfo: memFree=1677368/8064712 swapFree=64/565544
[pid=11665] ppid=11664 vsize=4508 CPUtime=0.04 cores=0-7
/proc/11665/stat : 11665 (sh) S 11664 11665 18417 34816 25145 4194304 106 665 0 0 0 0 4 0 20 0 1 0 2334840 4616192 177 18446744073709551615 94916161966080 94916162109980 140732164714736 140732164713544 140093362951546 0 0 0 65538 1 0 0 17 0 0 0 0 0 0 94916164210536 94916164215328 94916193206272 140732164723273 140732164723428 140732164723428 140732164726768 0
/proc/11665/statm: 1127 177 157 36 0 83 0
[pid=11669] ppid=11665 vsize=57132 CPUtime=162.16 cores=0-7
/proc/11669/stat : 11669 (wasp) R 11665 11665 18417 34816 25145 4194304 6987 0 0 0 16213 3 0 0 20 0 1 0 2334840 58503168 8107 18446744073709551615 4194304 5154736 140725533199392 140725533198432 4778792 0 0 16781312 8404994 0 0 0 17 2 0 0 0 0 0 7252936 7256980 25178112 140725533200974 140725533201108 140725533201108 140725533204448 0
/proc/11669/statm: 14283 8107 1710 235 0 6614 0
Current children cumulated CPU time (s) 162.2
Current children cumulated vsize (KiB) 61640

[startup+222.3 s]
/proc/loadavg: 3.48 3.36 3.67 5/948 11769
/proc/meminfo: memFree=1671780/8064712 swapFree=64/565544
[pid=11665] ppid=11664 vsize=4508 CPUtime=0.04 cores=0-7
/proc/11665/stat : 11665 (sh) S 11664 11665 18417 34816 25145 4194304 106 665 0 0 0 0 4 0 20 0 1 0 2334840 4616192 177 18446744073709551615 94916161966080 94916162109980 140732164714736 140732164713544 140093362951546 0 0 0 65538 1 0 0 17 0 0 0 0 0 0 94916164210536 94916164215328 94916193206272 140732164723273 140732164723428 140732164723428 140732164726768 0
/proc/11665/statm: 1127 177 157 36 0 83 0
[pid=11669] ppid=11665 vsize=57696 CPUtime=222.13 cores=0-7
/proc/11669/stat : 11669 (wasp) R 11665 11665 18417 34816 25145 4194304 7101 0 0 0 22210 3 0 0 20 0 1 0 2334840 59080704 8238 18446744073709551615 4194304 5154736 140725533199392 140725533198432 4778792 0 0 16781312 8404994 0 0 0 17 6 0 0 0 0 0 7252936 7256980 25178112 140725533200974 140725533201108 140725533201108 140725533204448 0
/proc/11669/statm: 14424 8238 1710 235 0 6755 0
Current children cumulated CPU time (s) 222.17
Current children cumulated vsize (KiB) 62204

[startup+282.3 s]
/proc/loadavg: 3.41 3.34 3.64 5/938 11815
/proc/meminfo: memFree=1688084/8064712 swapFree=64/565540
[pid=11665] ppid=11664 vsize=4508 CPUtime=0.04 cores=0-7
/proc/11665/stat : 11665 (sh) S 11664 11665 18417 34816 25145 4194304 106 665 0 0 0 0 4 0 20 0 1 0 2334840 4616192 177 18446744073709551615 94916161966080 94916162109980 140732164714736 140732164713544 140093362951546 0 0 0 65538 1 0 0 17 0 0 0 0 0 0 94916164210536 94916164215328 94916193206272 140732164723273 140732164723428 140732164723428 140732164726768 0
/proc/11665/statm: 1127 177 157 36 0 83 0
[pid=11669] ppid=11665 vsize=62744 CPUtime=282.1 cores=0-7
/proc/11669/stat : 11669 (wasp) R 11665 11665 18417 34816 25145 4194304 8368 0 0 0 28207 3 0 0 20 0 1 0 2334840 64249856 9492 18446744073709551615 4194304 5154736 140725533199392 140725533198432 4778761 0 0 16781312 8404994 0 0 0 17 0 0 0 0 0 0 7252936 7256980 25178112 140725533200974 140725533201108 140725533201108 140725533204448 0
/proc/11669/statm: 15686 9492 1710 235 0 8017 0
Current children cumulated CPU time (s) 282.14
Current children cumulated vsize (KiB) 67252

[startup+342.3 s]
/proc/loadavg: 3.30 3.34 3.62 4/937 11863
/proc/meminfo: memFree=1669148/8064712 swapFree=64/565540
[pid=11665] ppid=11664 vsize=4508 CPUtime=0.04 cores=0-7
/proc/11665/stat : 11665 (sh) S 11664 11665 18417 34816 25145 4194304 106 665 0 0 0 0 4 0 20 0 1 0 2334840 4616192 177 18446744073709551615 94916161966080 94916162109980 140732164714736 140732164713544 140093362951546 0 0 0 65538 1 0 0 17 0 0 0 0 0 0 94916164210536 94916164215328 94916193206272 140732164723273 140732164723428 140732164723428 140732164726768 0
/proc/11665/statm: 1127 177 157 36 0 83 0
[pid=11669] ppid=11665 vsize=68612 CPUtime=342.08 cores=0-7
/proc/11669/stat : 11669 (wasp) R 11665 11665 18417 34816 25145 4194304 9830 0 0 0 34204 4 0 0 20 0 1 0 2334840 70258688 10694 18446744073709551615 4194304 5154736 140725533199392 140725533198432 4778893 0 0 16781312 8404994 0 0 0 17 5 0 0 0 0 0 7252936 7256980 25178112 140725533200974 140725533201108 140725533201108 140725533204448 0
/proc/11669/statm: 17153 10694 1710 235 0 9484 0
Current children cumulated CPU time (s) 342.12
Current children cumulated vsize (KiB) 73120

[startup+402.3 s]
/proc/loadavg: 3.30 3.32 3.59 4/936 11884
/proc/meminfo: memFree=1658180/8064712 swapFree=64/565596
[pid=11665] ppid=11664 vsize=4508 CPUtime=0.04 cores=0-7
/proc/11665/stat : 11665 (sh) S 11664 11665 18417 34816 25145 4194304 106 665 0 0 0 0 4 0 20 0 1 0 2334840 4616192 177 18446744073709551615 94916161966080 94916162109980 140732164714736 140732164713544 140093362951546 0 0 0 65538 1 0 0 17 0 0 0 0 0 0 94916164210536 94916164215328 94916193206272 140732164723273 140732164723428 140732164723428 140732164726768 0
/proc/11665/statm: 1127 177 157 36 0 83 0
[pid=11669] ppid=11665 vsize=72792 CPUtime=402.06 cores=0-7
/proc/11669/stat : 11669 (wasp) R 11665 11665 18417 34816 25145 4194304 10932 0 0 0 40201 5 0 0 20 0 1 0 2334840 74539008 11816 18446744073709551615 4194304 5154736 140725533199392 140725533198432 4778761 0 0 16781312 8404994 0 0 0 17 2 0 0 0 0 0 7252936 7256980 25178112 140725533200974 140725533201108 140725533201108 140725533204448 0
/proc/11669/statm: 18198 11816 1710 235 0 10529 0
Current children cumulated CPU time (s) 402.1
Current children cumulated vsize (KiB) 77300

[startup+462.3 s]
/proc/loadavg: 3.52 3.40 3.60 4/931 11932
/proc/meminfo: memFree=1639884/8064712 swapFree=64/565720
[pid=11665] ppid=11664 vsize=4508 CPUtime=0.04 cores=0-7
/proc/11665/stat : 11665 (sh) S 11664 11665 18417 34816 25145 4194304 106 665 0 0 0 0 4 0 20 0 1 0 2334840 4616192 177 18446744073709551615 94916161966080 94916162109980 140732164714736 140732164713544 140093362951546 0 0 0 65538 1 0 0 17 0 0 0 0 0 0 94916164210536 94916164215328 94916193206272 140732164723273 140732164723428 140732164723428 140732164726768 0
/proc/11665/statm: 1127 177 157 36 0 83 0
[pid=11669] ppid=11665 vsize=73660 CPUtime=462.03 cores=0-7
/proc/11669/stat : 11669 (wasp) R 11665 11665 18417 34816 25145 4194304 11144 0 0 0 46198 5 0 0 20 0 1 0 2334840 75427840 12014 18446744073709551615 4194304 5154736 140725533199392 140725533198432 4778792 0 0 16781312 8404994 0 0 0 17 5 0 0 0 0 0 7252936 7256980 25178112 140725533200974 140725533201108 140725533201108 140725533204448 0
/proc/11669/statm: 18415 12014 1710 235 0 10746 0
Current children cumulated CPU time (s) 462.07
Current children cumulated vsize (KiB) 78168

[startup+522.3 s]
/proc/loadavg: 3.42 3.40 3.59 4/933 11939
/proc/meminfo: memFree=1630736/8064712 swapFree=64/565720
[pid=11665] ppid=11664 vsize=4508 CPUtime=0.04 cores=0-7
/proc/11665/stat : 11665 (sh) S 11664 11665 18417 34816 25145 4194304 106 665 0 0 0 0 4 0 20 0 1 0 2334840 4616192 177 18446744073709551615 94916161966080 94916162109980 140732164714736 140732164713544 140093362951546 0 0 0 65538 1 0 0 17 0 0 0 0 0 0 94916164210536 94916164215328 94916193206272 140732164723273 140732164723428 140732164723428 140732164726768 0
/proc/11665/statm: 1127 177 157 36 0 83 0
[pid=11669] ppid=11665 vsize=74252 CPUtime=521.97 cores=0-7
/proc/11669/stat : 11669 (wasp) R 11665 11665 18417 34816 25145 4194304 11272 0 0 0 52192 5 0 0 20 0 1 0 2334840 76034048 12146 18446744073709551615 4194304 5154736 140725533199392 140725533198432 4778761 0 0 16781312 8404994 0 0 0 17 2 0 0 0 0 0 7252936 7256980 25178112 140725533200974 140725533201108 140725533201108 140725533204448 0
/proc/11669/statm: 18563 12146 1710 235 0 10894 0
Current children cumulated CPU time (s) 522.01
Current children cumulated vsize (KiB) 78760

[startup+582.3 s]
/proc/loadavg: 3.79 3.48 3.61 4/983 12096
/proc/meminfo: memFree=1414164/8064712 swapFree=64/572064
[pid=11665] ppid=11664 vsize=4508 CPUtime=0.04 cores=0-7
/proc/11665/stat : 11665 (sh) S 11664 11665 18417 34816 25145 4194304 106 665 0 0 0 0 4 0 20 0 1 0 2334840 4616192 177 18446744073709551615 94916161966080 94916162109980 140732164714736 140732164713544 140093362951546 0 0 0 65538 1 0 0 17 0 0 0 0 0 0 94916164210536 94916164215328 94916193206272 140732164723273 140732164723428 140732164723428 140732164726768 0
/proc/11665/statm: 1127 177 157 36 0 83 0
[pid=11669] ppid=11665 vsize=74252 CPUtime=581.96 cores=0-7
/proc/11669/stat : 11669 (wasp) R 11665 11665 18417 34816 25145 4194304 11279 0 0 0 58191 5 0 0 20 0 1 0 2334840 76034048 12146 18446744073709551615 4194304 5154736 140725533199392 140725533198432 4778792 0 0 16781312 8404994 0 0 0 17 3 0 0 0 0 0 7252936 7256980 25178112 140725533200974 140725533201108 140725533201108 140725533204448 0
/proc/11669/statm: 18563 12146 1710 235 0 10894 0
Current children cumulated CPU time (s) 582
Current children cumulated vsize (KiB) 78760



Maximum CPU time exceeded: sending SIGTERM then SIGKILL

[startup+600.3 s]
/proc/loadavg: 3.63 3.46 3.60 4/1018 12148
/proc/meminfo: memFree=1383760/8064712 swapFree=64/572064
[pid=11665] ppid=11664 vsize=4508 CPUtime=0.04 cores=0-7
/proc/11665/stat : 11665 (sh) S 11664 11665 18417 34816 25145 4194304 106 665 0 0 0 0 4 0 20 0 1 0 2334840 4616192 177 18446744073709551615 94916161966080 94916162109980 140732164714736 140732164713544 140093362951546 0 0 0 65538 1 0 0 17 0 0 0 0 0 0 94916164210536 94916164215328 94916193206272 140732164723273 140732164723428 140732164723428 140732164726768 0
/proc/11665/statm: 1127 177 157 36 0 83 0
[pid=11669] ppid=11665 vsize=74252 CPUtime=599.97 cores=0-7
/proc/11669/stat : 11669 (wasp) R 11665 11665 18417 34816 25145 4194304 11288 0 0 0 59991 6 0 0 20 0 1 0 2334840 76034048 12146 18446744073709551615 4194304 5154736 140725533199392 140725533198432 4778761 0 0 16781312 8404994 0 0 0 17 5 0 0 0 0 0 7252936 7256980 25178112 140725533200974 140725533201108 140725533201108 140725533204448 0
/proc/11669/statm: 18563 12146 1710 235 0 10894 0
Current children cumulated CPU time (s) 600.01
Current children cumulated vsize (KiB) 78760

Sending SIGTERM to process tree (bottom up)
Sleeping 2 seconds

Solver just ended. Dumping a history of the last processes samples

[startup+600.3 s]
/proc/loadavg: 3.63 3.46 3.60 4/1018 12148
/proc/meminfo: memFree=1383760/8064712 swapFree=64/572064
[pid=11665] ppid=11664 vsize=4508 CPUtime=0.04 cores=0-7
/proc/11665/stat : 11665 (sh) S 11664 11665 18417 34816 25145 4194304 106 665 0 0 0 0 4 0 20 0 1 0 2334840 4616192 177 18446744073709551615 94916161966080 94916162109980 140732164714736 140732164713544 140093362951546 0 0 0 65538 1 0 0 17 0 0 0 0 0 0 94916164210536 94916164215328 94916193206272 140732164723273 140732164723428 140732164723428 140732164726768 0
/proc/11665/statm: 1127 177 157 36 0 83 0
[pid=11669] ppid=11665 vsize=74252 CPUtime=599.97 cores=0-7
/proc/11669/stat : 11669 (wasp) R 11665 11665 18417 34816 25145 4194304 11288 0 0 0 59991 6 0 0 20 0 1 0 2334840 76034048 12146 18446744073709551615 4194304 5154736 140725533199392 140725533198432 4778761 0 0 16781312 8404994 0 0 0 17 5 0 0 0 0 0 7252936 7256980 25178112 140725533200974 140725533201108 140725533201108 140725533204448 0
/proc/11669/statm: 18563 12146 1710 235 0 10894 0
Current children cumulated CPU time (s) 600.01
Current children cumulated vsize (KiB) 78760

Child ended because it received signal 15 (SIGTERM)

# WARNING:
# CPU time reported by wait4() is probably wrong !
# wait4(...,&childrusage) returns 11665 and gives
#  childrusage.ru_utime.tv_sec=0
#  childrusage.ru_utime.tv_usec=48000
#  childrusage.ru_stime.tv_sec=0
#  childrusage.ru_stime.tv_usec=0
# CPU time returned by wait4() is 0.048
# while last known CPU time is 600.01
#
# Solver probably didn't/couldn't wait for its children
# Using CPU time of the last sample as value...

Real time (s): 600.314
CPU time (s): 600.01
CPU user time (s): 599.95
CPU system time (s): 0.06
CPU usage (%): 99.9493
Max. virtual memory (cumulated for all children) (KiB): 78760

getrusage(RUSAGE_CHILDREN,...) data:
user time used= 0.048
system time used= 0
maximum resident set size= 6652
integral shared memory size= 0
integral unshared data size= 0
integral unshared stack size= 0
page reclaims= 771
page faults= 0
swaps= 0
block input operations= 120
block output operations= 0
messages sent= 0
messages received= 0
signals received= 0
voluntary context switches= 16
involuntary context switches= 7

runsolver used 2.756 second user time and 3.964 second system time

The end
