runsolver Copyright (C) 2010-2013 Olivier ROUSSEL

This is runsolver version 3.3.4 (svn: 1649)

This program is distributed in the hope that it will be useful,
but WITHOUT ANY WARRANTY; without even the implied warranty of
MERCHANTABILITY or FITNESS FOR A PARTICULAR PURPOSE.  See the
GNU General Public License for more details.

command line: ./runsolver -C 600 -M 2048 -w 2017-04-11_11.47.57/lazy/three_sat/roughBenchmarks/three_sat-120.dat -o 2017-04-11_11.47.57/lazy/three_sat/outputs/three_sat-120.dat ../wasp-lazy-work/lazyConstraintsExperiments/3-sat/lazy.sh ../wasp-lazy-work/lazyConstraintsExperiments/3-sat/instancesFixedClauses/260_1400_5.asp 

running on 8 cores: 0-7

Enforcing CPUTime limit (soft limit, will send SIGTERM then SIGKILL): 600 seconds
Enforcing CPUTime limit (hard limit, will send SIGXCPU): 630 seconds
Enforcing VSIZE limit (soft limit, will send SIGTERM then SIGKILL): 2097152 KiB
Enforcing VSIZE limit (hard limit, stack expansion will fail with SIGSEGV, brk() and mmap() will return ENOMEM): 2148352 KiB
Current StackSize limit: 8192 KiB


[startup+0 s]
/proc/loadavg: 3.23 3.59 4.10 4/953 11247
/proc/meminfo: memFree=1679800/8064712 swapFree=64/564692
[pid=11247] ppid=11246 vsize=4508 CPUtime=0 cores=0-7
/proc/11247/stat : 11247 (sh) S 11246 11247 18417 34816 25145 4194304 107 175 0 0 0 0 0 0 20 0 1 0 2278845 4616192 202 18446744073709551615 94494603907072 94494604050972 140731062197888 140731062196696 140173289375098 0 0 0 65538 1 0 0 17 4 0 0 0 0 0 94494606151528 94494606156320 94494615625728 140731062202953 140731062203108 140731062203108 140731062206448 0
/proc/11247/statm: 1127 202 182 36 0 83 0

[startup+0.0897499 s]
/proc/loadavg: 3.23 3.59 4.10 4/953 11247
/proc/meminfo: memFree=1679800/8064712 swapFree=64/564692
[pid=11247] ppid=11246 vsize=4508 CPUtime=0.02 cores=0-7
/proc/11247/stat : 11247 (sh) S 11246 11247 18417 34816 25145 4194304 107 664 0 0 0 0 2 0 20 0 1 0 2278845 4616192 202 18446744073709551615 94494603907072 94494604050972 140731062197888 140731062196696 140173289375098 0 0 0 65538 1 0 0 17 5 0 0 0 0 0 94494606151528 94494606156320 94494615625728 140731062202953 140731062203108 140731062203108 140731062206448 0
/proc/11247/statm: 1127 202 182 36 0 83 0
Current children cumulated CPU time (s) 0.02
Current children cumulated vsize (KiB) 4508

[startup+0.100303 s]
/proc/loadavg: 3.23 3.59 4.10 4/953 11247
/proc/meminfo: memFree=1679800/8064712 swapFree=64/564692
[pid=11247] ppid=11246 vsize=4508 CPUtime=0.02 cores=0-7
/proc/11247/stat : 11247 (sh) S 11246 11247 18417 34816 25145 4194304 107 664 0 0 0 0 2 0 20 0 1 0 2278845 4616192 202 18446744073709551615 94494603907072 94494604050972 140731062197888 140731062196696 140173289375098 0 0 0 65538 1 0 0 17 5 0 0 0 0 0 94494606151528 94494606156320 94494615625728 140731062202953 140731062203108 140731062203108 140731062206448 0
/proc/11247/statm: 1127 202 182 36 0 83 0
Current children cumulated CPU time (s) 0.02
Current children cumulated vsize (KiB) 4508

[startup+0.300134 s]
/proc/loadavg: 3.23 3.59 4.10 4/953 11247
/proc/meminfo: memFree=1679800/8064712 swapFree=64/564692
[pid=11247] ppid=11246 vsize=4508 CPUtime=0.02 cores=0-7
/proc/11247/stat : 11247 (sh) S 11246 11247 18417 34816 25145 4194304 107 664 0 0 0 0 2 0 20 0 1 0 2278845 4616192 202 18446744073709551615 94494603907072 94494604050972 140731062197888 140731062196696 140173289375098 0 0 0 65538 1 0 0 17 5 0 0 0 0 0 94494606151528 94494606156320 94494615625728 140731062202953 140731062203108 140731062203108 140731062206448 0
/proc/11247/statm: 1127 202 182 36 0 83 0
Current children cumulated CPU time (s) 0.02
Current children cumulated vsize (KiB) 4508

[startup+0.707245 s]
/proc/loadavg: 3.23 3.59 4.10 4/953 11247
/proc/meminfo: memFree=1679800/8064712 swapFree=64/564692
[pid=11247] ppid=11246 vsize=4508 CPUtime=0.02 cores=0-7
/proc/11247/stat : 11247 (sh) S 11246 11247 18417 34816 25145 4194304 107 664 0 0 0 0 2 0 20 0 1 0 2278845 4616192 202 18446744073709551615 94494603907072 94494604050972 140731062197888 140731062196696 140173289375098 0 0 0 65538 1 0 0 17 5 0 0 0 0 0 94494606151528 94494606156320 94494615625728 140731062202953 140731062203108 140731062203108 140731062206448 0
/proc/11247/statm: 1127 202 182 36 0 83 0
Current children cumulated CPU time (s) 0.02
Current children cumulated vsize (KiB) 4508

[startup+1.50018 s]
/proc/loadavg: 3.23 3.59 4.10 4/955 11252
/proc/meminfo: memFree=1673152/8064712 swapFree=64/564720
[pid=11247] ppid=11246 vsize=4508 CPUtime=0.02 cores=0-7
/proc/11247/stat : 11247 (sh) S 11246 11247 18417 34816 25145 4194304 107 664 0 0 0 0 2 0 20 0 1 0 2278845 4616192 202 18446744073709551615 94494603907072 94494604050972 140731062197888 140731062196696 140173289375098 0 0 0 65538 1 0 0 17 5 0 0 0 0 0 94494606151528 94494606156320 94494615625728 140731062202953 140731062203108 140731062203108 140731062206448 0
/proc/11247/statm: 1127 202 182 36 0 83 0
[pid=11251] ppid=11247 vsize=38144 CPUtime=1.47 cores=0-7
/proc/11251/stat : 11251 (wasp) R 11247 11247 18417 34816 25145 4194304 2261 0 0 0 147 0 0 0 20 0 1 0 2278845 39059456 3467 18446744073709551615 4194304 5154736 140730720566496 140730720565536 4778792 0 0 16781312 8404994 0 0 0 17 1 0 0 0 0 0 7252936 7256980 15044608 140730720571982 140730720572116 140730720572116 140730720575456 0
/proc/11251/statm: 9536 3467 1717 235 0 1867 0
Current children cumulated CPU time (s) 1.49
Current children cumulated vsize (KiB) 42652

[startup+3.10029 s]
/proc/loadavg: 3.23 3.59 4.10 4/955 11252
/proc/meminfo: memFree=1671788/8064712 swapFree=64/564720
[pid=11247] ppid=11246 vsize=4508 CPUtime=0.02 cores=0-7
/proc/11247/stat : 11247 (sh) S 11246 11247 18417 34816 25145 4194304 107 664 0 0 0 0 2 0 20 0 1 0 2278845 4616192 202 18446744073709551615 94494603907072 94494604050972 140731062197888 140731062196696 140173289375098 0 0 0 65538 1 0 0 17 5 0 0 0 0 0 94494606151528 94494606156320 94494615625728 140731062202953 140731062203108 140731062203108 140731062206448 0
/proc/11247/statm: 1127 202 182 36 0 83 0
[pid=11251] ppid=11247 vsize=39276 CPUtime=3.06 cores=0-7
/proc/11251/stat : 11251 (wasp) R 11247 11247 18417 34816 25145 4194304 2543 0 0 0 306 0 0 0 20 0 1 0 2278845 40218624 3731 18446744073709551615 4194304 5154736 140730720566496 140730720565536 4778761 0 0 16781312 8404994 0 0 0 17 4 0 0 0 0 0 7252936 7256980 15044608 140730720571982 140730720572116 140730720572116 140730720575456 0
/proc/11251/statm: 9819 3731 1717 235 0 2150 0
Current children cumulated CPU time (s) 3.08
Current children cumulated vsize (KiB) 43784

[startup+6.30023 s]
/proc/loadavg: 3.21 3.58 4.09 4/955 11252
/proc/meminfo: memFree=1669368/8064712 swapFree=64/564720
[pid=11247] ppid=11246 vsize=4508 CPUtime=0.02 cores=0-7
/proc/11247/stat : 11247 (sh) S 11246 11247 18417 34816 25145 4194304 107 664 0 0 0 0 2 0 20 0 1 0 2278845 4616192 202 18446744073709551615 94494603907072 94494604050972 140731062197888 140731062196696 140173289375098 0 0 0 65538 1 0 0 17 5 0 0 0 0 0 94494606151528 94494606156320 94494615625728 140731062202953 140731062203108 140731062203108 140731062206448 0
/proc/11247/statm: 1127 202 182 36 0 83 0
[pid=11251] ppid=11247 vsize=40404 CPUtime=6.26 cores=0-7
/proc/11251/stat : 11251 (wasp) R 11247 11247 18417 34816 25145 4194304 2810 0 0 0 626 0 0 0 20 0 1 0 2278845 41373696 3995 18446744073709551615 4194304 5154736 140730720566496 140730720565536 4778792 0 0 16781312 8404994 0 0 0 17 1 0 0 0 0 0 7252936 7256980 15044608 140730720571982 140730720572116 140730720572116 140730720575456 0
/proc/11251/statm: 10101 3995 1717 235 0 2432 0
Current children cumulated CPU time (s) 6.28
Current children cumulated vsize (KiB) 44912

[startup+12.7002 s]
/proc/loadavg: 3.27 3.58 4.09 5/955 11252
/proc/meminfo: memFree=1665328/8064712 swapFree=64/564720
[pid=11247] ppid=11246 vsize=4508 CPUtime=0.02 cores=0-7
/proc/11247/stat : 11247 (sh) S 11246 11247 18417 34816 25145 4194304 107 664 0 0 0 0 2 0 20 0 1 0 2278845 4616192 202 18446744073709551615 94494603907072 94494604050972 140731062197888 140731062196696 140173289375098 0 0 0 65538 1 0 0 17 5 0 0 0 0 0 94494606151528 94494606156320 94494615625728 140731062202953 140731062203108 140731062203108 140731062206448 0
/proc/11247/statm: 1127 202 182 36 0 83 0
[pid=11251] ppid=11247 vsize=41220 CPUtime=12.66 cores=0-7
/proc/11251/stat : 11251 (wasp) R 11247 11247 18417 34816 25145 4194304 3058 0 0 0 1265 1 0 0 20 0 1 0 2278845 42209280 4259 18446744073709551615 4194304 5154736 140730720566496 140730720565152 140229502295694 0 0 16781312 8404994 0 0 0 17 1 0 0 0 0 0 7252936 7256980 15044608 140730720571982 140730720572116 140730720572116 140730720575456 0
/proc/11251/statm: 10305 4259 1717 235 0 2636 0
Current children cumulated CPU time (s) 12.68
Current children cumulated vsize (KiB) 45728

Solver just ended. Dumping a history of the last processes samples

[startup+15.9003 s]
/proc/loadavg: 3.33 3.59 4.09 5/955 11252
/proc/meminfo: memFree=1664656/8064712 swapFree=64/564720
[pid=11247] ppid=11246 vsize=4508 CPUtime=0.02 cores=0-7
/proc/11247/stat : 11247 (sh) S 11246 11247 18417 34816 25145 4194304 107 664 0 0 0 0 2 0 20 0 1 0 2278845 4616192 202 18446744073709551615 94494603907072 94494604050972 140731062197888 140731062196696 140173289375098 0 0 0 65538 1 0 0 17 5 0 0 0 0 0 94494606151528 94494606156320 94494615625728 140731062202953 140731062203108 140731062203108 140731062206448 0
/proc/11247/statm: 1127 202 182 36 0 83 0
[pid=11251] ppid=11247 vsize=42856 CPUtime=15.86 cores=0-7
/proc/11251/stat : 11251 (wasp) R 11247 11247 18417 34816 25145 4194304 3403 0 0 0 1584 2 0 0 20 0 1 0 2278845 43884544 4589 18446744073709551615 4194304 5154736 140730720566496 140730720565600 4778130 0 0 16781312 8404994 0 0 0 17 1 0 0 0 0 0 7252936 7256980 15044608 140730720571982 140730720572116 140730720572116 140730720575456 0
/proc/11251/statm: 10714 4589 1717 235 0 3045 0
Current children cumulated CPU time (s) 15.88
Current children cumulated vsize (KiB) 47364

[startup+17.5002 s]
/proc/loadavg: 3.33 3.59 4.09 4/956 11253
/proc/meminfo: memFree=1664084/8064712 swapFree=64/564720
[pid=11247] ppid=11246 vsize=4508 CPUtime=0.02 cores=0-7
/proc/11247/stat : 11247 (sh) S 11246 11247 18417 34816 25145 4194304 107 664 0 0 0 0 2 0 20 0 1 0 2278845 4616192 202 18446744073709551615 94494603907072 94494604050972 140731062197888 140731062196696 140173289375098 0 0 0 65538 1 0 0 17 5 0 0 0 0 0 94494606151528 94494606156320 94494615625728 140731062202953 140731062203108 140731062203108 140731062206448 0
/proc/11247/statm: 1127 202 182 36 0 83 0
[pid=11251] ppid=11247 vsize=43384 CPUtime=17.46 cores=0-7
/proc/11251/stat : 11251 (wasp) R 11247 11247 18417 34816 25145 4194304 3553 0 0 0 1744 2 0 0 20 0 1 0 2278845 44425216 4787 18446744073709551615 4194304 5154736 140730720566496 140730720565536 4778792 0 0 16781312 8404994 0 0 0 17 1 0 0 0 0 0 7252936 7256980 15044608 140730720571982 140730720572116 140730720572116 140730720575456 0
/proc/11251/statm: 10846 4787 1717 235 0 3177 0
Current children cumulated CPU time (s) 17.48
Current children cumulated vsize (KiB) 47892

[startup+18.3136 s]
/proc/loadavg: 3.33 3.59 4.09 4/956 11253
/proc/meminfo: memFree=1664084/8064712 swapFree=64/564720
[pid=11247] ppid=11246 vsize=4508 CPUtime=0.02 cores=0-7
/proc/11247/stat : 11247 (sh) S 11246 11247 18417 34816 25145 4194304 107 664 0 0 0 0 2 0 20 0 1 0 2278845 4616192 202 18446744073709551615 94494603907072 94494604050972 140731062197888 140731062196696 140173289375098 0 0 0 65538 1 0 0 17 5 0 0 0 0 0 94494606151528 94494606156320 94494615625728 140731062202953 140731062203108 140731062203108 140731062206448 0
/proc/11247/statm: 1127 202 182 36 0 83 0
[pid=11251] ppid=11247 vsize=43384 CPUtime=18.27 cores=0-7
/proc/11251/stat : 11251 (wasp) R 11247 11247 18417 34816 25145 4194304 3553 0 0 0 1825 2 0 0 20 0 1 0 2278845 44425216 4787 18446744073709551615 4194304 5154736 140730720566496 140730720565240 140229508493072 0 0 16781312 8404994 0 0 0 17 1 0 0 0 0 0 7252936 7256980 15044608 140730720571982 140730720572116 140730720572116 140730720575456 0
/proc/11251/statm: 10846 4787 1717 235 0 3177 0
Current children cumulated CPU time (s) 18.29
Current children cumulated vsize (KiB) 47892

[startup+19.1002 s]
/proc/loadavg: 3.33 3.59 4.09 4/955 11253
/proc/meminfo: memFree=1665160/8064712 swapFree=64/564720
[pid=11247] ppid=11246 vsize=4508 CPUtime=0.02 cores=0-7
/proc/11247/stat : 11247 (sh) S 11246 11247 18417 34816 25145 4194304 107 664 0 0 0 0 2 0 20 0 1 0 2278845 4616192 202 18446744073709551615 94494603907072 94494604050972 140731062197888 140731062196696 140173289375098 0 0 0 65538 1 0 0 17 5 0 0 0 0 0 94494606151528 94494606156320 94494615625728 140731062202953 140731062203108 140731062203108 140731062206448 0
/proc/11247/statm: 1127 202 182 36 0 83 0
[pid=11251] ppid=11247 vsize=43384 CPUtime=19.06 cores=0-7
/proc/11251/stat : 11251 (wasp) R 11247 11247 18417 34816 25145 4194304 3553 0 0 0 1904 2 0 0 20 0 1 0 2278845 44425216 4787 18446744073709551615 4194304 5154736 140730720566496 140730720565536 4779138 0 0 16781312 8404994 0 0 0 17 1 0 0 0 0 0 7252936 7256980 15044608 140730720571982 140730720572116 140730720572116 140730720575456 0
/proc/11251/statm: 10846 4787 1717 235 0 3177 0
Current children cumulated CPU time (s) 19.08
Current children cumulated vsize (KiB) 47892

[startup+19.5002 s]
/proc/loadavg: 3.33 3.59 4.09 4/955 11253
/proc/meminfo: memFree=1665160/8064712 swapFree=64/564720
[pid=11247] ppid=11246 vsize=4508 CPUtime=0.02 cores=0-7
/proc/11247/stat : 11247 (sh) S 11246 11247 18417 34816 25145 4194304 107 664 0 0 0 0 2 0 20 0 1 0 2278845 4616192 202 18446744073709551615 94494603907072 94494604050972 140731062197888 140731062196696 140173289375098 0 0 0 65538 1 0 0 17 5 0 0 0 0 0 94494606151528 94494606156320 94494615625728 140731062202953 140731062203108 140731062203108 140731062206448 0
/proc/11247/statm: 1127 202 182 36 0 83 0
[pid=11251] ppid=11247 vsize=43384 CPUtime=19.46 cores=0-7
/proc/11251/stat : 11251 (wasp) R 11247 11247 18417 34816 25145 4194304 3553 0 0 0 1944 2 0 0 20 0 1 0 2278845 44425216 4787 18446744073709551615 4194304 5154736 140730720566496 140730720565536 4779138 0 0 16781312 8404994 0 0 0 17 1 0 0 0 0 0 7252936 7256980 15044608 140730720571982 140730720572116 140730720572116 140730720575456 0
/proc/11251/statm: 10846 4787 1717 235 0 3177 0
Current children cumulated CPU time (s) 19.48
Current children cumulated vsize (KiB) 47892

[startup+19.6003 s]
/proc/loadavg: 3.33 3.59 4.09 4/955 11253
/proc/meminfo: memFree=1665160/8064712 swapFree=64/564720
[pid=11247] ppid=11246 vsize=4508 CPUtime=0.02 cores=0-7
/proc/11247/stat : 11247 (sh) S 11246 11247 18417 34816 25145 4194304 107 664 0 0 0 0 2 0 20 0 1 0 2278845 4616192 202 18446744073709551615 94494603907072 94494604050972 140731062197888 140731062196696 140173289375098 0 0 0 65538 1 0 0 17 5 0 0 0 0 0 94494606151528 94494606156320 94494615625728 140731062202953 140731062203108 140731062203108 140731062206448 0
/proc/11247/statm: 1127 202 182 36 0 83 0
[pid=11251] ppid=11247 vsize=43384 CPUtime=19.56 cores=0-7
/proc/11251/stat : 11251 (wasp) R 11247 11247 18417 34816 25145 4194304 3553 0 0 0 1954 2 0 0 20 0 1 0 2278845 44425216 4787 18446744073709551615 4194304 5154736 140730720566496 140730720565536 4779069 0 0 16781312 8404994 0 0 0 17 1 0 0 0 0 0 7252936 7256980 15044608 140730720571982 140730720572116 140730720572116 140730720575456 0
/proc/11251/statm: 10846 4787 1717 235 0 3177 0
Current children cumulated CPU time (s) 19.58
Current children cumulated vsize (KiB) 47892

Child status: 0
Real time (s): 19.6339
CPU time (s): 19.616
CPU user time (s): 19.596
CPU system time (s): 0.02
CPU usage (%): 99.909
Max. virtual memory (cumulated for all children) (KiB): 47892

getrusage(RUSAGE_CHILDREN,...) data:
user time used= 19.596
system time used= 0.02
maximum resident set size= 19148
integral shared memory size= 0
integral unshared data size= 0
integral unshared stack size= 0
page reclaims= 4327
page faults= 0
swaps= 0
block input operations= 120
block output operations= 8
messages sent= 0
messages received= 0
signals received= 0
voluntary context switches= 19
involuntary context switches= 60

runsolver used 0.076 second user time and 0.196 second system time

The end
