runsolver Copyright (C) 2010-2013 Olivier ROUSSEL

This is runsolver version 3.3.4 (svn: 1649)

This program is distributed in the hope that it will be useful,
but WITHOUT ANY WARRANTY; without even the implied warranty of
MERCHANTABILITY or FITNESS FOR A PARTICULAR PURPOSE.  See the
GNU General Public License for more details.

command line: ./runsolver -C 600 -M 2048 -w 2017-04-11_11.47.57/lazy/three_sat/roughBenchmarks/three_sat-47.dat -o 2017-04-11_11.47.57/lazy/three_sat/outputs/three_sat-47.dat ../wasp-lazy-work/lazyConstraintsExperiments/3-sat/lazy.sh ../wasp-lazy-work/lazyConstraintsExperiments/3-sat/instancesFixedClauses/240_1450_2.asp 

running on 8 cores: 0-7

Enforcing CPUTime limit (soft limit, will send SIGTERM then SIGKILL): 600 seconds
Enforcing CPUTime limit (hard limit, will send SIGXCPU): 630 seconds
Enforcing VSIZE limit (soft limit, will send SIGTERM then SIGKILL): 2097152 KiB
Enforcing VSIZE limit (hard limit, stack expansion will fail with SIGSEGV, brk() and mmap() will return ENOMEM): 2148352 KiB
Current StackSize limit: 8192 KiB


[startup+0 s]
/proc/loadavg: 3.21 3.07 3.02 4/443 30859
/proc/meminfo: memFree=4447320/8064712 swapFree=0/777448
[pid=30859] ppid=30858 vsize=4508 CPUtime=0 cores=0-7
/proc/30859/stat : 30859 (sh) S 30858 30859 18417 34816 25145 4194304 106 173 0 0 0 0 0 0 20 0 1 0 1267182 4616192 202 18446744073709551615 94707776172032 94707776315932 140721321656048 140721321654856 140399333328250 0 0 0 65538 1 0 0 17 6 0 0 0 0 0 94707778416488 94707778421280 94707807232000 140721321665097 140721321665252 140721321665252 140721321668592 0
/proc/30859/statm: 1127 202 182 36 0 83 0

[startup+0.0662831 s]
/proc/loadavg: 3.21 3.07 3.02 4/443 30859
/proc/meminfo: memFree=4447320/8064712 swapFree=0/777448
[pid=30859] ppid=30858 vsize=4508 CPUtime=0.02 cores=0-7
/proc/30859/stat : 30859 (sh) S 30858 30859 18417 34816 25145 4194304 106 648 0 0 0 0 2 0 20 0 1 0 1267182 4616192 202 18446744073709551615 94707776172032 94707776315932 140721321656048 140721321654856 140399333328250 0 0 0 65538 1 0 0 17 7 0 0 0 0 0 94707778416488 94707778421280 94707807232000 140721321665097 140721321665252 140721321665252 140721321668592 0
/proc/30859/statm: 1127 202 182 36 0 83 0
Current children cumulated CPU time (s) 0.02
Current children cumulated vsize (KiB) 4508

[startup+0.100263 s]
/proc/loadavg: 3.21 3.07 3.02 4/443 30859
/proc/meminfo: memFree=4447320/8064712 swapFree=0/777448
[pid=30859] ppid=30858 vsize=4508 CPUtime=0.02 cores=0-7
/proc/30859/stat : 30859 (sh) S 30858 30859 18417 34816 25145 4194304 106 648 0 0 0 0 2 0 20 0 1 0 1267182 4616192 202 18446744073709551615 94707776172032 94707776315932 140721321656048 140721321654856 140399333328250 0 0 0 65538 1 0 0 17 7 0 0 0 0 0 94707778416488 94707778421280 94707807232000 140721321665097 140721321665252 140721321665252 140721321668592 0
/proc/30859/statm: 1127 202 182 36 0 83 0
Current children cumulated CPU time (s) 0.02
Current children cumulated vsize (KiB) 4508

[startup+0.300159 s]
/proc/loadavg: 3.21 3.07 3.02 4/443 30859
/proc/meminfo: memFree=4447320/8064712 swapFree=0/777448
[pid=30859] ppid=30858 vsize=4508 CPUtime=0.02 cores=0-7
/proc/30859/stat : 30859 (sh) S 30858 30859 18417 34816 25145 4194304 106 648 0 0 0 0 2 0 20 0 1 0 1267182 4616192 202 18446744073709551615 94707776172032 94707776315932 140721321656048 140721321654856 140399333328250 0 0 0 65538 1 0 0 17 7 0 0 0 0 0 94707778416488 94707778421280 94707807232000 140721321665097 140721321665252 140721321665252 140721321668592 0
/proc/30859/statm: 1127 202 182 36 0 83 0
Current children cumulated CPU time (s) 0.02
Current children cumulated vsize (KiB) 4508

[startup+0.700172 s]
/proc/loadavg: 3.21 3.07 3.02 4/443 30859
/proc/meminfo: memFree=4447320/8064712 swapFree=0/777448
[pid=30859] ppid=30858 vsize=4508 CPUtime=0.02 cores=0-7
/proc/30859/stat : 30859 (sh) S 30858 30859 18417 34816 25145 4194304 106 648 0 0 0 0 2 0 20 0 1 0 1267182 4616192 202 18446744073709551615 94707776172032 94707776315932 140721321656048 140721321654856 140399333328250 0 0 0 65538 1 0 0 17 7 0 0 0 0 0 94707778416488 94707778421280 94707807232000 140721321665097 140721321665252 140721321665252 140721321668592 0
/proc/30859/statm: 1127 202 182 36 0 83 0
Current children cumulated CPU time (s) 0.02
Current children cumulated vsize (KiB) 4508

[startup+1.50027 s]
/proc/loadavg: 3.21 3.07 3.02 4/445 30864
/proc/meminfo: memFree=4440240/8064712 swapFree=0/777452
[pid=30859] ppid=30858 vsize=4508 CPUtime=0.02 cores=0-7
/proc/30859/stat : 30859 (sh) S 30858 30859 18417 34816 25145 4194304 106 648 0 0 0 0 2 0 20 0 1 0 1267182 4616192 202 18446744073709551615 94707776172032 94707776315932 140721321656048 140721321654856 140399333328250 0 0 0 65538 1 0 0 17 7 0 0 0 0 0 94707778416488 94707778421280 94707807232000 140721321665097 140721321665252 140721321665252 140721321668592 0
/proc/30859/statm: 1127 202 182 36 0 83 0
[pid=30863] ppid=30859 vsize=37908 CPUtime=1.47 cores=0-7
/proc/30863/stat : 30863 (wasp) R 30859 30859 18417 34816 25145 4194304 2206 0 0 0 147 0 0 0 20 0 1 0 1267183 38817792 3433 18446744073709551615 4194304 5154736 140733481286496 140733481285536 4778792 0 0 16781312 8404994 0 0 0 17 6 0 0 0 0 0 7252936 7256980 37433344 140733481292366 140733481292500 140733481292500 140733481295840 0
/proc/30863/statm: 9477 3433 1749 235 0 1808 0
Current children cumulated CPU time (s) 1.49
Current children cumulated vsize (KiB) 42416

Solver just ended. Dumping a history of the last processes samples

[startup+1.90027 s]
/proc/loadavg: 3.21 3.07 3.02 4/445 30864
/proc/meminfo: memFree=4440240/8064712 swapFree=0/777452
[pid=30859] ppid=30858 vsize=4508 CPUtime=0.02 cores=0-7
/proc/30859/stat : 30859 (sh) S 30858 30859 18417 34816 25145 4194304 106 648 0 0 0 0 2 0 20 0 1 0 1267182 4616192 202 18446744073709551615 94707776172032 94707776315932 140721321656048 140721321654856 140399333328250 0 0 0 65538 1 0 0 17 7 0 0 0 0 0 94707778416488 94707778421280 94707807232000 140721321665097 140721321665252 140721321665252 140721321668592 0
/proc/30859/statm: 1127 202 182 36 0 83 0
[pid=30863] ppid=30859 vsize=37908 CPUtime=1.87 cores=0-7
/proc/30863/stat : 30863 (wasp) R 30859 30859 18417 34816 25145 4194304 2206 0 0 0 187 0 0 0 20 0 1 0 1267183 38817792 3433 18446744073709551615 4194304 5154736 140733481286496 140733481285536 4778749 0 0 16781312 8404994 0 0 0 17 6 0 0 0 0 0 7252936 7256980 37433344 140733481292366 140733481292500 140733481292500 140733481295840 0
/proc/30863/statm: 9477 3433 1749 235 0 1808 0
Current children cumulated CPU time (s) 1.89
Current children cumulated vsize (KiB) 42416

[startup+2.10026 s]
/proc/loadavg: 3.21 3.07 3.02 4/445 30864
/proc/meminfo: memFree=4438752/8064712 swapFree=0/777452
[pid=30859] ppid=30858 vsize=4508 CPUtime=0.02 cores=0-7
/proc/30859/stat : 30859 (sh) S 30858 30859 18417 34816 25145 4194304 106 648 0 0 0 0 2 0 20 0 1 0 1267182 4616192 202 18446744073709551615 94707776172032 94707776315932 140721321656048 140721321654856 140399333328250 0 0 0 65538 1 0 0 17 7 0 0 0 0 0 94707778416488 94707778421280 94707807232000 140721321665097 140721321665252 140721321665252 140721321668592 0
/proc/30859/statm: 1127 202 182 36 0 83 0
[pid=30863] ppid=30859 vsize=37908 CPUtime=2.08 cores=0-7
/proc/30863/stat : 30863 (wasp) R 30859 30859 18417 34816 25145 4194304 2211 0 0 0 208 0 0 0 20 0 1 0 1267183 38817792 3433 18446744073709551615 4194304 5154736 140733481286496 140733481285536 4779050 0 0 16781312 8404994 0 0 0 17 6 0 0 0 0 0 7252936 7256980 37433344 140733481292366 140733481292500 140733481292500 140733481295840 0
/proc/30863/statm: 9477 3433 1749 235 0 1808 0
Current children cumulated CPU time (s) 2.1
Current children cumulated vsize (KiB) 42416

Child status: 0
Real time (s): 2.20849
CPU time (s): 2.208
CPU user time (s): 2.208
CPU system time (s): 0
CPU usage (%): 99.9779
Max. virtual memory (cumulated for all children) (KiB): 42416

getrusage(RUSAGE_CHILDREN,...) data:
user time used= 2.208
system time used= 0
maximum resident set size= 13732
integral shared memory size= 0
integral unshared data size= 0
integral unshared stack size= 0
page reclaims= 2968
page faults= 0
swaps= 0
block input operations= 0
block output operations= 8
messages sent= 0
messages received= 0
signals received= 0
voluntary context switches= 18
involuntary context switches= 12

runsolver used 0.016 second user time and 0.02 second system time

The end
