runsolver Copyright (C) 2010-2013 Olivier ROUSSEL

This is runsolver version 3.3.4 (svn: 1649)

This program is distributed in the hope that it will be useful,
but WITHOUT ANY WARRANTY; without even the implied warranty of
MERCHANTABILITY or FITNESS FOR A PARTICULAR PURPOSE.  See the
GNU General Public License for more details.

command line: ./runsolver -C 600 -M 2048 -w 2017-04-11_11.47.57/lazy/three_sat/roughBenchmarks/three_sat-199.dat -o 2017-04-11_11.47.57/lazy/three_sat/outputs/three_sat-199.dat ../wasp-lazy-work/lazyConstraintsExperiments/3-sat/lazy.sh ../wasp-lazy-work/lazyConstraintsExperiments/3-sat/instancesFixedClauses/280_1450_4.asp 

running on 8 cores: 0-7

Enforcing CPUTime limit (soft limit, will send SIGTERM then SIGKILL): 600 seconds
Enforcing CPUTime limit (hard limit, will send SIGXCPU): 630 seconds
Enforcing VSIZE limit (soft limit, will send SIGTERM then SIGKILL): 2097152 KiB
Enforcing VSIZE limit (hard limit, stack expansion will fail with SIGSEGV, brk() and mmap() will return ENOMEM): 2148352 KiB
Current StackSize limit: 8192 KiB


[startup+0 s]
/proc/loadavg: 3.19 3.04 3.12 4/900 14092
/proc/meminfo: memFree=2520828/8064712 swapFree=64/543300
[pid=14092] ppid=14091 vsize=4508 CPUtime=0 cores=0-7
/proc/14092/stat : 14092 (sh) S 14091 14092 18417 34816 25145 4194304 107 180 0 0 0 0 0 0 20 0 1 0 2575409 4616192 189 18446744073709551615 94639702757376 94639702901276 140722455703824 140722455702632 139825380889978 0 0 0 65538 1 0 0 17 2 0 0 0 0 0 94639705001832 94639705006624 94639717101568 140722455708233 140722455708388 140722455708388 140722455711728 0
/proc/14092/statm: 1127 189 169 36 0 83 0

[startup+0.0296589 s]
/proc/loadavg: 3.19 3.04 3.12 4/900 14092
/proc/meminfo: memFree=2520828/8064712 swapFree=64/543300
[pid=14092] ppid=14091 vsize=4508 CPUtime=0 cores=0-7
/proc/14092/stat : 14092 (sh) S 14091 14092 18417 34816 25145 4194304 107 180 0 0 0 0 0 0 20 0 1 0 2575409 4616192 189 18446744073709551615 94639702757376 94639702901276 140722455703824 140722455702632 139825380889978 0 0 0 65538 1 0 0 17 2 0 0 0 0 0 94639705001832 94639705006624 94639717101568 140722455708233 140722455708388 140722455708388 140722455711728 0
/proc/14092/statm: 1127 189 169 36 0 83 0
Current children cumulated CPU time (s) 0
Current children cumulated vsize (KiB) 4508

[startup+0.100217 s]
/proc/loadavg: 3.19 3.04 3.12 4/900 14092
/proc/meminfo: memFree=2520828/8064712 swapFree=64/543300
[pid=14092] ppid=14091 vsize=4508 CPUtime=0.02 cores=0-7
/proc/14092/stat : 14092 (sh) S 14091 14092 18417 34816 25145 4194304 107 681 0 0 0 0 2 0 20 0 1 0 2575409 4616192 189 18446744073709551615 94639702757376 94639702901276 140722455703824 140722455702632 139825380889978 0 0 0 65538 1 0 0 17 3 0 0 0 0 0 94639705001832 94639705006624 94639717101568 140722455708233 140722455708388 140722455708388 140722455711728 0
/proc/14092/statm: 1127 189 169 36 0 83 0
Current children cumulated CPU time (s) 0.02
Current children cumulated vsize (KiB) 4508

[startup+0.300149 s]
/proc/loadavg: 3.19 3.04 3.12 4/900 14092
/proc/meminfo: memFree=2520828/8064712 swapFree=64/543300
[pid=14092] ppid=14091 vsize=4508 CPUtime=0.02 cores=0-7
/proc/14092/stat : 14092 (sh) S 14091 14092 18417 34816 25145 4194304 107 681 0 0 0 0 2 0 20 0 1 0 2575409 4616192 189 18446744073709551615 94639702757376 94639702901276 140722455703824 140722455702632 139825380889978 0 0 0 65538 1 0 0 17 3 0 0 0 0 0 94639705001832 94639705006624 94639717101568 140722455708233 140722455708388 140722455708388 140722455711728 0
/proc/14092/statm: 1127 189 169 36 0 83 0
Current children cumulated CPU time (s) 0.02
Current children cumulated vsize (KiB) 4508

[startup+0.700149 s]
/proc/loadavg: 3.19 3.04 3.12 4/900 14092
/proc/meminfo: memFree=2520828/8064712 swapFree=64/543300
[pid=14092] ppid=14091 vsize=4508 CPUtime=0.02 cores=0-7
/proc/14092/stat : 14092 (sh) S 14091 14092 18417 34816 25145 4194304 107 681 0 0 0 0 2 0 20 0 1 0 2575409 4616192 189 18446744073709551615 94639702757376 94639702901276 140722455703824 140722455702632 139825380889978 0 0 0 65538 1 0 0 17 3 0 0 0 0 0 94639705001832 94639705006624 94639717101568 140722455708233 140722455708388 140722455708388 140722455711728 0
/proc/14092/statm: 1127 189 169 36 0 83 0
Current children cumulated CPU time (s) 0.02
Current children cumulated vsize (KiB) 4508

[startup+1.50017 s]
/proc/loadavg: 3.19 3.04 3.12 4/902 14097
/proc/meminfo: memFree=2514904/8064712 swapFree=64/543352
[pid=14092] ppid=14091 vsize=4508 CPUtime=0.02 cores=0-7
/proc/14092/stat : 14092 (sh) S 14091 14092 18417 34816 25145 4194304 107 681 0 0 0 0 2 0 20 0 1 0 2575409 4616192 189 18446744073709551615 94639702757376 94639702901276 140722455703824 140722455702632 139825380889978 0 0 0 65538 1 0 0 17 3 0 0 0 0 0 94639705001832 94639705006624 94639717101568 140722455708233 140722455708388 140722455708388 140722455711728 0
/proc/14092/statm: 1127 189 169 36 0 83 0
[pid=14096] ppid=14092 vsize=38272 CPUtime=1.47 cores=0-7
/proc/14096/stat : 14096 (wasp) R 14092 14092 18417 34816 25145 4194304 2336 0 0 0 147 0 0 0 20 0 1 0 2575409 39190528 3553 18446744073709551615 4194304 5154736 140721575846128 140721575845168 4778803 0 0 16781312 8404994 0 0 0 17 2 0 0 0 0 0 7252936 7256980 11018240 140721575854670 140721575854804 140721575854804 140721575858144 0
/proc/14096/statm: 9568 3553 1717 235 0 1899 0
Current children cumulated CPU time (s) 1.49
Current children cumulated vsize (KiB) 42780

[startup+3.10024 s]
/proc/loadavg: 3.17 3.04 3.11 4/902 14097
/proc/meminfo: memFree=2512424/8064712 swapFree=64/543368
[pid=14092] ppid=14091 vsize=4508 CPUtime=0.02 cores=0-7
/proc/14092/stat : 14092 (sh) S 14091 14092 18417 34816 25145 4194304 107 681 0 0 0 0 2 0 20 0 1 0 2575409 4616192 189 18446744073709551615 94639702757376 94639702901276 140722455703824 140722455702632 139825380889978 0 0 0 65538 1 0 0 17 3 0 0 0 0 0 94639705001832 94639705006624 94639717101568 140722455708233 140722455708388 140722455708388 140722455711728 0
/proc/14092/statm: 1127 189 169 36 0 83 0
[pid=14096] ppid=14092 vsize=40064 CPUtime=3.06 cores=0-7
/proc/14096/stat : 14096 (wasp) R 14092 14092 18417 34816 25145 4194304 2744 0 0 0 306 0 0 0 20 0 1 0 2575409 41025536 3949 18446744073709551615 4194304 5154736 140721575846128 140721575844880 4367243 0 0 16781312 8404994 0 0 0 17 2 0 0 0 0 0 7252936 7256980 11018240 140721575854670 140721575854804 140721575854804 140721575858144 0
/proc/14096/statm: 10016 3949 1717 235 0 2347 0
Current children cumulated CPU time (s) 3.08
Current children cumulated vsize (KiB) 44572

[startup+6.30024 s]
/proc/loadavg: 3.17 3.04 3.11 6/902 14097
/proc/meminfo: memFree=2510504/8064712 swapFree=64/543368
[pid=14092] ppid=14091 vsize=4508 CPUtime=0.02 cores=0-7
/proc/14092/stat : 14092 (sh) S 14091 14092 18417 34816 25145 4194304 107 681 0 0 0 0 2 0 20 0 1 0 2575409 4616192 189 18446744073709551615 94639702757376 94639702901276 140722455703824 140722455702632 139825380889978 0 0 0 65538 1 0 0 17 3 0 0 0 0 0 94639705001832 94639705006624 94639717101568 140722455708233 140722455708388 140722455708388 140722455711728 0
/proc/14092/statm: 1127 189 169 36 0 83 0
[pid=14096] ppid=14092 vsize=40828 CPUtime=6.26 cores=0-7
/proc/14096/stat : 14096 (wasp) R 14092 14092 18417 34816 25145 4194304 2960 0 0 0 626 0 0 0 20 0 1 0 2575409 41807872 4147 18446744073709551615 4194304 5154736 140721575846128 140721575845168 4778761 0 0 16781312 8404994 0 0 0 17 2 0 0 0 0 0 7252936 7256980 11018240 140721575854670 140721575854804 140721575854804 140721575858144 0
/proc/14096/statm: 10207 4147 1717 235 0 2538 0
Current children cumulated CPU time (s) 6.28
Current children cumulated vsize (KiB) 45336

[startup+12.7003 s]
/proc/loadavg: 3.15 3.03 3.11 4/901 14098
/proc/meminfo: memFree=2501208/8064712 swapFree=64/543368
[pid=14092] ppid=14091 vsize=4508 CPUtime=0.02 cores=0-7
/proc/14092/stat : 14092 (sh) S 14091 14092 18417 34816 25145 4194304 107 681 0 0 0 0 2 0 20 0 1 0 2575409 4616192 189 18446744073709551615 94639702757376 94639702901276 140722455703824 140722455702632 139825380889978 0 0 0 65538 1 0 0 17 3 0 0 0 0 0 94639705001832 94639705006624 94639717101568 140722455708233 140722455708388 140722455708388 140722455711728 0
/proc/14092/statm: 1127 189 169 36 0 83 0
[pid=14096] ppid=14092 vsize=43600 CPUtime=12.66 cores=0-7
/proc/14096/stat : 14096 (wasp) R 14092 14092 18417 34816 25145 4194304 3593 0 0 0 1266 0 0 0 20 0 1 0 2575409 44646400 4807 18446744073709551615 4194304 5154736 140721575846128 140721575845168 4778761 0 0 16781312 8404994 0 0 0 17 6 0 0 0 0 0 7252936 7256980 11018240 140721575854670 140721575854804 140721575854804 140721575858144 0
/proc/14096/statm: 10900 4807 1717 235 0 3231 0
Current children cumulated CPU time (s) 12.68
Current children cumulated vsize (KiB) 48108



Received SIGTERM or SIGINT, killing child

[startup+18.5002 s]
/proc/loadavg: 3.05 3.02 3.11 5/901 14098
/proc/meminfo: memFree=2506752/8064712 swapFree=64/543368
[pid=14092] ppid=14091 vsize=4508 CPUtime=0.02 cores=0-7
/proc/14092/stat : 14092 (sh) S 14091 14092 18417 34816 25145 4194304 107 681 0 0 0 0 2 0 20 0 1 0 2575409 4616192 189 18446744073709551615 94639702757376 94639702901276 140722455703824 140722455702632 139825380889978 0 0 0 65538 1 0 0 17 3 0 0 0 0 0 94639705001832 94639705006624 94639717101568 140722455708233 140722455708388 140722455708388 140722455711728 0
/proc/14092/statm: 1127 189 169 36 0 83 0
[pid=14096] ppid=14092 vsize=45572 CPUtime=18.54 cores=0-7
/proc/14096/stat : 14096 (wasp) R 14092 14092 18417 34816 25145 4194304 4097 0 0 0 1854 0 0 0 20 0 1 0 2575409 46665728 5335 18446744073709551615 4194304 5154736 140721575846128 140721575845168 4778846 0 0 16781312 8404994 0 0 0 17 2 0 0 0 0 0 7252936 7256980 11018240 140721575854670 140721575854804 140721575854804 140721575858144 0
/proc/14096/statm: 11393 5335 1717 235 0 3724 0
Current children cumulated CPU time (s) 18.56
Current children cumulated vsize (KiB) 50080

Sending SIGTERM to process tree (bottom up)
Sleeping 2 seconds

Solver just ended. Dumping a history of the last processes samples

[startup+18.5002 s]
/proc/loadavg: 3.05 3.02 3.11 5/901 14098
/proc/meminfo: memFree=2506752/8064712 swapFree=64/543368
[pid=14092] ppid=14091 vsize=4508 CPUtime=0.02 cores=0-7
/proc/14092/stat : 14092 (sh) S 14091 14092 18417 34816 25145 4194304 107 681 0 0 0 0 2 0 20 0 1 0 2575409 4616192 189 18446744073709551615 94639702757376 94639702901276 140722455703824 140722455702632 139825380889978 0 0 0 65538 1 0 0 17 3 0 0 0 0 0 94639705001832 94639705006624 94639717101568 140722455708233 140722455708388 140722455708388 140722455711728 0
/proc/14092/statm: 1127 189 169 36 0 83 0
[pid=14096] ppid=14092 vsize=45572 CPUtime=18.54 cores=0-7
/proc/14096/stat : 14096 (wasp) R 14092 14092 18417 34816 25145 4194304 4097 0 0 0 1854 0 0 0 20 0 1 0 2575409 46665728 5335 18446744073709551615 4194304 5154736 140721575846128 140721575845168 4778846 0 0 16781312 8404994 0 0 0 17 2 0 0 0 0 0 7252936 7256980 11018240 140721575854670 140721575854804 140721575854804 140721575858144 0
/proc/14096/statm: 11393 5335 1717 235 0 3724 0
Current children cumulated CPU time (s) 18.56
Current children cumulated vsize (KiB) 50080

Child ended because it received signal 15 (SIGTERM)

# WARNING:
# CPU time reported by wait4() is probably wrong !
# wait4(...,&childrusage) returns 14092 and gives
#  childrusage.ru_utime.tv_sec=0
#  childrusage.ru_utime.tv_usec=20000
#  childrusage.ru_stime.tv_sec=0
#  childrusage.ru_stime.tv_usec=4000
# CPU time returned by wait4() is 0.024
# while last known CPU time is 18.56
#
# Solver probably didn't/couldn't wait for its children
# Using CPU time of the last sample as value...

Real time (s): 18.5988
CPU time (s): 18.56
CPU user time (s): 18.56
CPU system time (s): 0
CPU usage (%): 99.7915
Max. virtual memory (cumulated for all children) (KiB): 50080

getrusage(RUSAGE_CHILDREN,...) data:
user time used= 0.02
system time used= 0.004
maximum resident set size= 6720
integral shared memory size= 0
integral unshared data size= 0
integral unshared stack size= 0
page reclaims= 788
page faults= 0
swaps= 0
block input operations= 128
block output operations= 0
messages sent= 0
messages received= 0
signals received= 0
voluntary context switches= 17
involuntary context switches= 5

runsolver used 0.08 second user time and 0.084 second system time

The end
