runsolver Copyright (C) 2010-2013 Olivier ROUSSEL

This is runsolver version 3.3.4 (svn: 1649)

This program is distributed in the hope that it will be useful,
but WITHOUT ANY WARRANTY; without even the implied warranty of
MERCHANTABILITY or FITNESS FOR A PARTICULAR PURPOSE.  See the
GNU General Public License for more details.

command line: ./runsolver -C 600 -M 2048 -w 2017-04-11_11.47.57/lazy/three_sat/roughBenchmarks/three_sat-13.dat -o 2017-04-11_11.47.57/lazy/three_sat/outputs/three_sat-13.dat ../wasp-lazy-work/lazyConstraintsExperiments/3-sat/lazy.sh ../wasp-lazy-work/lazyConstraintsExperiments/3-sat/instancesFixedClauses/240_1100_3.asp 

running on 8 cores: 0-7

Enforcing CPUTime limit (soft limit, will send SIGTERM then SIGKILL): 600 seconds
Enforcing CPUTime limit (hard limit, will send SIGXCPU): 630 seconds
Enforcing VSIZE limit (soft limit, will send SIGTERM then SIGKILL): 2097152 KiB
Enforcing VSIZE limit (hard limit, stack expansion will fail with SIGSEGV, brk() and mmap() will return ENOMEM): 2148352 KiB
Current StackSize limit: 8192 KiB


[startup+0 s]
/proc/loadavg: 3.46 3.43 3.59 4/975 12175
/proc/meminfo: memFree=1479868/8064712 swapFree=64/572128
[pid=12175] ppid=12174 vsize=4508 CPUtime=0 cores=0-7
/proc/12175/stat : 12175 (sh) S 12174 12175 18417 34816 25145 4194304 105 174 0 0 0 0 0 0 20 0 1 0 2395538 4616192 187 18446744073709551615 94618789642240 94618789786140 140723088530320 140723088529128 139699250509178 0 0 0 65538 1 0 0 17 6 0 0 0 0 0 94618791886696 94618791891488 94618823032832 140723088532041 140723088532196 140723088532196 140723088535536 0
/proc/12175/statm: 1127 187 167 36 0 83 0

[startup+0.027164 s]
/proc/loadavg: 3.46 3.43 3.59 4/975 12175
/proc/meminfo: memFree=1479868/8064712 swapFree=64/572128
[pid=12175] ppid=12174 vsize=4508 CPUtime=0 cores=0-7
/proc/12175/stat : 12175 (sh) S 12174 12175 18417 34816 25145 4194304 105 174 0 0 0 0 0 0 20 0 1 0 2395538 4616192 187 18446744073709551615 94618789642240 94618789786140 140723088530320 140723088529128 139699250509178 0 0 0 65538 1 0 0 17 6 0 0 0 0 0 94618791886696 94618791891488 94618823032832 140723088532041 140723088532196 140723088532196 140723088535536 0
/proc/12175/statm: 1127 187 167 36 0 83 0
Current children cumulated CPU time (s) 0
Current children cumulated vsize (KiB) 4508

[startup+0.100874 s]
/proc/loadavg: 3.46 3.43 3.59 4/975 12175
/proc/meminfo: memFree=1479868/8064712 swapFree=64/572128
[pid=12175] ppid=12174 vsize=4508 CPUtime=0.04 cores=0-7
/proc/12175/stat : 12175 (sh) S 12174 12175 18417 34816 25145 4194304 105 631 0 0 0 0 4 0 20 0 1 0 2395538 4616192 187 18446744073709551615 94618789642240 94618789786140 140723088530320 140723088529128 139699250509178 0 0 0 65538 1 0 0 17 7 0 0 0 0 0 94618791886696 94618791891488 94618823032832 140723088532041 140723088532196 140723088532196 140723088535536 0
/proc/12175/statm: 1127 187 167 36 0 83 0
Current children cumulated CPU time (s) 0.04
Current children cumulated vsize (KiB) 4508

[startup+0.300248 s]
/proc/loadavg: 3.46 3.43 3.59 4/975 12175
/proc/meminfo: memFree=1479868/8064712 swapFree=64/572128
[pid=12175] ppid=12174 vsize=4508 CPUtime=0.04 cores=0-7
/proc/12175/stat : 12175 (sh) S 12174 12175 18417 34816 25145 4194304 105 631 0 0 0 0 4 0 20 0 1 0 2395538 4616192 187 18446744073709551615 94618789642240 94618789786140 140723088530320 140723088529128 139699250509178 0 0 0 65538 1 0 0 17 7 0 0 0 0 0 94618791886696 94618791891488 94618823032832 140723088532041 140723088532196 140723088532196 140723088535536 0
/proc/12175/statm: 1127 187 167 36 0 83 0
Current children cumulated CPU time (s) 0.04
Current children cumulated vsize (KiB) 4508

[startup+0.700198 s]
/proc/loadavg: 3.46 3.43 3.59 4/975 12175
/proc/meminfo: memFree=1479868/8064712 swapFree=64/572128
[pid=12175] ppid=12174 vsize=4508 CPUtime=0.04 cores=0-7
/proc/12175/stat : 12175 (sh) S 12174 12175 18417 34816 25145 4194304 105 631 0 0 0 0 4 0 20 0 1 0 2395538 4616192 187 18446744073709551615 94618789642240 94618789786140 140723088530320 140723088529128 139699250509178 0 0 0 65538 1 0 0 17 7 0 0 0 0 0 94618791886696 94618791891488 94618823032832 140723088532041 140723088532196 140723088532196 140723088535536 0
/proc/12175/statm: 1127 187 167 36 0 83 0
Current children cumulated CPU time (s) 0.04
Current children cumulated vsize (KiB) 4508

[startup+1.50042 s]
/proc/loadavg: 3.46 3.43 3.59 4/977 12180
/proc/meminfo: memFree=1474816/8064712 swapFree=64/572136
[pid=12175] ppid=12174 vsize=4508 CPUtime=0.04 cores=0-7
/proc/12175/stat : 12175 (sh) S 12174 12175 18417 34816 25145 4194304 105 631 0 0 0 0 4 0 20 0 1 0 2395538 4616192 187 18446744073709551615 94618789642240 94618789786140 140723088530320 140723088529128 139699250509178 0 0 0 65538 1 0 0 17 7 0 0 0 0 0 94618791886696 94618791891488 94618823032832 140723088532041 140723088532196 140723088532196 140723088535536 0
/proc/12175/statm: 1127 187 167 36 0 83 0
[pid=12179] ppid=12175 vsize=36684 CPUtime=1.44 cores=0-7
/proc/12179/stat : 12179 (wasp) R 12175 12175 18417 34816 25145 4194304 1852 0 0 0 144 0 0 0 20 0 1 0 2395538 37564416 3194 18446744073709551615 4194304 5154736 140726357674832 140726357673872 4778800 0 0 16781312 8404994 0 0 0 17 4 0 0 0 0 0 7252936 7256980 15994880 140726357676622 140726357676756 140726357676756 140726357680096 0
/proc/12179/statm: 9171 3194 1730 235 0 1502 0
Current children cumulated CPU time (s) 1.48
Current children cumulated vsize (KiB) 41192

[startup+3.10031 s]
/proc/loadavg: 3.46 3.43 3.59 4/977 12180
/proc/meminfo: memFree=1474184/8064712 swapFree=64/572136
[pid=12175] ppid=12174 vsize=4508 CPUtime=0.04 cores=0-7
/proc/12175/stat : 12175 (sh) S 12174 12175 18417 34816 25145 4194304 105 631 0 0 0 0 4 0 20 0 1 0 2395538 4616192 187 18446744073709551615 94618789642240 94618789786140 140723088530320 140723088529128 139699250509178 0 0 0 65538 1 0 0 17 7 0 0 0 0 0 94618791886696 94618791891488 94618823032832 140723088532041 140723088532196 140723088532196 140723088535536 0
/proc/12175/statm: 1127 187 167 36 0 83 0
[pid=12179] ppid=12175 vsize=37744 CPUtime=3.05 cores=0-7
/proc/12179/stat : 12179 (wasp) R 12175 12175 18417 34816 25145 4194304 2147 0 0 0 304 1 0 0 20 0 1 0 2395538 38649856 3458 18446744073709551615 4194304 5154736 140726357674832 140726357673872 4778761 0 0 16781312 8404994 0 0 0 17 4 0 0 0 0 0 7252936 7256980 15994880 140726357676622 140726357676756 140726357676756 140726357680096 0
/proc/12179/statm: 9436 3458 1730 235 0 1767 0
Current children cumulated CPU time (s) 3.09
Current children cumulated vsize (KiB) 42252

[startup+6.30023 s]
/proc/loadavg: 3.50 3.44 3.59 5/977 12180
/proc/meminfo: memFree=1472200/8064712 swapFree=64/572136
[pid=12175] ppid=12174 vsize=4508 CPUtime=0.04 cores=0-7
/proc/12175/stat : 12175 (sh) S 12174 12175 18417 34816 25145 4194304 105 631 0 0 0 0 4 0 20 0 1 0 2395538 4616192 187 18446744073709551615 94618789642240 94618789786140 140723088530320 140723088529128 139699250509178 0 0 0 65538 1 0 0 17 7 0 0 0 0 0 94618791886696 94618791891488 94618823032832 140723088532041 140723088532196 140723088532196 140723088535536 0
/proc/12175/statm: 1127 187 167 36 0 83 0
[pid=12179] ppid=12175 vsize=38648 CPUtime=6.24 cores=0-7
/proc/12179/stat : 12179 (wasp) R 12175 12175 18417 34816 25145 4194304 2347 0 0 0 623 1 0 0 20 0 1 0 2395538 39575552 3656 18446744073709551615 4194304 5154736 140726357674832 140726357673872 4779138 0 0 16781312 8404994 0 0 0 17 4 0 0 0 0 0 7252936 7256980 15994880 140726357676622 140726357676756 140726357676756 140726357680096 0
/proc/12179/statm: 9662 3656 1730 235 0 1993 0
Current children cumulated CPU time (s) 6.28
Current children cumulated vsize (KiB) 43156

[startup+12.7003 s]
/proc/loadavg: 3.46 3.43 3.58 4/977 12180
/proc/meminfo: memFree=1466000/8064712 swapFree=64/572136
[pid=12175] ppid=12174 vsize=4508 CPUtime=0.04 cores=0-7
/proc/12175/stat : 12175 (sh) S 12174 12175 18417 34816 25145 4194304 105 631 0 0 0 0 4 0 20 0 1 0 2395538 4616192 187 18446744073709551615 94618789642240 94618789786140 140723088530320 140723088529128 139699250509178 0 0 0 65538 1 0 0 17 7 0 0 0 0 0 94618791886696 94618791891488 94618823032832 140723088532041 140723088532196 140723088532196 140723088535536 0
/proc/12175/statm: 1127 187 167 36 0 83 0
[pid=12179] ppid=12175 vsize=41988 CPUtime=12.63 cores=0-7
/proc/12179/stat : 12179 (wasp) R 12175 12175 18417 34816 25145 4194304 3145 0 0 0 1262 1 0 0 20 0 1 0 2395538 42995712 4448 18446744073709551615 4194304 5154736 140726357674832 140726357673872 4779138 0 0 16781312 8404994 0 0 0 17 5 0 0 0 0 0 7252936 7256980 15994880 140726357676622 140726357676756 140726357676756 140726357680096 0
/proc/12179/statm: 10497 4448 1730 235 0 2828 0
Current children cumulated CPU time (s) 12.67
Current children cumulated vsize (KiB) 46496

[startup+25.5003 s]
/proc/loadavg: 3.37 3.41 3.57 4/955 12180
/proc/meminfo: memFree=1508748/8064712 swapFree=64/571736
[pid=12175] ppid=12174 vsize=4508 CPUtime=0.04 cores=0-7
/proc/12175/stat : 12175 (sh) S 12174 12175 18417 34816 25145 4194304 105 631 0 0 0 0 4 0 20 0 1 0 2395538 4616192 187 18446744073709551615 94618789642240 94618789786140 140723088530320 140723088529128 139699250509178 0 0 0 65538 1 0 0 17 7 0 0 0 0 0 94618791886696 94618791891488 94618823032832 140723088532041 140723088532196 140723088532196 140723088535536 0
/proc/12175/statm: 1127 187 167 36 0 83 0
[pid=12179] ppid=12175 vsize=42744 CPUtime=25.43 cores=0-7
/proc/12179/stat : 12179 (wasp) R 12175 12175 18417 34816 25145 4194304 3344 0 0 0 2542 1 0 0 20 0 1 0 2395538 43769856 4646 18446744073709551615 4194304 5154736 140726357674832 140726357673872 4778949 0 0 16781312 8404994 0 0 0 17 4 0 0 0 0 0 7252936 7256980 15994880 140726357676622 140726357676756 140726357676756 140726357680096 0
/proc/12179/statm: 10686 4646 1730 235 0 3017 0
Current children cumulated CPU time (s) 25.47
Current children cumulated vsize (KiB) 47252

Solver just ended. Dumping a history of the last processes samples

[startup+28.7004 s]
/proc/loadavg: 3.37 3.41 3.57 4/954 12180
/proc/meminfo: memFree=1505448/8064712 swapFree=64/571736
[pid=12175] ppid=12174 vsize=4508 CPUtime=0.04 cores=0-7
/proc/12175/stat : 12175 (sh) S 12174 12175 18417 34816 25145 4194304 105 631 0 0 0 0 4 0 20 0 1 0 2395538 4616192 187 18446744073709551615 94618789642240 94618789786140 140723088530320 140723088529128 139699250509178 0 0 0 65538 1 0 0 17 7 0 0 0 0 0 94618791886696 94618791891488 94618823032832 140723088532041 140723088532196 140723088532196 140723088535536 0
/proc/12175/statm: 1127 187 167 36 0 83 0
[pid=12179] ppid=12175 vsize=42884 CPUtime=28.63 cores=0-7
/proc/12179/stat : 12179 (wasp) R 12175 12175 18417 34816 25145 4194304 3360 0 0 0 2862 1 0 0 20 0 1 0 2395538 43913216 4712 18446744073709551615 4194304 5154736 140726357674832 140726357673872 4778761 0 0 16781312 8404994 0 0 0 17 3 0 0 0 0 0 7252936 7256980 15994880 140726357676622 140726357676756 140726357676756 140726357680096 0
/proc/12179/statm: 10721 4712 1730 235 0 3052 0
Current children cumulated CPU time (s) 28.67
Current children cumulated vsize (KiB) 47392

[startup+31.913 s]
/proc/loadavg: 3.34 3.40 3.57 4/954 12180
/proc/meminfo: memFree=1501480/8064712 swapFree=64/571736
[pid=12175] ppid=12174 vsize=4508 CPUtime=0.04 cores=0-7
/proc/12175/stat : 12175 (sh) S 12174 12175 18417 34816 25145 4194304 105 631 0 0 0 0 4 0 20 0 1 0 2395538 4616192 187 18446744073709551615 94618789642240 94618789786140 140723088530320 140723088529128 139699250509178 0 0 0 65538 1 0 0 17 7 0 0 0 0 0 94618791886696 94618791891488 94618823032832 140723088532041 140723088532196 140723088532196 140723088535536 0
/proc/12175/statm: 1127 187 167 36 0 83 0
[pid=12179] ppid=12175 vsize=42884 CPUtime=31.84 cores=0-7
/proc/12179/stat : 12179 (wasp) R 12175 12175 18417 34816 25145 4194304 3367 0 0 0 3183 1 0 0 20 0 1 0 2395538 43913216 4712 18446744073709551615 4194304 5154736 140726357674832 140726357674048 4802503 0 0 16781312 8404994 0 0 0 17 2 0 0 0 0 0 7252936 7256980 15994880 140726357676622 140726357676756 140726357676756 140726357680096 0
/proc/12179/statm: 10721 4712 1730 235 0 3052 0
Current children cumulated CPU time (s) 31.88
Current children cumulated vsize (KiB) 47392

[startup+32.7003 s]
/proc/loadavg: 3.34 3.40 3.57 4/954 12180
/proc/meminfo: memFree=1501480/8064712 swapFree=64/571736
[pid=12175] ppid=12174 vsize=4508 CPUtime=0.04 cores=0-7
/proc/12175/stat : 12175 (sh) S 12174 12175 18417 34816 25145 4194304 105 631 0 0 0 0 4 0 20 0 1 0 2395538 4616192 187 18446744073709551615 94618789642240 94618789786140 140723088530320 140723088529128 139699250509178 0 0 0 65538 1 0 0 17 7 0 0 0 0 0 94618791886696 94618791891488 94618823032832 140723088532041 140723088532196 140723088532196 140723088535536 0
/proc/12175/statm: 1127 187 167 36 0 83 0
[pid=12179] ppid=12175 vsize=42884 CPUtime=32.63 cores=0-7
/proc/12179/stat : 12179 (wasp) R 12175 12175 18417 34816 25145 4194304 3367 0 0 0 3262 1 0 0 20 0 1 0 2395538 43913216 4712 18446744073709551615 4194304 5154736 140726357674832 140726357673872 4778790 0 0 16781312 8404994 0 0 0 17 2 0 0 0 0 0 7252936 7256980 15994880 140726357676622 140726357676756 140726357676756 140726357680096 0
/proc/12179/statm: 10721 4712 1730 235 0 3052 0
Current children cumulated CPU time (s) 32.67
Current children cumulated vsize (KiB) 47392

[startup+33.5003 s]
/proc/loadavg: 3.34 3.40 3.57 4/954 12180
/proc/meminfo: memFree=1498236/8064712 swapFree=64/571736
[pid=12175] ppid=12174 vsize=4508 CPUtime=0.04 cores=0-7
/proc/12175/stat : 12175 (sh) S 12174 12175 18417 34816 25145 4194304 105 631 0 0 0 0 4 0 20 0 1 0 2395538 4616192 187 18446744073709551615 94618789642240 94618789786140 140723088530320 140723088529128 139699250509178 0 0 0 65538 1 0 0 17 7 0 0 0 0 0 94618791886696 94618791891488 94618823032832 140723088532041 140723088532196 140723088532196 140723088535536 0
/proc/12175/statm: 1127 187 167 36 0 83 0
[pid=12179] ppid=12175 vsize=42884 CPUtime=33.43 cores=0-7
/proc/12179/stat : 12179 (wasp) R 12175 12175 18417 34816 25145 4194304 3367 0 0 0 3342 1 0 0 20 0 1 0 2395538 43913216 4712 18446744073709551615 4194304 5154736 140726357674832 140726357673872 4778761 0 0 16781312 8404994 0 0 0 17 2 0 0 0 0 0 7252936 7256980 15994880 140726357676622 140726357676756 140726357676756 140726357680096 0
/proc/12179/statm: 10721 4712 1730 235 0 3052 0
Current children cumulated CPU time (s) 33.47
Current children cumulated vsize (KiB) 47392

[startup+33.9002 s]
/proc/loadavg: 3.34 3.40 3.57 4/954 12180
/proc/meminfo: memFree=1498236/8064712 swapFree=64/571736
[pid=12175] ppid=12174 vsize=4508 CPUtime=0.04 cores=0-7
/proc/12175/stat : 12175 (sh) S 12174 12175 18417 34816 25145 4194304 105 631 0 0 0 0 4 0 20 0 1 0 2395538 4616192 187 18446744073709551615 94618789642240 94618789786140 140723088530320 140723088529128 139699250509178 0 0 0 65538 1 0 0 17 7 0 0 0 0 0 94618791886696 94618791891488 94618823032832 140723088532041 140723088532196 140723088532196 140723088535536 0
/proc/12175/statm: 1127 187 167 36 0 83 0
[pid=12179] ppid=12175 vsize=42884 CPUtime=33.83 cores=0-7
/proc/12179/stat : 12179 (wasp) R 12175 12175 18417 34816 25145 4194304 3367 0 0 0 3382 1 0 0 20 0 1 0 2395538 43913216 4712 18446744073709551615 4194304 5154736 140726357674832 140726357673872 4778761 0 0 16781312 8404994 0 0 0 17 2 0 0 0 0 0 7252936 7256980 15994880 140726357676622 140726357676756 140726357676756 140726357680096 0
/proc/12179/statm: 10721 4712 1730 235 0 3052 0
Current children cumulated CPU time (s) 33.87
Current children cumulated vsize (KiB) 47392

[startup+34.0002 s]
/proc/loadavg: 3.31 3.40 3.57 4/954 12180
/proc/meminfo: memFree=1505920/8064712 swapFree=64/571736
[pid=12175] ppid=12174 vsize=4508 CPUtime=0.04 cores=0-7
/proc/12175/stat : 12175 (sh) S 12174 12175 18417 34816 25145 4194304 105 631 0 0 0 0 4 0 20 0 1 0 2395538 4616192 187 18446744073709551615 94618789642240 94618789786140 140723088530320 140723088529128 139699250509178 0 0 0 65538 1 0 0 17 7 0 0 0 0 0 94618791886696 94618791891488 94618823032832 140723088532041 140723088532196 140723088532196 140723088535536 0
/proc/12175/statm: 1127 187 167 36 0 83 0
[pid=12179] ppid=12175 vsize=42884 CPUtime=33.93 cores=0-7
/proc/12179/stat : 12179 (wasp) R 12175 12175 18417 34816 25145 4194304 3367 0 0 0 3392 1 0 0 20 0 1 0 2395538 43913216 4712 18446744073709551615 4194304 5154736 140726357674832 140726357673872 4779138 0 0 16781312 8404994 0 0 0 17 2 0 0 0 0 0 7252936 7256980 15994880 140726357676622 140726357676756 140726357676756 140726357680096 0
/proc/12179/statm: 10721 4712 1730 235 0 3052 0
Current children cumulated CPU time (s) 33.97
Current children cumulated vsize (KiB) 47392

Child status: 0
Real time (s): 34.0611
CPU time (s): 34.04
CPU user time (s): 34.024
CPU system time (s): 0.016
CPU usage (%): 99.938
Max. virtual memory (cumulated for all children) (KiB): 47392

getrusage(RUSAGE_CHILDREN,...) data:
user time used= 34.024
system time used= 0.016
maximum resident set size= 18848
integral shared memory size= 0
integral unshared data size= 0
integral unshared stack size= 0
page reclaims= 4107
page faults= 0
swaps= 0
block input operations= 0
block output operations= 8
messages sent= 0
messages received= 0
signals received= 0
voluntary context switches= 13
involuntary context switches= 120

runsolver used 0.188 second user time and 0.24 second system time

The end
